version 1
nodes
  0 "tag_handle"  -1
  1 "tag_shell"   0
  2 "tag_shot"   0
  3 "ClipHolder"   0
  4 "Barrel"   0
  5 "Mag"   0
  6 "Railgun"   0
end
skeleton
time 0
  0 -9.000000 0.000000 -2.000000 1.570796 -0.000000 0.000000
  1 6.891871 5.750109 0.840362 -1.570796 -0.949622 1.560488
  2 42.481834 5.523475 0.000000 0.000000 -0.000000 0.000000
  3 5.961907 4.620892 0.048462 -1.570796 0.000000 -0.010309
  4 30.086630 5.554429 0.047536 -1.570796 0.000000 -0.010309
  5 11.238356 1.357973 -0.535812 -1.570796 0.000000 -0.010309
  6 -17.390257 -0.204779 0.057708 -1.570796 0.000000 0.000000
time 1
  0 -8.450377 0.000000 -1.861444 1.610740 0.007724 -0.013967
  1 6.891872 5.750109 0.840362 -1.570796 -0.949622 1.560488
  2 42.481838 5.523475 0.000000 0.000000 -0.000000 0.000000
  3 5.961908 4.620892 0.048462 -1.570797 -0.000000 -0.010309
  4 30.086632 5.554429 0.047536 -1.570797 -0.000000 -0.010309
  5 11.238358 1.357973 -0.535812 -1.570797 -0.000000 -0.010309
  6 -17.390255 -0.204779 0.057708 -1.570796 0.000000 -0.000000
time 2
  0 -7.241205 0.000000 -1.523566 1.702273 0.024716 -0.046015
  1 6.891871 5.750109 0.840362 -1.570796 -0.949622 1.560487
  2 42.481834 5.523475 0.000001 0.000000 -0.000000 0.000000
  3 5.961907 4.620891 0.048462 -1.570796 -0.000000 -0.010309
  4 30.086632 5.554428 0.047536 -1.570796 -0.000000 -0.010309
  5 11.238358 1.357973 -0.535812 -1.570796 -0.000000 -0.010309
  6 -17.390259 -0.204779 0.057708 -1.570796 -0.000000 0.000000
time 3
  0 -6.032034 0.000000 -1.103052 1.802943 0.041708 -0.081365
  1 6.891872 5.750109 0.840362 -1.570796 -0.949622 1.560488
  2 42.481842 5.523475 0.000001 0.000000 -0.000000 0.000000
  3 5.961908 4.620892 0.048462 -1.570797 -0.000000 -0.010309
  4 30.086632 5.554429 0.047537 -1.570797 -0.000000 -0.010309
  5 11.238358 1.357973 -0.535812 -1.570797 -0.000000 -0.010309
  6 -17.390259 -0.204779 0.057708 -1.570796 0.000000 0.000000
time 4
  0 -5.482410 0.000000 -0.716585 1.870303 0.049431 -0.105236
  1 6.891870 5.750109 0.840363 -1.570796 -0.949622 1.560488
  2 42.481834 5.523475 0.000001 0.000000 -0.000000 0.000000
  3 5.961907 4.620892 0.048462 -1.570797 0.000000 -0.010309
  4 30.086628 5.554429 0.047536 -1.570797 0.000000 -0.010309
  5 11.238355 1.357973 -0.535812 -1.570797 0.000000 -0.010309
  6 -17.390259 -0.204779 0.057708 -1.570796 0.000000 -0.000000
time 5
  0 -5.520205 -0.008027 -0.357816 1.904759 0.047750 -0.118312
  1 6.891871 5.750109 0.840362 -1.570796 -0.949622 1.560488
  2 42.481834 5.523475 0.000001 0.000000 -0.000000 0.000000
  3 5.961908 4.620892 0.048462 -1.570797 0.000000 -0.114218
  4 30.086632 5.554429 0.047536 -1.570797 0.000000 -0.010309
  5 11.238356 1.357973 -0.535812 -1.570797 0.000000 -0.010309
  6 -17.390259 -0.204779 0.057708 -1.570796 -0.000000 -0.000000
time 6
  0 -5.623837 -0.030037 0.046235 1.935351 0.043141 -0.131007
  1 6.891871 5.750108 0.840362 -1.570796 -0.949622 1.560488
  2 42.481838 5.523475 -0.000000 0.000000 -0.000000 0.000000
  3 5.961908 4.620892 0.048462 -1.570797 0.000000 -0.218128
  4 30.086630 5.554429 0.047536 -1.570796 -0.000000 -0.010309
  5 11.291363 0.003618 -0.535812 -1.570797 -0.000000 -0.130991
  6 -17.390257 -0.204779 0.057708 -1.570796 0.000000 0.000000
time 7
  0 -5.778673 -0.062922 0.478827 1.962576 0.036254 -0.143140
  1 6.891871 5.750109 0.840362 -1.570796 -0.949622 1.560488
  2 42.481834 5.523475 0.000001 0.000000 -0.000000 0.000000
  3 5.961907 4.620892 0.048462 -1.570797 -0.000000 -0.218128
  4 30.086634 5.554429 0.047536 -1.570796 0.000000 -0.010309
  5 11.431105 -3.566951 -0.535811 -1.570797 0.000000 -0.449152
  6 -17.390259 -0.204779 0.057708 -1.570796 0.000000 -0.000000
time 8
  0 -5.970086 -0.103576 0.923221 1.986936 0.027740 -0.154528
  1 6.891872 5.750110 0.840362 -1.570796 -0.949622 1.560487
  2 42.481838 5.523475 0.000001 0.000000 -0.000000 0.000000
  3 5.961908 4.620892 0.048462 -1.570797 0.000000 -0.218128
  4 30.086636 5.554430 0.047536 -1.570796 0.000000 -0.010309
  5 11.628675 -8.614998 -0.535811 -1.570796 -0.000000 -0.898966
  6 -17.390259 -0.204779 0.057708 -1.570796 0.000000 -0.000000
time 9
  0 -6.183444 -0.148890 1.362675 2.008928 0.018249 -0.164989
  1 6.891871 5.750109 0.840363 -1.570796 -0.949622 1.560488
  2 42.481834 5.523475 0.000000 0.000000 -0.000000 0.000000
  3 5.961908 4.620892 0.048462 -1.570797 -0.000000 -0.218128
  4 30.086632 5.554429 0.047537 -1.570796 -0.000000 -0.010309
  5 11.855154 -14.401782 -0.535810 -1.570797 0.000000 -1.414607
  6 -17.390259 -0.204779 0.057708 -1.570796 -0.000000 0.000000
time 10
  0 -6.404118 -0.195758 1.780450 2.029052 0.008434 -0.174341
  1 6.891871 5.750109 0.840362 -1.570796 -0.949622 1.560488
  2 42.481838 5.523475 -0.000001 0.000000 -0.000000 0.000000
  3 5.961908 4.620892 0.048462 -1.570796 -0.000000 -0.218128
  4 30.086634 5.554428 0.047536 -1.570796 -0.000000 -0.010309
  5 12.081635 -20.188568 -0.535810 1.570796 -3.141593 1.211345
  6 -17.390257 -0.204779 0.057708 -1.570796 -0.000000 0.000000
time 11
  0 -6.617476 -0.241073 2.159805 2.047806 -0.001056 -0.182401
  1 6.891872 5.750110 0.840362 -1.570796 -0.949622 1.560488
  2 42.481842 5.523475 -0.000001 0.000000 -0.000000 0.000000
  3 5.961909 4.620892 0.048462 -1.570796 0.000000 -0.218128
  4 30.086632 5.554429 0.047536 -1.570797 -0.000000 -0.010309
  5 12.279202 -25.236616 -0.535809 1.570796 -3.141593 0.761530
  6 -17.390263 -0.204779 0.057708 -1.570796 -0.000000 -0.000000
time 12
  0 -6.808888 -0.281727 2.483999 2.065691 -0.009570 -0.188987
  1 6.891872 5.750109 0.840363 -1.570796 -0.949622 1.560488
  2 42.481842 5.523475 0.000001 0.000000 -0.000000 0.000000
  3 5.961908 4.620892 0.048462 -1.570796 -0.000000 -0.218128
  4 30.086634 5.554428 0.047536 -1.570796 0.000000 -0.010309
  5 12.279203 -25.236614 -0.535810 1.570796 -3.141593 0.761530
  6 -17.390257 -0.204779 0.057707 -1.570796 0.000000 -0.000000
time 13
  0 -6.963725 -0.314612 2.736293 2.083204 -0.016457 -0.193917
  1 6.891871 5.750109 0.840362 -1.570796 -0.949622 1.560488
  2 42.481838 5.523476 0.000001 0.000000 -0.000000 0.000000
  3 5.961908 4.620892 0.048462 -1.570797 -0.000000 -0.218128
  4 30.086632 5.554430 0.047538 -1.570796 -0.000000 -0.010309
  5 14.034130 -20.471735 -0.535810 -1.570796 0.000000 -1.543167
  6 -17.390255 -0.204779 0.057707 -1.570796 -0.000000 0.000000
time 14
  0 -7.067357 -0.336622 2.899945 2.100845 -0.021067 -0.197009
  1 6.891870 5.750109 0.840361 -1.570796 -0.949622 1.560488
  2 42.481834 5.523475 -0.000000 0.000000 -0.000000 0.000000
  3 5.961907 4.620892 0.048462 -1.570796 0.000000 -0.218128
  4 30.086632 5.554429 0.047537 -1.570797 -0.000000 -0.010309
  5 15.973783 -15.516339 -0.535810 -1.570797 -0.000000 -0.618179
  6 -17.390255 -0.204779 0.057708 -1.570796 0.000000 0.000000
time 15
  0 -7.105151 -0.344649 2.958216 2.119113 -0.022748 -0.198080
  1 6.891871 5.750108 0.840362 -1.570796 -0.949622 1.560488
  2 42.481834 5.523475 -0.000000 0.000000 -0.000000 0.000000
  3 5.961908 4.620891 0.048462 -1.570796 0.000000 -0.218128
  4 30.086632 5.554428 0.047536 -1.570796 0.000000 -0.010309
  5 17.543980 -10.941981 -0.535810 -1.570797 -0.000000 0.130622
  6 -17.390259 -0.204779 0.057708 -1.570796 0.000000 -0.000000
time 16
  0 -6.855546 -0.319119 2.848611 2.134722 -0.022599 -0.189326
  1 6.891871 5.750108 0.840362 -1.570796 -0.949622 1.560488
  2 42.481838 5.523473 0.000000 0.000000 -0.000000 0.000000
  3 5.961907 4.620891 0.048462 -1.570796 0.000000 -0.218128
  4 30.086632 5.554426 0.047536 -1.570797 0.000000 -0.010309
  5 18.190531 -7.320211 -0.535810 -1.570796 -0.000000 0.438952
  6 -17.390259 -0.204778 0.057708 -1.570796 0.000000 -0.000000
time 17
  0 -6.231535 -0.255296 2.562872 2.144691 -0.022272 -0.168655
  1 6.891871 5.750109 0.840362 -1.570796 -0.949622 1.560488
  2 42.481834 5.523475 0.000000 0.000000 -0.000000 0.000000
  3 5.961908 4.620892 0.048462 -1.570796 0.000000 -0.218128
  4 30.086630 5.554430 0.047536 -1.570796 0.000000 -0.010309
  5 17.467506 -4.526511 -0.535810 -1.570796 -0.000000 0.438138
  6 -17.390255 -0.204779 0.057708 -1.570796 0.000000 -0.000000
time 18
  0 -5.420320 -0.172324 2.165610 2.149972 -0.021945 -0.144451
  1 6.891871 5.750109 0.840362 -1.570796 -0.949622 1.560488
  2 42.481838 5.523474 0.000000 0.000000 -0.000000 0.000000
  3 5.961908 4.620892 0.048462 -1.570796 0.000000 -0.218128
  4 30.086630 5.554428 0.047536 -1.570796 -0.000000 -0.010309
  5 15.743366 -2.137924 -0.535811 -1.570797 -0.000000 0.432440
  6 -17.390257 -0.204779 0.057708 -1.570796 -0.000000 -0.000000
time 19
  0 -4.609104 -0.089353 1.721439 2.151521 -0.021796 -0.125099
  1 6.891871 5.750109 0.840363 -1.570796 -0.949622 1.560488
  2 42.481842 5.523474 0.000000 0.000000 -0.000000 0.000000
  3 5.961908 4.620892 0.048462 -1.570797 0.000000 -0.218128
  4 30.086632 5.554428 0.047536 -1.570796 -0.000000 -0.010309
  5 13.685522 -0.278370 -0.535811 -1.570796 -0.000000 0.416974
  6 -17.390257 -0.204779 0.057708 -1.570796 -0.000000 -0.000000
time 20
  0 -3.985092 -0.025529 1.294970 2.132958 -0.043844 -0.115660
  1 6.891871 5.750109 0.840362 -1.570796 -0.949622 1.560488
  2 42.481838 5.523474 0.000001 0.000000 -0.000000 0.000000
  3 5.961907 4.620892 0.048461 -1.570796 0.000000 -0.114218
  4 30.086632 5.554428 0.047536 -1.570797 0.000000 -0.010309
  5 11.961382 0.928234 -0.535812 -1.570796 0.000000 0.197839
  6 -17.390257 -0.204779 0.057708 -1.570796 0.000000 -0.000000
time 21
  0 -3.735488 0.000000 0.950817 2.114395 -0.065891 -0.113287
  1 6.891870 5.750109 0.840362 -1.570796 -0.949622 1.560488
  2 42.481831 5.523475 0.000000 0.000000 -0.000000 0.000000
  3 5.961907 4.620892 0.048462 -1.570796 -0.000000 -0.010309
  4 30.086628 5.554429 0.047536 -1.570796 -0.000000 -0.010309
  5 11.238356 1.357973 -0.535812 -1.570796 -0.000000 -0.010309
  6 -17.390255 -0.204779 0.057708 -1.570796 -0.000000 0.000000
time 22
  0 -4.551401 0.000000 0.849919 2.152487 -0.028564 -0.122475
  1 6.891871 5.750110 0.840362 -1.570796 -0.949622 1.560488
  2 42.481834 5.523475 0.000000 0.000000 -0.000000 0.000000
  3 5.961907 4.620893 0.048462 -1.570797 -0.000000 -0.010309
  4 30.086632 5.554429 0.047536 -1.570797 -0.000000 -0.010309
  5 11.238356 1.357973 -0.535812 -1.570797 -0.000000 -0.010309
  6 -17.390259 -0.204779 0.057708 -1.570796 -0.000000 -0.000000
time 23
  0 -5.806024 0.000000 0.706550 2.190579 0.008763 -0.131664
  1 6.891870 5.750109 0.840362 -1.570796 -0.949622 1.560488
  2 42.481831 5.523474 0.000000 0.000000 -0.000000 0.000000
  3 5.961907 4.620892 0.048461 -1.570797 0.000000 -0.010309
  4 30.086630 5.554429 0.047536 -1.570797 0.000000 -0.010309
  5 11.238356 1.357972 -0.535812 -1.570797 0.000000 -0.010309
  6 -17.390259 -0.204779 0.057708 -1.570796 0.000000 0.000000
time 24
  0 -6.798631 0.000000 0.077551 2.093738 0.007394 -0.111091
  1 6.891871 5.750109 0.840363 -1.570796 -0.949622 1.560488
  2 42.481834 5.523475 0.000001 0.000000 -0.000000 0.000000
  3 5.961908 4.620892 0.048462 -1.570796 0.000000 -0.010309
  4 30.086632 5.554430 0.047537 -1.570796 0.000000 -0.010309
  5 11.238356 1.357973 -0.535812 -1.570796 0.000000 -0.010309
  6 -17.390259 -0.204779 0.057707 -1.570796 -0.000000 0.000000
time 25
  0 -7.841722 0.000000 -0.829926 1.880688 0.004381 -0.065832
  1 6.891871 5.750109 0.840363 -1.570796 -0.949622 1.560487
  2 42.481838 5.523475 0.000000 0.000000 -0.000000 0.000000
  3 5.961908 4.620892 0.048462 -1.570797 -0.000000 -0.010309
  4 30.086630 5.554429 0.047537 -1.570797 -0.000000 -0.010309
  5 11.238356 1.357973 -0.535812 -1.570797 -0.000000 -0.010309
  6 -17.390261 -0.204779 0.057708 -1.570796 -0.000000 -0.000000
time 26
  0 -8.665458 0.000000 -1.645802 1.667637 0.001369 -0.020572
  1 6.891871 5.750109 0.840362 -1.570796 -0.949622 1.560488
  2 42.481831 5.523475 0.000000 0.000000 -0.000000 0.000000
  3 5.961907 4.620892 0.048462 -1.570796 0.000000 -0.010309
  4 30.086628 5.554429 0.047536 -1.570796 0.000000 -0.010309
  5 11.238356 1.357972 -0.535812 -1.570796 0.000000 -0.010309
  6 -17.390255 -0.204779 0.057708 -1.570796 -0.000000 0.000000
time 27
  0 -9.000000 0.000000 -2.000000 1.570796 -0.000000 0.000000
  1 6.891871 5.750109 0.840362 -1.570796 -0.949622 1.560488
  2 42.481834 5.523475 0.000000 0.000000 -0.000000 0.000000
  3 5.961907 4.620892 0.048462 -1.570796 0.000000 -0.010309
  4 30.086630 5.554429 0.047536 -1.570796 0.000000 -0.010309
  5 11.238356 1.357973 -0.535812 -1.570796 0.000000 -0.010309
  6 -17.390257 -0.204779 0.057708 -1.570796 0.000000 0.000000
time 28
  0 -9.000000 0.000000 -2.000000 1.570796 -0.000000 0.000000
  1 6.891871 5.750109 0.840362 -1.570796 -0.949622 1.560488
  2 42.481834 5.523475 0.000000 0.000000 -0.000000 0.000000
  3 5.961907 4.620892 0.048462 -1.570796 0.000000 -0.010309
  4 30.086630 5.554429 0.047536 -1.570796 0.000000 -0.010309
  5 11.238356 1.357973 -0.535812 -1.570796 0.000000 -0.010309
  6 -17.390257 -0.204779 0.057708 -1.570796 0.000000 0.000000
time 29
  0 -9.000000 0.000000 -2.000000 1.570796 -0.000000 0.000000
  1 6.891871 5.750109 0.840362 -1.570796 -0.949622 1.560488
  2 42.481834 5.523475 0.000000 0.000000 -0.000000 0.000000
  3 5.961907 4.620892 0.048462 -1.570796 0.000000 -0.010309
  4 30.086630 5.554429 0.047536 -1.570796 0.000000 -0.010309
  5 11.238356 1.357973 -0.535812 -1.570796 0.000000 -0.010309
  6 -17.390257 -0.204779 0.057708 -1.570796 0.000000 0.000000
time 30
  0 -9.000000 0.000000 -2.000000 1.570796 -0.000000 0.000000
  1 6.891871 5.750109 0.840362 -1.570796 -0.949622 1.560488
  2 42.481834 5.523475 0.000000 0.000000 -0.000000 0.000000
  3 5.961907 4.620892 0.048462 -1.570796 0.000000 -0.010309
  4 30.086630 5.554429 0.047536 -1.570796 0.000000 -0.010309
  5 11.238356 1.357973 -0.535812 -1.570796 0.000000 -0.010309
  6 -17.390257 -0.204779 0.057708 -1.570796 0.000000 0.000000
end
