MD5Version 10
commandline ""

numFrames 40
numJoints 4
frameRate 24
numAnimatedComponents 6

hierarchy {
	"origin"	-1 0 0	//
	"weapon"	0 63 0	// origin
	"shot"	1 0 0	// weapon
	"shell"	1 0 0	// weapon
}

bounds {
	( 0.000000 0.000000 0.000000 ) ( 0.000000 0.000000 0.000000 )
	( 0.000000 0.000000 0.000000 ) ( 0.000000 0.000000 0.000000 )
	( 0.000000 0.000000 0.000000 ) ( 0.000000 0.000000 0.000000 )
	( 0.000000 0.000000 0.000000 ) ( 0.000000 0.000000 0.000000 )
	( 0.000000 0.000000 0.000000 ) ( 0.000000 0.000000 0.000000 )
	( 0.000000 0.000000 0.000000 ) ( 0.000000 0.000000 0.000000 )
	( 0.000000 0.000000 0.000000 ) ( 0.000000 0.000000 0.000000 )
	( 0.000000 0.000000 0.000000 ) ( 0.000000 0.000000 0.000000 )
	( 0.000000 0.000000 0.000000 ) ( 0.000000 0.000000 0.000000 )
	( 0.000000 0.000000 0.000000 ) ( 0.000000 0.000000 0.000000 )
	( 0.000000 0.000000 0.000000 ) ( 0.000000 0.000000 0.000000 )
	( 0.000000 0.000000 0.000000 ) ( 0.000000 0.000000 0.000000 )
	( 0.000000 0.000000 0.000000 ) ( 0.000000 0.000000 0.000000 )
	( 0.000000 0.000000 0.000000 ) ( 0.000000 0.000000 0.000000 )
	( 0.000000 0.000000 0.000000 ) ( 0.000000 0.000000 0.000000 )
	( 0.000000 0.000000 0.000000 ) ( 0.000000 0.000000 0.000000 )
	( 0.000000 0.000000 0.000000 ) ( 0.000000 0.000000 0.000000 )
	( 0.000000 0.000000 0.000000 ) ( 0.000000 0.000000 0.000000 )
	( 0.000000 0.000000 0.000000 ) ( 0.000000 0.000000 0.000000 )
	( 0.000000 0.000000 0.000000 ) ( 0.000000 0.000000 0.000000 )
	( 0.000000 0.000000 0.000000 ) ( 0.000000 0.000000 0.000000 )
	( 0.000000 0.000000 0.000000 ) ( 0.000000 0.000000 0.000000 )
	( 0.000000 0.000000 0.000000 ) ( 0.000000 0.000000 0.000000 )
	( 0.000000 0.000000 0.000000 ) ( 0.000000 0.000000 0.000000 )
	( 0.000000 0.000000 0.000000 ) ( 0.000000 0.000000 0.000000 )
	( 0.000000 0.000000 0.000000 ) ( 0.000000 0.000000 0.000000 )
	( 0.000000 0.000000 0.000000 ) ( 0.000000 0.000000 0.000000 )
	( 0.000000 0.000000 0.000000 ) ( 0.000000 0.000000 0.000000 )
	( 0.000000 0.000000 0.000000 ) ( 0.000000 0.000000 0.000000 )
	( 0.000000 0.000000 0.000000 ) ( 0.000000 0.000000 0.000000 )
	( 0.000000 0.000000 0.000000 ) ( 0.000000 0.000000 0.000000 )
	( 0.000000 0.000000 0.000000 ) ( 0.000000 0.000000 0.000000 )
	( 0.000000 0.000000 0.000000 ) ( 0.000000 0.000000 0.000000 )
	( 0.000000 0.000000 0.000000 ) ( 0.000000 0.000000 0.000000 )
	( 0.000000 0.000000 0.000000 ) ( 0.000000 0.000000 0.000000 )
	( 0.000000 0.000000 0.000000 ) ( 0.000000 0.000000 0.000000 )
	( 0.000000 0.000000 0.000000 ) ( 0.000000 0.000000 0.000000 )
	( 0.000000 0.000000 0.000000 ) ( 0.000000 0.000000 0.000000 )
	( 0.000000 0.000000 0.000000 ) ( 0.000000 0.000000 0.000000 )
	( 0.000000 0.000000 0.000000 ) ( 0.000000 0.000000 0.000000 )
}

baseframe {
	( 0.000000 0.000000 0.000000 ) ( -0.000000 -0.000000 -0.000000 )
	( 5.136892 -9.985170 -21.731905 ) ( -0.000000 0.000000 0.000332 )
	( 29.475777 1.691518 9.079573 ) ( 0.000000 0.000000 -0.000332 )
	( 8.994464 -3.355067 4.723814 ) ( 0.000000 -0.000000 -0.000332 )
}

frame 0 {
	5.136892 -9.985170 -21.731905 -0.000000 0.000000 0.000332
}

frame 1 {
	5.136892 -9.985170 -21.731905 0.001748 -0.003671 -0.005888
}

frame 2 {
	5.136892 -9.985170 -21.731905 0.007133 -0.014979 -0.024795
}

frame 3 {
	5.136892 -9.985170 -21.731905 0.016281 -0.034185 -0.056350
}

frame 4 {
	5.136892 -9.985170 -21.731905 0.029077 -0.061047 -0.099506
}

frame 5 {
	5.136892 -9.985170 -21.731905 0.044986 -0.094440 -0.151624
}

frame 6 {
	5.136892 -9.985170 -21.731905 0.062965 -0.132174 -0.208293
}

frame 7 {
	5.136892 -9.985170 -21.731905 0.081603 -0.171291 -0.264008
}

frame 8 {
	5.136892 -9.985170 -21.731905 0.099492 -0.208833 -0.313567
}

frame 9 {
	5.136892 -9.985170 -21.731905 0.115584 -0.242606 -0.353324
}

frame 10 {
	5.136892 -9.985170 -21.731905 0.129341 -0.271479 -0.381564
}

frame 11 {
	5.136892 -9.985170 -21.731905 0.140640 -0.295196 -0.398041
}

frame 12 {
	5.136892 -9.985170 -21.731905 0.149590 -0.313982 -0.403258
}

frame 13 {
	5.119070 -10.007141 -21.764801 0.156462 -0.328404 -0.402391
}

frame 14 {
	5.072457 -10.064599 -21.850807 0.160839 -0.337591 -0.400498
}

frame 15 {
	5.025849 -10.122048 -21.936789 0.162633 -0.341358 -0.398710
}

frame 16 {
	5.008030 -10.144011 -21.969660 0.162955 -0.342034 -0.398045
}

frame 17 {
	5.013562 -10.137181 -21.936789 0.161118 -0.338177 -0.398793
}

frame 18 {
	5.035727 -10.109850 -21.850815 0.156294 -0.328053 -0.400707
}

frame 19 {
	5.078721 -10.056867 -21.764807 0.151448 -0.317882 -0.402564
}

frame 20 {
	5.136892 -9.985170 -21.731905 0.149590 -0.313982 -0.403258
}

frame 21 {
	5.228966 -9.871630 -21.802469 0.149590 -0.313982 -0.403258
}

frame 22 {
	5.360455 -9.709545 -21.986931 0.149590 -0.313982 -0.403258
}

frame 23 {
	5.470995 -9.573333 -22.171326 0.149590 -0.313982 -0.403258
}

frame 24 {
	5.510323 -9.524859 -22.241831 0.149590 -0.313982 -0.403258
}

frame 25 {
	5.469900 -9.574682 -22.186640 0.149590 -0.313982 -0.403258
}

frame 26 {
	5.362538 -9.707004 -22.040071 0.149590 -0.313982 -0.403258
}

frame 27 {
	5.250728 -9.844831 -21.887386 0.149590 -0.313982 -0.403258
}

frame 28 {
	5.199124 -9.908460 -21.816885 0.149590 -0.313982 -0.403258
}

frame 29 {
	5.186393 -9.924158 -21.799488 0.147635 -0.309877 -0.397981
}

frame 30 {
	5.174917 -9.938308 -21.783812 0.141617 -0.297246 -0.381743
}

frame 31 {
	5.164884 -9.950676 -21.770111 0.131332 -0.275660 -0.353995
}

frame 32 {
	5.156454 -9.961066 -21.758600 0.116793 -0.245147 -0.314773
}

frame 33 {
	5.149719 -9.969366 -21.749409 0.098534 -0.206828 -0.265522
}

frame 34 {
	5.144665 -9.975594 -21.742512 0.077848 -0.163414 -0.209723
}

frame 35 {
	5.141151 -9.979922 -21.737717 0.056693 -0.119014 -0.152655
}

frame 36 {
	5.138928 -9.982661 -21.734684 0.037199 -0.078097 -0.100063
}

frame 37 {
	5.137685 -9.984193 -21.732988 0.021077 -0.044254 -0.056560
}

frame 38 {
	5.137107 -9.984904 -21.732199 0.009325 -0.019580 -0.024841
}

frame 39 {
	5.136917 -9.985140 -21.731939 0.002305 -0.004840 -0.005891
}

