<?xml version="1.0" encoding="UTF-8"?>
<?xml-stylesheet href="common_glow.css" type="text/css"?>
<svg xmlns="http://www.w3.org/2000/svg" width="256" height="256" version="1.1">
	<rect class="back" width="100%" height="100%"/>
	<path class="sign" d="m 31.8,77 4.7,28.1 63.3,24.3 29,64.1 29.1,-64.1 63.3,-24.3 4.7,-28.1 -82.5,33.7 -14.6,53.1 -14.6,-53.1 z m 18.1,44.1 11.8,24.9 42.7,10.2 -9.7,-19.7 z m 112.9,15.4 -9.7,19.7 42.8,-10.2 11.75,-24.9 z m -81.6,40.9 35.4,5.3 -9.1,-18.9 -37.1,-6.85 z m 105.9,-20.4 -37.1,6.9 -9.1,18.8 35.4,-5.3 z"/>
</svg>
