<?xml version="1.0" encoding="UTF-8"?>
<?xml-stylesheet href="common.css" type="text/css"?>
<svg xmlns="http://www.w3.org/2000/svg" width="128" height="128" version="1.1">
	<g class="blurred">
		<g transform="matrix(0,1,-1,0,128,0)">
			<path class="border_plain" d="m 20,-6 -24,36 0,104 136,0 0,-104 -24,-36 z"/>
		</g>
	</g>
</svg>
