<?xml version="1.0" encoding="UTF-8"?>
<?xml-stylesheet href="common.css" type="text/css"?>
<svg xmlns="http://www.w3.org/2000/svg" width="128" height="256" version="1.1">
	<defs>
		<mask id="mask">
			<rect class="border_shadow_mask" width="256" height="128"/>
		</mask>
	</defs>
	<g transform="matrix(0,-1,1,0,0,256)">
		<rect class="border_shadow" mask="url(#mask)" x="0" y="0" width="256" height="120"/>
	</g>
</svg>
