<?xml version="1.0" encoding="UTF-8"?>
<?xml-stylesheet href="common.css" type="text/css"?>
<svg xmlns="http://www.w3.org/2000/svg" width="128" height="128" version="1.1">
	<g class="blurred">
		<path class="border_plain" d="m 30,-4 -36,24 0,88 36,24 68,0 36,-24 0,-88 -36,-24 z"/>
	</g>
</svg>
