<?xml version="1.0" encoding="UTF-8"?>
<?xml-stylesheet href="common.css" type="text/css"?>
<svg xmlns="http://www.w3.org/2000/svg" version="1.1" width="256" height="256">
	<g class="vehicle">
		<g filter="url(common.filters#vehicleWeapon)">
			<path d="m 86,99 0,8 -1,0 0,11.5 2,2 0,13.5 -6,0 0,-13.5 2,-2 0,-11.5 -1,0 0,-8 z m -9,5 0,7 -1,0 0,11.5 2,2 0,13.5 -6,0 0,-13.5 2,-2 0,-11.5 -1,0 0,-7 z"/>
		</g>
	</g>
</svg>
