<?xml version="1.0" encoding="UTF-8"?>
<svg xmlns="http://www.w3.org/2000/svg" version="1.1" width="256" height="128">
	<path fill="#fff" filter="url(common.filters#blurred)" d="M 4.3,73.1 37.9,15 256,15 228.9,63.3 Z"/>
</svg>
