<?xml version="1.0" encoding="UTF-8"?>
<?xml-stylesheet href="common.css" type="text/css"?>
<svg xmlns="http://www.w3.org/2000/svg" width="128" height="128" version="1.1">
	<path class="arc shining" d="m 86,20 -16,19 3,18 -30,-15 11,36 -11,-5 -23,32 5,4 L 51,86 l 17,7 L 59,63 92,80 90,55 108,42 108,20 z"/>
</svg>
