<?xml version="1.0" encoding="UTF-8"?>
<?xml-stylesheet href="common.css" type="text/css"?>
<svg xmlns="http://www.w3.org/2000/svg" width="128" height="128" version="1.1">
	<path class="grenadelauncher shining" d="m 49,18 -4,0 2,16 5,0 z m 8,6 -2,10 28,0 -2,-10 z m -10,13 -7,1 0,6 7,1 0,7 -7,1 0,7 7,1 0,7 -7,1 0,7 7,1 0,7 -7,1 0,6 7,1 36,0 7,-1 0,-6 -34,0 0,-41 34,0 0,-6 -7,-1 z m 12,11 0,33 27,0 0,-33 z m -12,47 4,11 28,0 4,-11 z"/>
</svg>
