<?xml version="1.0" encoding="UTF-8"?>
<?xml-stylesheet href="common.css" type="text/css"?>
<svg xmlns="http://www.w3.org/2000/svg" width="128" height="128" version="1.1">
	<g class="glowing">
		<path class="current_bg" d="m 34,8 -32,8 0,96 32,8 60,0 32,-8 0,-96 -32,-8 z"/>
		<path class="current_frame" d="m 33,124 -31,-9 0,-6 29,3 3,3 60,0 3,-3 29,-3 0,6 -31,9 z"/>
		<path class="current_frame" d="m 33,4 -31,9 0,6 29,-3 3,-3 60,0 3,3 29,3 0,-6 -31,-9 z"/>
	</g>
</svg>
