<?xml version="1.0" encoding="UTF-8"?>
<?xml-stylesheet href="common.css" type="text/css"?>
<svg xmlns="http://www.w3.org/2000/svg" width="128" height="128" version="1.1">
	<path class="hook shining" d="m 54,20 -5,35 2,2 5,-3 2,2 -11,13 12,12 13,-11 2,2 -3,5 2,2 35,-5 0,-24 -8,14 L 81,61 67,47 64,28 78,20 54,20 z m 36,18 -12,2 -6,8 8,8 8,-6 2,-12 z M 46,74 C 17,93 56,98 18,113 l 4,3 C 62,102 29,95 54,82 l -8,-8 z"/>
</svg>
