<?xml version="1.0" encoding="UTF-8" standalone="no"?>
<!-- Created with Inkscape (http://www.inkscape.org/) -->
<svg
   xmlns:dc="http://purl.org/dc/elements/1.1/"
   xmlns:cc="http://creativecommons.org/ns#"
   xmlns:rdf="http://www.w3.org/1999/02/22-rdf-syntax-ns#"
   xmlns:svg="http://www.w3.org/2000/svg"
   xmlns="http://www.w3.org/2000/svg"
   xmlns:xlink="http://www.w3.org/1999/xlink"
   xmlns:sodipodi="http://sodipodi.sourceforge.net/DTD/sodipodi-0.dtd"
   xmlns:inkscape="http://www.inkscape.org/namespaces/inkscape"
   width="16"
   height="16"
   id="svg2"
   sodipodi:version="0.32"
   inkscape:version="0.46"
   version="1.0"
   sodipodi:docname="screw.svg"
   inkscape:output_extension="org.inkscape.output.svg.inkscape"
   inkscape:export-filename="/home/sev/.nexuiz/data/wicked3/blue/textures/screw1.png"
   inkscape:export-xdpi="90"
   inkscape:export-ydpi="90">
  <defs
     id="defs4">
    <linearGradient
       id="linearGradient4066">
      <stop
         style="stop-color:#1f2f4f;stop-opacity:1;"
         offset="0"
         id="stop4068" />
      <stop
         style="stop-color:#000000;stop-opacity:1;"
         offset="1"
         id="stop4070" />
    </linearGradient>
    <filter
       inkscape:collect="always"
       id="filter3262">
      <feGaussianBlur
         inkscape:collect="always"
         stdDeviation="0.32"
         id="feGaussianBlur3264" />
    </filter>
    <linearGradient
       inkscape:collect="always"
       xlink:href="#linearGradient4066"
       id="linearGradient3281"
       gradientUnits="userSpaceOnUse"
       gradientTransform="matrix(0.4028777,0,0,0.4041935,-48.40288,-129.44677)"
       x1="144.96428"
       y1="345"
       x2="135.03572"
       y2="335.10376" />
    <linearGradient
       inkscape:collect="always"
       xlink:href="#linearGradient4066"
       id="linearGradient3284"
       gradientUnits="userSpaceOnUse"
       gradientTransform="matrix(0.4642857,0,0,0.4642857,-57,-149.85714)"
       x1="133.53845"
       y1="333.53842"
       x2="146.46153"
       y2="346.46152" />
    <filter
       inkscape:collect="always"
       id="filter3294">
      <feGaussianBlur
         inkscape:collect="always"
         stdDeviation="0.1"
         id="feGaussianBlur3296" />
    </filter>
  </defs>
  <sodipodi:namedview
     id="base"
     pagecolor="#ffffff"
     bordercolor="#666666"
     borderopacity="1"
     inkscape:pageopacity="0.0"
     inkscape:pageshadow="2"
     inkscape:zoom="32.578065"
     inkscape:cx="5.6381448"
     inkscape:cy="7.8338303"
     inkscape:document-units="px"
     inkscape:current-layer="layer1"
     showgrid="true"
     inkscape:showpageshadow="false"
     inkscape:snap-bbox="true"
     gridtolerance="8"
     inkscape:window-width="1280"
     inkscape:window-height="961"
     inkscape:window-x="0"
     inkscape:window-y="0"
     showguides="true"
     inkscape:guide-bbox="true"
     guidecolor="#00007f"
     guideopacity="0.49803922"
     guidehicolor="#ff0000"
     guidehiopacity="0.49803922"
     borderlayer="true"
     showborder="true">
    <inkscape:grid
       type="xygrid"
       id="grid2389"
       visible="true"
       enabled="true"
       empspacing="4"
       color="#003fff"
       opacity="0.1254902"
       empcolor="#007eff"
       empopacity="0.25098039" />
  </sodipodi:namedview>
  <metadata
     id="metadata7">
    <rdf:RDF>
      <cc:Work
         rdf:about="">
        <dc:format>image/svg+xml</dc:format>
        <dc:type
           rdf:resource="http://purl.org/dc/dcmitype/StillImage" />
      </cc:Work>
    </rdf:RDF>
  </metadata>
  <g
     inkscape:label="Ebene 1"
     inkscape:groupmode="layer"
     id="layer1"
     style="display:inline">
    <g
       id="g3288"
       style="filter:url(#filter3294)">
      <path
         transform="matrix(0.625,0,0,0.625,-79.5,-204.5)"
         d="M 148,340 A 8,8 0 1 1 132,340 A 8,8 0 1 1 148,340 z"
         sodipodi:ry="8"
         sodipodi:rx="8"
         sodipodi:cy="340"
         sodipodi:cx="140"
         id="Shadow"
         style="fill:#000000;fill-opacity:0.74901961;stroke:none;stroke-width:8;stroke-linecap:butt;stroke-linejoin:miter;stroke-miterlimit:4;stroke-dasharray:none;stroke-dashoffset:0;stroke-opacity:1;filter:url(#filter3262)"
         sodipodi:type="arc" />
      <path
         sodipodi:type="arc"
         style="fill:#000000;fill-opacity:1;stroke:none;stroke-width:8;stroke-linecap:butt;stroke-linejoin:miter;stroke-miterlimit:4;stroke-dasharray:none;stroke-dashoffset:0;stroke-opacity:1"
         id="Base"
         sodipodi:cx="140"
         sodipodi:cy="340"
         sodipodi:rx="8"
         sodipodi:ry="8"
         d="M 148,340 A 8,8 0 1 1 132,340 A 8,8 0 1 1 148,340 z"
         transform="matrix(0.5,0,0,0.5,-62,-162)" />
      <path
         id="BorderOut"
         d="M 8,4.75 C 6.206,4.75 4.75,6.206 4.75,8 C 4.75,9.794 6.206,11.25 8,11.25 C 9.794,11.25 11.25,9.794 11.25,8 C 11.25,6.206 9.794,4.75 8,4.75 z"
         style="fill:none;fill-opacity:1;stroke:url(#linearGradient3284);stroke-width:0.5;stroke-linecap:butt;stroke-linejoin:miter;stroke-miterlimit:4;stroke-dasharray:none;stroke-dashoffset:0;stroke-opacity:1"
         sodipodi:nodetypes="csssc" />
      <path
         id="BorderIn"
         d="M 8,5.95806 L 6.25,6.96855 L 6.25,8.98951 L 8,10 L 9.75,8.98951 L 9.75,6.96855 L 8,5.95806 z"
         style="fill:none;fill-opacity:1;stroke:url(#linearGradient3281);stroke-width:0.5;stroke-linecap:butt;stroke-linejoin:miter;stroke-miterlimit:4;stroke-dasharray:none;stroke-dashoffset:0;stroke-opacity:1"
         sodipodi:nodetypes="ccccccc" />
    </g>
  </g>
</svg>
