<?xml version="1.0" encoding="UTF-8"?>
<?xml-stylesheet href="common.css" type="text/css"?>
<svg xmlns="http://www.w3.org/2000/svg" width="128" height="128" version="1.1">
	<g class="gametype shining">
		<path d="m 30,82 -8,3 -10,11 52,20 52,-20 -10,-11 -8,-3 5,7 -39,11 -39,-11 z"/>
		<path d="m 51,17 -24,40 0,4 10,24 23,5 0,-21 -12,-5 -2,-4 9,-41 z m 26,0 -4,2 9,41 -2,4 -12,5 0,21 23,-5 10,-24 0,-4 z"/>
	</g>
</svg>
