<?xml version="1.0" encoding="UTF-8" standalone="no"?>
<!-- Created with Inkscape (http://www.inkscape.org/) -->

<svg
   xmlns:dc="http://purl.org/dc/elements/1.1/"
   xmlns:cc="http://creativecommons.org/ns#"
   xmlns:rdf="http://www.w3.org/1999/02/22-rdf-syntax-ns#"
   xmlns:svg="http://www.w3.org/2000/svg"
   xmlns="http://www.w3.org/2000/svg"
   xmlns:xlink="http://www.w3.org/1999/xlink"
   xmlns:sodipodi="http://sodipodi.sourceforge.net/DTD/sodipodi-0.dtd"
   xmlns:inkscape="http://www.inkscape.org/namespaces/inkscape"
   width="512"
   height="512"
   id="svg8858"
   version="1.1"
   inkscape:version="0.91pre2 r"
   viewBox="0 0 512 512.00001"
   sodipodi:docname="tile_available.svg"
   inkscape:export-filename="tile_available.png"
   inkscape:export-xdpi="90"
   inkscape:export-ydpi="90">
  <defs
     id="defs8860">
    <radialGradient
       inkscape:collect="always"
       xlink:href="#linearGradient3606"
       id="radialGradient7178-2"
       gradientUnits="userSpaceOnUse"
       cx="295.21707"
       cy="592.49023"
       fx="295.21707"
       fy="592.49023"
       r="35.607876"
       gradientTransform="matrix(7.1894206,0,0,7.1894152,-1552.7254,-3994.1531)" />
    <linearGradient
       id="linearGradient3606">
      <stop
         style="stop-color:#5fffcc;stop-opacity:0.50196081"
         offset="0"
         id="stop3608" />
      <stop
         id="stop3614"
         offset="0.4465813"
         style="stop-color:#5fffcc;stop-opacity:0.50196081" />
      <stop
         style="stop-color:#bfffeb;stop-opacity:0.50196081"
         offset="0.59929818"
         id="stop9678" />
      <stop
         style="stop-color:#bfffeb;stop-opacity:0.50196081"
         offset="0.71970063"
         id="stop9676" />
      <stop
         style="stop-color:#bfffeb;stop-opacity:0"
         offset="1"
         id="stop3610" />
    </linearGradient>
    <linearGradient
       id="linearGradient3698">
      <stop
         style="stop-color:#000000;stop-opacity:1;"
         offset="0"
         id="stop3700" />
      <stop
         id="stop3706"
         offset="0.78676492"
         style="stop-color:#0f3f6f;stop-opacity:1;" />
      <stop
         style="stop-color:#000000;stop-opacity:1;"
         offset="1"
         id="stop3702" />
    </linearGradient>
  </defs>
  <sodipodi:namedview
     id="base"
     pagecolor="#ffffff"
     bordercolor="#666666"
     borderopacity="1.0"
     inkscape:pageopacity="0.0"
     inkscape:pageshadow="2"
     inkscape:zoom="0.49497475"
     inkscape:cx="-87.648374"
     inkscape:cy="-1.2706322"
     inkscape:document-units="px"
     inkscape:current-layer="layer1"
     showgrid="false"
     fit-margin-top="0"
     fit-margin-left="0"
     fit-margin-right="0"
     fit-margin-bottom="0"
     borderlayer="true"
     inkscape:window-width="1753"
     inkscape:window-height="1180"
     inkscape:window-x="50"
     inkscape:window-y="-3"
     inkscape:window-maximized="1" />
  <metadata
     id="metadata8863">
    <rdf:RDF>
      <cc:Work
         rdf:about="">
        <dc:format>image/svg+xml</dc:format>
        <dc:type
           rdf:resource="http://purl.org/dc/dcmitype/StillImage" />
        <dc:title></dc:title>
      </cc:Work>
    </rdf:RDF>
  </metadata>
  <g
     inkscape:label="Layer 1"
     inkscape:groupmode="layer"
     id="layer1"
     transform="translate(-313.71429,-9.5050517)">
    <circle
       style="opacity:1;fill:url(#radialGradient7178-2);fill-opacity:1;stroke:none;stroke-width:12;stroke-linecap:butt;stroke-linejoin:miter;stroke-miterlimit:4;stroke-dasharray:none;stroke-opacity:1"
       id="circle4979-2"
       cx="569.71429"
       cy="265.50507"
       r="256" />
  </g>
</svg>
