version 1
nodes
  0 "tag_handle"  -1
  1 "body"   0
  2 "thingy"   1
  3 "magrelease"   1
  4 "mag"   1
  5 "tag_shell"   0
  6 "tag_shot"   0
end
skeleton
time 0
  0 -0.961907 0.048462 -1.620892 1.570796 -0.010309 0.000000
  1 1.338231 3.241354 0.064445 0.000000 0.000000 -0.010309
  2 1.674751 2.312573 -2.007073 0.000000 0.000000 0.000000
  3 13.696570 5.952872 -1.702293 0.872601 3.141593 0.000000
  4 9.023235 4.335629 -0.571782 -0.000000 -1.570796 0.000000
  5 6.891871 5.750110 0.840362 -1.570796 -0.949622 1.560488
  6 27.644863 5.676431 0.000000 0.000000 -0.000000 0.000000
time 1
  0 -0.956752 0.048463 -1.625479 1.570984 -0.010352 0.000474
  1 1.338230 3.241354 0.064445 -0.000000 -0.000000 -0.010309
  2 1.674751 2.312573 -2.007073 0.000000 0.000000 0.000000
  3 13.696569 5.952872 -1.702293 0.872601 3.141593 0.000000
  4 9.023235 4.335628 -0.571781 -0.000000 -1.570796 0.000000
  5 6.891870 5.750109 0.840362 -1.570796 -0.949622 1.560488
  6 27.644859 5.676430 0.000000 0.000000 -0.000000 0.000000
time 2
  0 -0.941771 0.048467 -1.638808 1.571521 -0.010474 0.001830
  1 1.338231 3.241354 0.064445 -0.000000 0.000000 -0.010309
  2 1.674751 2.312573 -2.007073 0.000000 -0.000000 0.000000
  3 13.696570 5.952872 -1.702293 0.872601 3.141593 0.000000
  4 9.023235 4.335628 -0.571782 -0.000000 -1.570796 0.000000
  5 6.891872 5.750110 0.840362 -1.570796 -0.949622 1.560488
  6 27.644863 5.676431 0.000000 0.000000 -0.000000 0.000000
time 3
  0 -0.917693 0.048480 -1.660232 1.572368 -0.010668 0.003971
  1 1.338230 3.241354 0.064445 0.000000 -0.000000 -0.010309
  2 1.674751 2.312573 -2.007074 0.000000 -0.000000 -0.000000
  3 13.696570 5.952870 -1.702293 0.872601 3.141593 0.000000
  4 9.023235 4.335628 -0.571782 0.000000 -1.570796 0.000000
  5 6.891871 5.750109 0.840362 -1.570796 -0.949622 1.560488
  6 27.644859 5.676429 -0.000000 0.000000 -0.000000 0.000000
time 4
  0 -0.885244 0.048506 -1.689103 1.573488 -0.010924 0.006798
  1 1.338231 3.241354 0.064445 0.000000 0.000000 -0.010309
  2 1.674751 2.312572 -2.007073 -0.000000 -0.000000 0.000000
  3 13.696569 5.952871 -1.702293 0.872601 3.141593 0.000000
  4 9.023233 4.335628 -0.571781 -0.000000 -1.570796 0.000000
  5 6.891871 5.750110 0.840362 -1.570796 -0.949622 1.560488
  6 27.644863 5.676430 0.000000 0.000000 -0.000000 0.000000
time 5
  0 -0.845154 0.048547 -1.724774 1.574840 -0.011233 0.010214
  1 1.338231 3.241354 0.064445 0.000000 0.000000 -0.010309
  2 1.674751 2.312573 -2.007073 0.000000 0.000000 0.000000
  3 13.696569 5.952872 -1.702293 0.872601 3.141593 0.000000
  4 9.023234 4.335628 -0.571782 -0.000000 -1.570796 0.000000
  5 6.891871 5.750109 0.840362 -1.570796 -0.949622 1.560488
  6 27.644863 5.676430 0.000000 0.000000 -0.000000 0.000000
time 6
  0 -0.798150 0.048609 -1.766596 1.576386 -0.011586 0.014119
  1 1.338231 3.241354 0.064445 0.000000 0.000000 -0.010309
  2 1.674751 2.312573 -2.007073 0.000000 0.000000 0.000000
  3 13.696570 5.952871 -1.702293 0.872601 3.141593 0.000000
  4 9.023234 4.335628 -0.571782 0.000000 -1.570796 0.000000
  5 6.891872 5.750109 0.840362 -1.570796 -0.949622 1.560488
  6 27.644865 5.676430 0.000000 0.000000 -0.000000 0.000000
time 7
  0 -0.744959 0.048696 -1.813923 1.578087 -0.011975 0.018417
  1 1.338230 3.241354 0.064445 0.000000 -0.000000 -0.010309
  2 1.674751 2.312573 -2.007073 0.000000 -0.000000 -0.000000
  3 13.696569 5.952872 -1.702293 0.872601 3.141593 0.000000
  4 9.023234 4.335628 -0.571782 -0.000000 -1.570796 0.000000
  5 6.891871 5.750109 0.840362 -1.570796 -0.949622 1.560488
  6 27.644863 5.676430 -0.000000 0.000000 -0.000000 0.000000
time 8
  0 -0.686309 0.048811 -1.866107 1.579905 -0.012391 0.023009
  1 1.338231 3.241354 0.064445 0.000000 0.000000 -0.010309
  2 1.674751 2.312572 -2.007073 0.000000 -0.000000 0.000000
  3 13.696568 5.952871 -1.702293 0.872601 3.141593 0.000000
  4 9.023234 4.335628 -0.571781 -0.000000 -1.570796 0.000000
  5 6.891871 5.750109 0.840362 -1.570796 -0.949622 1.560488
  6 27.644861 5.676430 -0.000000 0.000000 -0.000000 0.000000
time 9
  0 -0.622929 0.048960 -1.922500 1.581801 -0.012824 0.027797
  1 1.338231 3.241354 0.064445 0.000000 0.000000 -0.010309
  2 1.674751 2.312572 -2.007073 0.000000 -0.000000 -0.000000
  3 13.696569 5.952871 -1.702293 0.872601 3.141593 0.000000
  4 9.023235 4.335628 -0.571782 -0.000000 -1.570796 0.000000
  5 6.891871 5.750109 0.840362 -1.570796 -0.949622 1.560488
  6 27.644863 5.676430 0.000000 0.000000 -0.000000 0.000000
time 10
  0 -0.555545 0.049144 -1.982455 1.583735 -0.013266 0.032684
  1 1.338231 3.241354 0.064445 0.000000 -0.000000 -0.010309
  2 1.674751 2.312573 -2.007073 0.000000 -0.000000 -0.000000
  3 13.696570 5.952871 -1.702292 0.872601 3.141593 0.000000
  4 9.023235 4.335628 -0.571782 -0.000000 -1.570796 0.000000
  5 6.891871 5.750109 0.840362 -1.570796 -0.949622 1.560488
  6 27.644865 5.676430 -0.000000 0.000000 -0.000000 0.000000
time 11
  0 -0.484887 0.049370 -2.045324 1.585669 -0.013708 0.037570
  1 1.338230 3.241354 0.064445 -0.000000 0.000000 -0.010309
  2 1.674751 2.312573 -2.007073 0.000000 -0.000000 0.000000
  3 13.696570 5.952871 -1.702293 0.872601 3.141593 0.000000
  4 9.023235 4.335628 -0.571782 0.000000 -1.570796 0.000000
  5 6.891871 5.750109 0.840362 -1.570796 -0.949622 1.560488
  6 27.644861 5.676430 0.000000 0.000000 -0.000000 0.000000
time 12
  0 -0.411681 0.049641 -2.110459 1.587565 -0.014141 0.042358
  1 1.338230 3.241354 0.064445 -0.000000 0.000000 -0.010309
  2 1.674751 2.312573 -2.007073 0.000000 0.000000 0.000000
  3 13.696568 5.952873 -1.702293 0.872601 3.141593 0.000000
  4 9.023233 4.335628 -0.571782 0.000000 -1.570796 0.000000
  5 6.891871 5.750109 0.840362 -1.570796 -0.949622 1.560488
  6 27.644861 5.676430 0.000000 0.000000 -0.000000 0.000000
time 13
  0 -0.336656 0.049962 -2.177213 1.589383 -0.014557 0.046950
  1 1.338230 3.241354 0.064445 0.000000 -0.000000 -0.010309
  2 1.674751 2.312573 -2.007073 0.000000 0.000000 0.000000
  3 13.696569 5.952871 -1.702293 0.872601 3.141593 0.000000
  4 9.023236 4.335628 -0.571781 -0.000000 -1.570796 0.000000
  5 6.891871 5.750109 0.840362 -1.570796 -0.949622 1.560487
  6 27.644863 5.676430 0.000000 0.000000 -0.000000 0.000000
time 14
  0 -0.260538 0.050335 -2.244939 1.591084 -0.014946 0.051248
  1 1.338230 3.241353 0.064445 0.000000 -0.000000 -0.010309
  2 1.674751 2.312573 -2.007073 0.000000 0.000000 0.000000
  3 13.696566 5.952871 -1.702293 0.872601 3.141593 0.000000
  4 9.023233 4.335627 -0.571782 -0.000000 -1.570796 0.000000
  5 6.891871 5.750109 0.840362 -1.570796 -0.949622 1.560488
  6 27.644863 5.676430 0.000000 0.000000 -0.000000 0.000000
time 15
  0 -0.184057 0.050766 -2.312989 1.592631 -0.015299 0.055154
  1 1.338231 3.241354 0.064445 0.000000 -0.000000 -0.010309
  2 1.674751 2.312573 -2.007073 0.000000 0.000000 0.000000
  3 13.696569 5.952871 -1.702293 0.872601 3.141593 0.000000
  4 9.023233 4.335628 -0.571782 -0.000000 -1.570796 0.000000
  5 6.891871 5.750109 0.840362 -1.570796 -0.949622 1.560488
  6 27.644863 5.676430 0.000000 0.000000 -0.000000 0.000000
time 16
  0 -0.107940 0.051258 -2.380714 1.593983 -0.015608 0.058569
  1 1.338231 3.241354 0.064445 0.000000 0.000000 -0.010309
  2 1.674751 2.312573 -2.007073 0.000000 0.000000 0.000000
  3 13.696570 5.952871 -1.702293 0.872601 3.141593 0.000000
  4 9.023235 4.335628 -0.571782 -0.000000 -1.570796 0.000000
  5 6.891872 5.750109 0.840362 -1.570796 -0.949622 1.560488
  6 27.644861 5.676430 -0.000000 0.000000 -0.000000 0.000000
time 17
  0 -0.032915 0.051815 -2.447469 1.595102 -0.015864 0.061396
  1 1.338230 3.241354 0.064445 -0.000000 0.000000 -0.010309
  2 1.674752 2.312573 -2.007073 0.000000 -0.000000 0.000000
  3 13.696569 5.952872 -1.702293 0.872601 3.141593 0.000000
  4 9.023236 4.335628 -0.571781 -0.000000 -1.570796 0.000000
  5 6.891870 5.750110 0.840362 -1.570796 -0.949622 1.560488
  6 27.644861 5.676430 0.000000 0.000000 -0.000000 0.000000
time 18
  0 0.040291 0.052443 -2.512604 1.595949 -0.016058 0.063537
  1 1.338231 3.241354 0.064445 0.000000 0.000000 -0.010309
  2 1.674751 2.312573 -2.007073 0.000000 0.000000 -0.000000
  3 13.696568 5.952872 -1.702293 0.872601 3.141593 0.000000
  4 9.023235 4.335628 -0.571782 -0.000000 -1.570796 0.000000
  5 6.891871 5.750109 0.840362 -1.570796 -0.949622 1.560488
  6 27.644863 5.676430 -0.000000 0.000000 -0.000000 0.000000
time 19
  0 0.110949 0.053144 -2.575473 1.596486 -0.016181 0.064893
  1 1.338231 3.241354 0.064445 0.000000 0.000000 -0.010309
  2 1.674751 2.312573 -2.007073 0.000000 -0.000000 -0.000000
  3 13.696571 5.952871 -1.702293 0.872601 3.141593 0.000000
  4 9.023236 4.335628 -0.571782 0.000000 -1.570796 0.000000
  5 6.891871 5.750109 0.840362 -1.570796 -0.949622 1.560488
  6 27.644863 5.676430 -0.000000 0.000000 -0.000000 0.000000
time 20
  0 0.178333 0.053923 -2.635428 1.596674 -0.016223 0.065367
  1 1.338231 3.241354 0.064445 0.000000 0.000000 -0.010309
  2 1.674751 2.312573 -2.007073 -0.000000 -0.000000 0.000000
  3 13.696568 5.952871 -1.702293 0.872601 3.141593 0.000000
  4 9.023234 4.335628 -0.571782 -0.000000 -1.570796 0.000000
  5 6.891872 5.750109 0.840362 -1.570796 -0.949622 1.560488
  6 27.644863 5.676430 0.000000 0.000000 -0.000000 0.000000
time 21
  0 0.241713 0.054783 -2.691821 1.596547 -0.016056 0.064977
  1 1.338231 3.241354 0.064445 -0.000000 0.000000 -0.010309
  2 1.674752 2.312573 -2.007073 0.000000 -0.000000 -0.000000
  3 13.696573 5.952873 -1.702293 0.872601 3.141593 0.000000
  4 9.023236 4.335628 -0.571782 -0.000000 -1.570796 0.000000
  5 6.891871 5.750109 0.840362 -1.570796 -0.949622 1.560488
  6 27.644863 5.676430 0.000000 0.000000 -0.000000 0.000000
time 22
  0 0.300363 0.055730 -2.744004 1.596179 -0.015568 0.063843
  1 1.338230 3.241354 0.064445 0.000000 -0.000000 -0.010309
  2 1.674751 2.312573 -2.007073 0.000000 -0.000000 0.000000
  3 13.696570 5.952871 -1.702292 0.872601 3.141593 0.000000
  4 9.023235 4.335627 -0.571781 -0.000000 -1.570796 0.000000
  5 6.891871 5.750110 0.840362 -1.570796 -0.949622 1.560488
  6 27.644861 5.676430 0.000000 0.000000 -0.000000 0.000000
time 23
  0 0.353554 0.056767 -2.791332 1.595588 -0.014783 0.062017
  1 1.338230 3.241354 0.064445 -0.000000 0.000000 -0.010309
  2 1.674751 2.312573 -2.007073 -0.000000 -0.000000 0.000000
  3 13.696568 5.952872 -1.702293 0.872601 3.141593 0.000000
  4 9.023234 4.335629 -0.571781 0.000000 -1.570796 0.000000
  5 6.891871 5.750109 0.840362 -1.570796 -0.949622 1.560487
  6 27.644863 5.676430 0.000000 0.000000 -0.000000 0.000000
time 24
  0 0.400558 0.057898 -2.833154 1.594789 -0.013723 0.059554
  1 1.338231 3.241354 0.064445 -0.000000 -0.000000 -0.010309
  2 1.674751 2.312573 -2.007073 0.000000 0.000000 0.000000
  3 13.696572 5.952871 -1.702293 0.872601 3.141593 0.000000
  4 9.023236 4.335627 -0.571782 0.000000 -1.570796 0.000000
  5 6.891871 5.750109 0.840362 -1.570796 -0.949622 1.560487
  6 27.644865 5.676430 0.000000 0.000000 -0.000000 0.000000
time 25
  0 0.440648 0.059127 -2.868825 1.593800 -0.012412 0.056505
  1 1.338231 3.241354 0.064445 0.000000 -0.000000 -0.010309
  2 1.674751 2.312573 -2.007073 -0.000000 0.000000 0.000000
  3 13.696568 5.952871 -1.702293 0.872601 3.141593 0.000000
  4 9.023234 4.335628 -0.571781 -0.000000 -1.570796 0.000000
  5 6.891871 5.750109 0.840362 -1.570796 -0.949622 1.560488
  6 27.644865 5.676431 0.000000 0.000000 -0.000000 0.000000
time 26
  0 0.473097 0.060459 -2.897696 1.592639 -0.010872 0.052925
  1 1.338230 3.241354 0.064445 0.000000 0.000000 -0.010309
  2 1.674751 2.312573 -2.007073 0.000000 -0.000000 0.000000
  3 13.696568 5.952871 -1.702293 0.872601 3.141593 0.000000
  4 9.023236 4.335627 -0.571782 -0.000000 -1.570796 0.000000
  5 6.891871 5.750109 0.840362 -1.570796 -0.949622 1.560488
  6 27.644861 5.676430 -0.000000 0.000000 -0.000000 0.000000
time 27
  0 0.497175 0.061897 -2.919120 1.591323 -0.009126 0.048867
  1 1.338230 3.241354 0.064445 0.000000 0.000000 -0.010309
  2 1.674751 2.312572 -2.007073 0.000000 0.000000 0.000000
  3 13.696569 5.952871 -1.702293 0.872601 3.141593 0.000000
  4 9.023235 4.335627 -0.571782 -0.000000 -1.570796 0.000000
  5 6.891872 5.750109 0.840362 -1.570796 -0.949622 1.560487
  6 27.644859 5.676430 -0.000000 0.000000 -0.000000 0.000000
time 28
  0 0.512156 0.063446 -2.932449 1.589869 -0.007197 0.044383
  1 1.338230 3.241354 0.064445 0.000000 0.000000 -0.010309
  2 1.674751 2.312573 -2.007073 0.000000 0.000000 0.000000
  3 13.696568 5.952872 -1.702293 0.872601 3.141593 0.000000
  4 9.023235 4.335628 -0.571782 -0.000000 -1.570796 0.000000
  5 6.891871 5.750109 0.840362 -1.570796 -0.949622 1.560488
  6 27.644863 5.676430 -0.000000 0.000000 -0.000000 0.000000
time 29
  0 0.517311 0.065109 -2.937036 1.588294 -0.005108 0.039526
  1 1.338230 3.241354 0.064445 0.000000 0.000000 -0.010309
  2 1.674751 2.312573 -2.007074 0.000000 -0.000000 0.000000
  3 13.696571 5.952871 -1.702293 0.872601 3.141593 0.000000
  4 9.023235 4.335628 -0.571782 -0.000000 -1.570796 0.000000
  5 6.891870 5.750109 0.840362 -1.570796 -0.949622 1.560488
  6 27.644859 5.676430 -0.000000 0.000000 -0.000000 0.000000
time 30
  0 0.514843 0.071315 -2.929643 1.586616 -0.002882 0.034351
  1 1.338231 3.241354 0.064445 0.000000 -0.000000 -0.010309
  2 1.674751 2.312573 -2.007074 0.000000 0.000000 0.000000
  3 13.696569 5.952871 -1.702293 0.872601 3.141593 0.000000
  4 9.023234 4.335627 -0.571782 -0.000000 -1.570796 0.000000
  5 6.891871 5.750110 0.840362 -1.570796 -0.949622 1.560488
  6 27.644859 5.676430 0.000000 0.000000 -0.000000 0.000000
time 31
  0 0.507680 0.086114 -2.908186 1.584851 -0.000541 0.028910
  1 1.338230 3.241354 0.064445 0.000000 0.000000 -0.010309
  2 1.674751 2.312572 -2.007073 0.000000 0.000000 0.000000
  3 13.696568 5.952871 -1.702293 0.872601 3.141593 0.000000
  4 9.023235 4.335628 -0.571782 -0.000000 -1.570796 0.000000
  5 6.891871 5.750110 0.840362 -1.570796 -0.949622 1.560488
  6 27.644863 5.676430 -0.000000 0.000000 -0.000000 0.000000
time 32
  0 0.496183 0.108948 -2.873746 1.583018 0.001891 0.023256
  1 1.338230 3.241353 0.064445 -0.000000 0.000000 -0.010309
  2 1.674751 2.312572 -2.007073 0.000000 0.000000 0.000000
  3 13.696568 5.952871 -1.702293 0.872601 3.141593 0.000000
  4 9.023235 4.335629 -0.571782 -0.000000 -1.570796 0.000000
  5 6.891872 5.750109 0.840362 -1.570796 -0.949622 1.560488
  6 27.644863 5.676430 -0.000000 0.000000 -0.000000 0.000000
time 33
  0 0.480713 0.139260 -2.827406 1.581133 0.004391 0.017443
  1 1.338230 3.241354 0.064445 0.000000 -0.000000 -0.010309
  2 1.674751 2.312573 -2.007073 0.000000 0.000000 0.000000
  3 13.696570 5.952871 -1.702293 0.872601 3.141593 0.000000
  4 9.023236 4.335628 -0.571782 0.000000 -1.570796 0.000000
  5 6.891871 5.750109 0.840362 -1.570796 -0.949622 1.560488
  6 27.644859 5.676430 -0.000000 0.000000 -0.000000 0.000000
time 34
  0 0.461632 0.176491 -2.770247 1.579213 0.006938 0.011523
  1 1.338231 3.241354 0.064445 0.000000 0.000000 -0.010309
  2 1.674751 2.312573 -2.007073 0.000000 0.000000 0.000000
  3 13.696569 5.952872 -1.702293 0.872601 3.141593 0.000000
  4 9.023235 4.335628 -0.571781 -0.000000 -1.570796 0.000000
  5 6.891871 5.750109 0.840362 -1.570796 -0.949622 1.560488
  6 27.644865 5.676430 0.000000 0.000000 -0.000000 0.000000
time 35
  0 0.439300 0.220083 -2.703351 1.577276 0.009507 0.005550
  1 1.338231 3.241354 0.064445 -0.000000 0.000000 -0.010309
  2 1.674752 2.312573 -2.007074 0.000000 -0.000000 0.000000
  3 13.696569 5.952871 -1.702293 0.872601 3.141593 0.000000
  4 9.023235 4.335628 -0.571782 -0.000000 -1.570796 0.000000
  5 6.891871 5.750109 0.840362 -1.570796 -0.949622 1.560488
  6 27.644863 5.676430 0.000000 0.000000 -0.000000 0.000000
time 36
  0 0.414078 0.269478 -2.627800 1.575339 0.012076 -0.000422
  1 1.338231 3.241354 0.064445 -0.000000 0.000000 -0.010309
  2 1.674751 2.312573 -2.007074 -0.000000 -0.000000 0.000000
  3 13.696570 5.952871 -1.702293 0.872601 3.141593 0.000000
  4 9.023236 4.335628 -0.571782 -0.000000 -1.570796 0.000000
  5 6.891871 5.750110 0.840362 -1.570796 -0.949622 1.560488
  6 27.644863 5.676430 -0.000000 0.000000 -0.000000 0.000000
time 37
  0 0.386329 0.324116 -2.544675 1.573420 0.014622 -0.006342
  1 1.338230 3.241354 0.064445 0.000000 -0.000000 -0.010309
  2 1.674751 2.312573 -2.007073 0.000000 -0.000000 0.000000
  3 13.696569 5.952871 -1.702293 0.872601 3.141593 0.000000
  4 9.023235 4.335628 -0.571782 -0.000000 -1.570796 0.000000
  5 6.891871 5.750109 0.840362 -1.570796 -0.949622 1.560488
  6 27.644863 5.676430 -0.000000 0.000000 -0.000000 0.000000
time 38
  0 0.356412 0.383441 -2.455060 1.571535 0.017123 -0.012155
  1 1.338231 3.241353 0.064445 -0.000000 0.000000 -0.010309
  2 1.674751 2.312573 -2.007073 0.000000 0.000000 -0.000000
  3 13.696571 5.952872 -1.702293 0.872601 3.141593 0.000000
  4 9.023236 4.335628 -0.571781 -0.000000 -1.570796 0.000000
  5 6.891871 5.750109 0.840362 -1.570796 -0.949622 1.560488
  6 27.644865 5.676430 -0.000000 0.000000 -0.000000 0.000000
time 39
  0 0.324690 0.446894 -2.360035 1.569701 0.019555 -0.017809
  1 1.338230 3.241353 0.064445 0.000000 0.000000 -0.010309
  2 1.674752 2.312573 -2.007073 0.000000 -0.000000 0.000000
  3 13.696568 5.952872 -1.702293 0.872601 3.141593 0.000000
  4 9.023234 4.335628 -0.571782 0.000000 -1.570796 0.000000
  5 6.891870 5.750109 0.840362 -1.570796 -0.949622 1.560488
  6 27.644859 5.676430 0.000000 0.000000 -0.000000 0.000000
time 40
  0 0.291523 0.513916 -2.260683 1.567937 0.021895 -0.023250
  1 1.338230 3.241354 0.064445 0.000000 0.000000 -0.010309
  2 1.674751 2.312573 -2.007073 -0.000000 -0.000000 0.000000
  3 13.696569 5.952872 -1.702293 0.872601 3.141593 0.000000
  4 9.023233 4.335629 -0.571782 -0.000000 -1.570796 0.000000
  5 6.891871 5.750109 0.840362 -1.570796 -0.949622 1.560488
  6 27.644863 5.676430 -0.000000 0.000000 -0.000000 0.000000
time 41
  0 0.257272 0.583949 -2.158084 1.566258 0.024121 -0.028426
  1 1.338230 3.241354 0.064445 0.000000 -0.000000 -0.010309
  2 1.674751 2.312573 -2.007073 0.000000 -0.000000 0.000000
  3 13.696568 5.952872 -1.702293 0.872601 3.141593 0.000000
  4 9.023234 4.335628 -0.571781 -0.000000 -1.570796 0.000000
  5 6.891871 5.750109 0.840362 -1.570796 -0.949622 1.560488
  6 27.644861 5.676430 0.000000 0.000000 -0.000000 0.000000
time 42
  0 0.222300 0.656436 -2.053323 1.564684 0.026210 -0.033282
  1 1.338230 3.241354 0.064445 -0.000000 -0.000000 -0.010309
  2 1.674751 2.312573 -2.007073 0.000000 -0.000000 0.000000
  3 13.696568 5.952872 -1.702293 0.872601 3.141593 0.000000
  4 9.023234 4.335629 -0.571781 0.000000 -1.570796 0.000000
  5 6.891871 5.750110 0.840362 -1.570796 -0.949622 1.560488
  6 27.644863 5.676430 -0.000000 0.000000 -0.000000 0.000000
time 43
  0 0.186966 0.730817 -1.947479 1.563229 0.028139 -0.037766
  1 1.338230 3.241354 0.064445 -0.000000 -0.000000 -0.010309
  2 1.674751 2.312573 -2.007073 -0.000000 -0.000000 0.000000
  3 13.696570 5.952871 -1.702293 0.872601 3.141593 0.000000
  4 9.023235 4.335628 -0.571781 -0.000000 -1.570796 0.000000
  5 6.891870 5.750108 0.840362 -1.570796 -0.949622 1.560488
  6 27.644863 5.676430 0.000000 0.000000 -0.000000 0.000000
time 44
  0 0.151632 0.806534 -1.841635 1.561913 0.029885 -0.041825
  1 1.338231 3.241354 0.064445 -0.000000 0.000000 -0.010309
  2 1.674751 2.312573 -2.007073 0.000000 -0.000000 0.000000
  3 13.696572 5.952871 -1.702293 0.872601 3.141593 0.000000
  4 9.023236 4.335628 -0.571782 0.000000 -1.570796 0.000000
  5 6.891872 5.750109 0.840362 -1.570796 -0.949622 1.560488
  6 27.644863 5.676430 0.000000 0.000000 -0.000000 0.000000
time 45
  0 0.116659 0.883030 -1.736873 1.560752 0.031425 -0.045405
  1 1.338231 3.241354 0.064445 -0.000000 -0.000000 -0.010309
  2 1.674751 2.312573 -2.007073 0.000000 -0.000000 -0.000000
  3 13.696570 5.952871 -1.702293 0.872601 3.141593 0.000000
  4 9.023236 4.335628 -0.571782 0.000000 -1.570796 0.000000
  5 6.891871 5.750109 0.840362 -1.570796 -0.949622 1.560488
  6 27.644863 5.676429 -0.000000 0.000000 -0.000000 0.000000
time 46
  0 0.082408 0.959746 -1.634275 1.559764 0.032736 -0.048453
  1 1.338231 3.241354 0.064445 -0.000000 0.000000 -0.010309
  2 1.674752 2.312573 -2.007073 -0.000000 -0.000000 0.000000
  3 13.696571 5.952872 -1.702293 0.872601 3.141593 0.000000
  4 9.023237 4.335629 -0.571782 0.000000 -1.570796 0.000000
  5 6.891871 5.750110 0.840362 -1.570796 -0.949622 1.560488
  6 27.644863 5.676430 -0.000000 0.000000 -0.000000 0.000000
time 47
  0 0.049241 1.036124 -1.534923 1.558965 0.033796 -0.050917
  1 1.338230 3.241354 0.064445 -0.000000 0.000000 -0.010309
  2 1.674751 2.312573 -2.007073 -0.000000 0.000000 -0.000000
  3 13.696569 5.952871 -1.702292 0.872601 3.141593 0.000000
  4 9.023234 4.335628 -0.571781 -0.000000 -1.570796 0.000000
  5 6.891871 5.750109 0.840362 -1.570796 -0.949622 1.560488
  6 27.644863 5.676430 0.000000 0.000000 -0.000000 0.000000
time 48
  0 0.017519 1.111605 -1.439898 1.558373 0.034581 -0.052742
  1 1.338231 3.241354 0.064445 0.000000 -0.000000 -0.010309
  2 1.674751 2.312573 -2.007073 -0.000000 -0.000000 0.000000
  3 13.696571 5.952872 -1.702293 0.872601 3.141593 0.000000
  4 9.023236 4.335628 -0.571782 -0.000000 -1.570796 0.000000
  5 6.891871 5.750109 0.840362 -1.570796 -0.949622 1.560488
  6 27.644861 5.676430 0.000000 0.000000 -0.000000 0.000000
time 49
  0 -0.012398 1.185631 -1.350283 1.558005 0.035069 -0.053877
  1 1.338231 3.241354 0.064445 -0.000000 0.000000 -0.010309
  2 1.674751 2.312572 -2.007074 0.000000 -0.000000 0.000000
  3 13.696571 5.952871 -1.702293 0.872601 3.141593 0.000000
  4 9.023236 4.335628 -0.571782 -0.000000 -1.570796 0.000000
  5 6.891870 5.750109 0.840363 -1.570796 -0.949622 1.560488
  6 27.644861 5.676430 0.000000 0.000000 -0.000000 0.000000
time 50
  0 -0.040147 1.257644 -1.267158 1.557879 0.035237 -0.054266
  1 1.338230 3.241354 0.064445 0.000000 0.000000 -0.010309
  2 1.674751 2.312573 -2.007074 -0.000000 -0.000000 0.000000
  3 13.696568 5.952872 -1.702293 0.872601 3.141593 0.000000
  4 9.023234 4.335629 -0.571782 -0.000000 -1.570796 0.000000
  5 6.891871 5.750110 0.840362 -1.570796 -0.949622 1.560488
  6 27.644859 5.676430 -0.000000 0.000000 -0.000000 0.000000
time 51
  0 -0.065368 1.327086 -1.191607 1.558416 0.035121 -0.054266
  1 1.338230 3.241354 0.064445 -0.000000 -0.000000 -0.010309
  2 1.674751 2.312573 -2.007073 -0.000000 0.000000 0.000000
  3 13.696571 5.952872 -1.702293 0.872601 3.141593 0.000000
  4 9.023235 4.335628 -0.571781 -0.000000 -1.570796 0.000000
  5 6.891871 5.750108 0.840362 -1.570796 -0.949622 1.560488
  6 27.644859 5.676429 0.000000 0.000000 -0.000000 0.000000
time 52
  0 -0.087701 1.393398 -1.124711 1.559965 0.034784 -0.054266
  1 1.338231 3.241354 0.064445 -0.000000 -0.000000 -0.010309
  2 1.674751 2.312573 -2.007073 -0.000000 -0.000000 0.000000
  3 13.696568 5.952872 -1.702293 0.872601 3.141593 0.000000
  4 9.023234 4.335628 -0.571781 -0.000000 -1.570796 0.000000
  5 6.891871 5.750109 0.840362 -1.570796 -0.949622 1.560488
  6 27.644863 5.676430 -0.000000 0.000000 -0.000000 0.000000
time 53
  0 -0.106782 1.456023 -1.067552 1.562430 0.034244 -0.054265
  1 1.338230 3.241354 0.064445 -0.000000 0.000000 -0.010309
  2 1.674751 2.312573 -2.007073 0.000000 -0.000000 0.000000
  3 13.696568 5.952871 -1.702293 0.872601 3.141593 0.000000
  4 9.023234 4.335628 -0.571781 -0.000000 -1.570796 0.000000
  5 6.891871 5.750110 0.840362 -1.570796 -0.949622 1.560488
  6 27.644861 5.676430 -0.000000 0.000000 -0.000000 0.000000
time 54
  0 -0.122252 1.514401 -1.021211 1.565712 0.033517 -0.054264
  1 1.338231 3.241353 0.064446 -0.000000 -0.000000 -0.010309
  2 1.674751 2.312572 -2.007073 -0.000000 -0.000000 0.000000
  3 13.696569 5.952871 -1.702293 0.872601 3.141593 0.000000
  4 9.023235 4.335628 -0.571781 0.000000 -1.570796 0.000000
  5 6.891871 5.750109 0.840362 -1.570796 -0.949622 1.560488
  6 27.644861 5.676430 0.000000 0.000000 -0.000000 0.000000
time 55
  0 -0.133749 1.567975 -0.986772 1.569717 0.032622 -0.054262
  1 1.338230 3.241354 0.064445 -0.000000 -0.000000 -0.010309
  2 1.674751 2.312573 -2.007073 -0.000000 -0.000000 0.000000
  3 13.696569 5.952871 -1.702293 0.872601 3.141593 0.000000
  4 9.023236 4.335628 -0.571781 0.000000 -1.570796 0.000000
  5 6.891872 5.750109 0.840362 -1.570796 -0.949622 1.560488
  6 27.644865 5.676429 -0.000000 0.000000 -0.000000 0.000000
time 56
  0 -0.140912 1.616186 -0.965315 1.574349 0.031575 -0.054258
  1 1.338230 3.241354 0.064445 -0.000000 0.000000 -0.010309
  2 1.674752 2.312573 -2.007073 0.000000 0.000000 0.000000
  3 13.696572 5.952871 -1.702293 0.872601 3.141593 0.000000
  4 9.023235 4.335628 -0.571782 -0.000000 -1.570796 0.000000
  5 6.891871 5.750109 0.840362 -1.570796 -0.949622 1.560488
  6 27.644865 5.676429 0.000000 0.000000 -0.000000 0.000000
time 57
  0 -0.143380 1.658476 -0.957922 1.579509 0.030393 -0.054253
  1 1.338230 3.241354 0.064445 0.000000 0.000000 -0.010309
  2 1.674751 2.312573 -2.007073 0.000000 -0.000000 0.000000
  3 13.696570 5.952870 -1.702293 0.872601 3.141593 0.000000
  4 9.023235 4.335628 -0.571781 -0.000000 -1.570796 0.000000
  5 6.891871 5.750109 0.840362 -1.570796 -0.949622 1.560488
  6 27.644857 5.676430 0.000000 0.000000 -0.000000 0.000000
time 58
  0 -0.142699 1.696509 -0.959644 1.585104 0.029094 -0.054246
  1 1.338230 3.241354 0.064445 0.000000 0.000000 -0.010309
  2 1.674751 2.312572 -2.007073 0.000000 0.000000 0.000000
  3 13.696568 5.952871 -1.702293 0.872601 3.141593 0.000000
  4 9.023234 4.335628 -0.571781 0.000000 -1.570796 0.000000
  5 6.891871 5.750108 0.840362 -1.570796 -0.949622 1.560488
  6 27.644861 5.676430 0.000000 0.000000 -0.000000 0.000000
time 59
  0 -0.140736 1.732352 -0.964646 1.591035 0.027695 -0.054238
  1 1.338231 3.241354 0.064445 0.000000 0.000000 -0.010309
  2 1.674751 2.312573 -2.007073 0.000000 -0.000000 -0.000000
  3 13.696569 5.952872 -1.702293 0.872601 3.141593 0.000000
  4 9.023235 4.335628 -0.571782 0.000000 -1.570796 0.000000
  5 6.891871 5.750109 0.840362 -1.570796 -0.949622 1.560488
  6 27.644861 5.676430 0.000000 0.000000 -0.000000 0.000000
time 60
  0 -0.137613 1.766050 -0.972679 1.597207 0.026214 -0.054227
  1 1.338230 3.241354 0.064445 -0.000000 0.000000 -0.010309
  2 1.674751 2.312573 -2.007073 0.000000 0.000000 0.000000
  3 13.696570 5.952872 -1.702293 0.872601 3.141593 0.000000
  4 9.023236 4.335628 -0.571782 -0.000000 -1.570796 0.000000
  5 6.891871 5.750108 0.840362 -1.570796 -0.949622 1.560488
  6 27.644865 5.676430 0.000000 0.000000 -0.000000 0.000000
time 61
  0 -0.133454 1.797652 -0.983494 1.603524 0.024667 -0.054214
  1 1.338231 3.241354 0.064445 -0.000000 0.000000 -0.010309
  2 1.674751 2.312573 -2.007073 0.000000 -0.000000 0.000000
  3 13.696570 5.952872 -1.702293 0.872601 3.141593 0.000000
  4 9.023235 4.335629 -0.571782 -0.000000 -1.570796 0.000000
  5 6.891871 5.750109 0.840362 -1.570796 -0.949622 1.560487
  6 27.644861 5.676430 0.000000 0.000000 -0.000000 0.000000
time 62
  0 -0.128378 1.827202 -0.996842 1.609888 0.023071 -0.054198
  1 1.338230 3.241354 0.064445 -0.000000 -0.000000 -0.010309
  2 1.674751 2.312573 -2.007073 0.000000 -0.000000 0.000000
  3 13.696570 5.952871 -1.702293 0.872601 3.141593 0.000000
  4 9.023235 4.335628 -0.571782 0.000000 -1.570796 0.000000
  5 6.891871 5.750109 0.840362 -1.570796 -0.949622 1.560488
  6 27.644863 5.676430 -0.000000 0.000000 -0.000000 0.000000
time 63
  0 -0.122510 1.854747 -1.012477 1.616205 0.021445 -0.054179
  1 1.338230 3.241354 0.064445 0.000000 0.000000 -0.010309
  2 1.674751 2.312573 -2.007073 0.000000 -0.000000 0.000000
  3 13.696571 5.952871 -1.702292 0.872601 3.141593 0.000000
  4 9.023236 4.335627 -0.571781 0.000000 -1.570796 0.000000
  5 6.891871 5.750110 0.840362 -1.570796 -0.949622 1.560488
  6 27.644863 5.676430 -0.000000 0.000000 -0.000000 0.000000
time 64
  0 -0.115970 1.880335 -1.030148 1.622377 0.019805 -0.054158
  1 1.338230 3.241354 0.064445 -0.000000 0.000000 -0.010309
  2 1.674751 2.312573 -2.007074 0.000000 -0.000000 -0.000000
  3 13.696569 5.952871 -1.702293 0.872601 3.141593 0.000000
  4 9.023236 4.335628 -0.571782 -0.000000 -1.570796 0.000000
  5 6.891871 5.750109 0.840362 -1.570796 -0.949622 1.560488
  6 27.644863 5.676430 0.000000 0.000000 -0.000000 0.000000
time 65
  0 -0.108881 1.904012 -1.049608 1.628308 0.018169 -0.054133
  1 1.338231 3.241353 0.064445 0.000000 -0.000000 -0.010309
  2 1.674751 2.312573 -2.007073 0.000000 -0.000000 -0.000000
  3 13.696571 5.952871 -1.702293 0.872601 3.141593 0.000000
  4 9.023235 4.335627 -0.571782 -0.000000 -1.570796 0.000000
  5 6.891871 5.750109 0.840362 -1.570796 -0.949622 1.560488
  6 27.644865 5.676430 0.000000 0.000000 -0.000000 0.000000
time 66
  0 -0.101365 1.925824 -1.070607 1.633902 0.016553 -0.054104
  1 1.338230 3.241354 0.064445 0.000000 0.000000 -0.010309
  2 1.674751 2.312573 -2.007073 -0.000000 -0.000000 0.000000
  3 13.696570 5.952872 -1.702293 0.872601 3.141593 0.000000
  4 9.023236 4.335628 -0.571782 -0.000000 -1.570796 0.000000
  5 6.891870 5.750109 0.840362 -1.570796 -0.949622 1.560488
  6 27.644861 5.676431 0.000000 0.000000 -0.000000 0.000000
time 67
  0 -0.093544 1.945817 -1.092899 1.639063 0.014975 -0.054072
  1 1.338231 3.241354 0.064445 0.000000 -0.000000 -0.010309
  2 1.674751 2.312572 -2.007073 -0.000000 -0.000000 0.000000
  3 13.696571 5.952871 -1.702293 0.872601 3.141593 0.000000
  4 9.023236 4.335628 -0.571782 0.000000 -1.570796 0.000000
  5 6.891872 5.750108 0.840362 -1.570796 -0.949622 1.560488
  6 27.644863 5.676430 -0.000000 0.000000 -0.000000 0.000000
time 68
  0 -0.085539 1.964039 -1.116233 1.643695 0.013453 -0.054035
  1 1.338230 3.241353 0.064445 -0.000000 0.000000 -0.010309
  2 1.674752 2.312572 -2.007073 0.000000 -0.000000 0.000000
  3 13.696569 5.952872 -1.702293 0.872601 3.141593 0.000000
  4 9.023236 4.335628 -0.571782 -0.000000 -1.570796 0.000000
  5 6.891871 5.750108 0.840362 -1.570796 -0.949622 1.560487
  6 27.644861 5.676430 -0.000000 0.000000 -0.000000 0.000000
time 69
  0 -0.077474 1.980536 -1.140362 1.647699 0.012003 -0.053994
  1 1.338231 3.241354 0.064445 0.000000 -0.000000 -0.010309
  2 1.674751 2.312572 -2.007073 0.000000 -0.000000 -0.000000
  3 13.696569 5.952870 -1.702292 0.872601 3.141593 0.000000
  4 9.023234 4.335628 -0.571782 -0.000000 -1.570796 0.000000
  5 6.891871 5.750109 0.840362 -1.570796 -0.949622 1.560488
  6 27.644859 5.676430 0.000000 0.000000 -0.000000 0.000000
time 70
  0 -0.069469 1.995354 -1.165037 1.650982 0.010643 -0.053949
  1 1.338231 3.241354 0.064445 0.000000 -0.000000 -0.010309
  2 1.674751 2.312573 -2.007073 0.000000 -0.000000 -0.000000
  3 13.696568 5.952871 -1.702293 0.872601 3.141593 0.000000
  4 9.023234 4.335628 -0.571782 0.000000 -1.570796 0.000000
  5 6.891871 5.750109 0.840363 -1.570796 -0.949622 1.560488
  6 27.644863 5.676430 0.000000 0.000000 -0.000000 0.000000
time 71
  0 -0.061648 2.008540 -1.190009 1.653446 0.009390 -0.053899
  1 1.338231 3.241354 0.064445 0.000000 -0.000000 -0.010309
  2 1.674751 2.312573 -2.007073 0.000000 -0.000000 0.000000
  3 13.696569 5.952872 -1.702292 0.872601 3.141593 0.000000
  4 9.023235 4.335628 -0.571782 -0.000000 -1.570796 0.000000
  5 6.891871 5.750109 0.840362 -1.570796 -0.949622 1.560488
  6 27.644861 5.676430 0.000000 0.000000 -0.000000 0.000000
time 72
  0 -0.054132 2.020140 -1.215031 1.654995 0.008261 -0.053844
  1 1.338231 3.241354 0.064445 0.000000 -0.000000 -0.010309
  2 1.674751 2.312573 -2.007073 0.000000 -0.000000 0.000000
  3 13.696569 5.952872 -1.702293 0.872601 3.141593 0.000000
  4 9.023235 4.335628 -0.571782 -0.000000 -1.570796 0.000000
  5 6.891871 5.750109 0.840362 -1.570796 -0.949622 1.560488
  6 27.644863 5.676430 0.000000 0.000000 -0.000000 0.000000
time 73
  0 -0.047043 2.030201 -1.239854 1.655533 0.007273 -0.053784
  1 1.338230 3.241354 0.064445 -0.000000 -0.000000 -0.010309
  2 1.674751 2.312573 -2.007073 0.000000 -0.000000 0.000000
  3 13.696569 5.952872 -1.702293 0.872601 3.141593 0.000000
  4 9.023234 4.335628 -0.571782 -0.000000 -1.570796 0.000000
  5 6.891871 5.750108 0.840362 -1.570796 -0.949622 1.560488
  6 27.644863 5.676429 0.000000 0.000000 -0.000000 0.000000
time 74
  0 -0.040503 2.038770 -1.264228 1.655193 0.006358 -0.053510
  1 1.338231 3.241354 0.064445 0.000000 0.000000 -0.010309
  2 1.674751 2.312573 -2.007073 0.000000 -0.000000 0.000000
  3 13.696568 5.952872 -1.702293 0.872601 3.141593 0.000000
  4 9.023234 4.335628 -0.571782 -0.000000 -1.570796 0.000000
  5 6.891872 5.750108 0.840362 -1.570796 -0.949622 1.560488
  6 27.644863 5.676429 0.000000 0.000000 -0.000000 0.000000
time 75
  0 -0.034635 2.045893 -1.287907 1.654207 0.005436 -0.052834
  1 1.338231 3.241354 0.064445 0.000000 0.000000 -0.010309
  2 1.674751 2.312572 -2.007073 -0.000000 -0.000000 0.000000
  3 13.696570 5.952871 -1.702293 0.872601 3.141593 0.000000
  4 9.023236 4.335628 -0.571782 -0.000000 -1.570796 0.000000
  5 6.891871 5.750109 0.840362 -1.570796 -0.949622 1.560487
  6 27.644863 5.676430 0.000000 0.000000 -0.000000 0.000000
time 76
  0 -0.029559 2.051616 -1.310640 1.652627 0.004511 -0.051790
  1 1.338230 3.241354 0.064446 -0.000000 -0.000000 -0.010309
  2 1.674751 2.312572 -2.007073 0.000000 -0.000000 0.000000
  3 13.696568 5.952871 -1.702293 0.872601 3.141593 0.000000
  4 9.023234 4.335628 -0.571781 0.000000 -1.570796 0.000000
  5 6.891872 5.750109 0.840363 -1.570796 -0.949622 1.560488
  6 27.644863 5.676430 0.000000 0.000000 -0.000000 0.000000
time 77
  0 -0.025400 2.055987 -1.332181 1.650505 0.003586 -0.050410
  1 1.338231 3.241354 0.064445 0.000000 0.000000 -0.010309
  2 1.674752 2.312572 -2.007073 0.000000 -0.000000 -0.000000
  3 13.696571 5.952872 -1.702292 0.872601 3.141593 0.000000
  4 9.023237 4.335628 -0.571782 0.000000 -1.570796 0.000000
  5 6.891871 5.750108 0.840362 -1.570796 -0.949622 1.560488
  6 27.644865 5.676430 0.000000 0.000000 -0.000000 0.000000
time 78
  0 -0.022277 2.059051 -1.352280 1.647892 0.002664 -0.048725
  1 1.338230 3.241354 0.064445 -0.000000 -0.000000 -0.010309
  2 1.674751 2.312573 -2.007073 0.000000 0.000000 0.000000
  3 13.696568 5.952871 -1.702293 0.872601 3.141593 0.000000
  4 9.023233 4.335628 -0.571782 0.000000 -1.570796 0.000000
  5 6.891871 5.750110 0.840362 -1.570796 -0.949622 1.560488
  6 27.644859 5.676431 0.000000 0.000000 -0.000000 0.000000
time 79
  0 -0.020314 2.060856 -1.370688 1.644839 0.001748 -0.046768
  1 1.338231 3.241353 0.064445 -0.000000 -0.000000 -0.010309
  2 1.674751 2.312573 -2.007073 0.000000 -0.000000 0.000000
  3 13.696568 5.952872 -1.702293 0.872601 3.141593 0.000000
  4 9.023235 4.335629 -0.571782 -0.000000 -1.570796 0.000000
  5 6.891871 5.750108 0.840363 -1.570796 -0.949622 1.560488
  6 27.644863 5.676430 0.000000 0.000000 -0.000000 0.000000
time 80
  0 -0.019633 2.061447 -1.387159 1.641400 0.000842 -0.044571
  1 1.338230 3.241354 0.064445 -0.000000 -0.000000 -0.010309
  2 1.674751 2.312573 -2.007073 0.000000 0.000000 0.000000
  3 13.696570 5.952872 -1.702293 0.872601 3.141593 0.000000
  4 9.023235 4.335629 -0.571781 -0.000000 -1.570796 0.000000
  5 6.891871 5.750109 0.840363 -1.570796 -0.949622 1.560488
  6 27.644861 5.676431 0.000000 0.000000 -0.000000 0.000000
time 81
  0 -0.026464 2.046853 -1.402768 1.637624 -0.000051 -0.042167
  1 1.338230 3.241354 0.064445 -0.000000 0.000000 -0.010309
  2 1.674751 2.312573 -2.007073 0.000000 0.000000 0.000000
  3 13.696572 5.952872 -1.702293 0.872601 3.141593 0.000000
  4 9.023236 4.335628 -0.571782 -0.000000 -1.570796 0.000000
  5 6.891871 5.750109 0.840363 -1.570796 -0.949622 1.560488
  6 27.644861 5.676430 0.000000 0.000000 -0.000000 0.000000
time 82
  0 -0.046016 2.005083 -1.418680 1.633564 -0.000929 -0.039588
  1 1.338231 3.241354 0.064445 -0.000000 0.000000 -0.010309
  2 1.674751 2.312573 -2.007073 -0.000000 -0.000000 0.000000
  3 13.696570 5.952872 -1.702293 0.872601 3.141593 0.000000
  4 9.023235 4.335628 -0.571782 -0.000000 -1.570796 0.000000
  5 6.891871 5.750109 0.840362 -1.570796 -0.949622 1.560488
  6 27.644863 5.676429 0.000000 0.000000 -0.000000 0.000000
time 83
  0 -0.076876 1.939158 -1.434776 1.629272 -0.001787 -0.036866
  1 1.338230 3.241354 0.064445 -0.000000 -0.000000 -0.010309
  2 1.674751 2.312572 -2.007073 0.000000 -0.000000 0.000000
  3 13.696569 5.952871 -1.702293 0.872601 3.141593 0.000000
  4 9.023235 4.335628 -0.571782 -0.000000 -1.570796 0.000000
  5 6.891870 5.750109 0.840362 -1.570796 -0.949622 1.560488
  6 27.644857 5.676430 0.000000 0.000000 -0.000000 0.000000
time 84
  0 -0.117629 1.852096 -1.450937 1.624799 -0.002622 -0.034033
  1 1.338231 3.241354 0.064445 -0.000000 -0.000000 -0.010309
  2 1.674752 2.312572 -2.007073 0.000000 0.000000 0.000000
  3 13.696569 5.952871 -1.702293 0.872601 3.141593 0.000000
  4 9.023233 4.335627 -0.571782 -0.000000 -1.570796 0.000000
  5 6.891870 5.750110 0.840362 -1.570796 -0.949622 1.560488
  6 27.644863 5.676429 0.000000 0.000000 -0.000000 0.000000
time 85
  0 -0.166863 1.746918 -1.467042 1.620197 -0.003432 -0.031122
  1 1.338231 3.241354 0.064445 0.000000 -0.000000 -0.010309
  2 1.674751 2.312573 -2.007073 0.000000 0.000000 -0.000000
  3 13.696569 5.952871 -1.702293 0.872601 3.141593 0.000000
  4 9.023236 4.335628 -0.571781 -0.000000 -1.570796 0.000000
  5 6.891871 5.750109 0.840362 -1.570796 -0.949622 1.560488
  6 27.644863 5.676430 0.000000 0.000000 -0.000000 0.000000
time 86
  0 -0.223164 1.626642 -1.482973 1.615517 -0.004213 -0.028165
  1 1.338230 3.241354 0.064445 0.000000 -0.000000 -0.010309
  2 1.674751 2.312573 -2.007073 0.000000 -0.000000 -0.000000
  3 13.696568 5.952871 -1.702293 0.872601 3.141593 0.000000
  4 9.023235 4.335628 -0.571782 -0.000000 -1.570796 0.000000
  5 6.891870 5.750109 0.840362 -1.570796 -0.949622 1.560487
  6 27.644861 5.676430 0.000000 0.000000 -0.000000 0.000000
time 87
  0 -0.285119 1.494288 -1.498611 1.610812 -0.004962 -0.025194
  1 1.338230 3.241354 0.064446 0.000000 0.000000 -0.010309
  2 1.674752 2.312572 -2.007073 0.000000 -0.000000 -0.000000
  3 13.696572 5.952872 -1.702293 0.872601 3.141593 0.000000
  4 9.023236 4.335627 -0.571782 -0.000000 -1.570796 0.000000
  5 6.891871 5.750109 0.840362 -1.570796 -0.949622 1.560488
  6 27.644861 5.676429 0.000000 0.000000 -0.000000 0.000000
time 88
  0 -0.351313 1.352876 -1.513836 1.606132 -0.005676 -0.022242
  1 1.338231 3.241354 0.064445 0.000000 -0.000000 -0.010309
  2 1.674751 2.312573 -2.007073 -0.000000 -0.000000 0.000000
  3 13.696569 5.952872 -1.702293 0.872601 3.141593 0.000000
  4 9.023235 4.335629 -0.571782 -0.000000 -1.570796 0.000000
  5 6.891871 5.750108 0.840363 -1.570796 -0.949622 1.560488
  6 27.644867 5.676430 0.000000 0.000000 -0.000000 0.000000
time 89
  0 -0.420335 1.205425 -1.528529 1.601530 -0.006351 -0.019340
  1 1.338230 3.241354 0.064445 0.000000 -0.000000 -0.010309
  2 1.674752 2.312572 -2.007073 0.000000 0.000000 0.000000
  3 13.696571 5.952871 -1.702292 0.872601 3.141593 0.000000
  4 9.023237 4.335627 -0.571782 -0.000000 -1.570796 0.000000
  5 6.891871 5.750109 0.840362 -1.570796 -0.949622 1.560488
  6 27.644859 5.676430 0.000000 0.000000 -0.000000 0.000000
time 90
  0 -0.490770 1.054954 -1.542570 1.597057 -0.006984 -0.016522
  1 1.338231 3.241354 0.064445 0.000000 -0.000000 -0.010309
  2 1.674751 2.312573 -2.007073 0.000000 0.000000 0.000000
  3 13.696568 5.952872 -1.702293 0.872601 3.141593 0.000000
  4 9.023234 4.335628 -0.571781 -0.000000 -1.570796 0.000000
  5 6.891871 5.750109 0.840362 -1.570796 -0.949622 1.560488
  6 27.644861 5.676431 -0.000000 0.000000 -0.000000 0.000000
time 91
  0 -0.561205 0.904484 -1.555840 1.592765 -0.007572 -0.013818
  1 1.338231 3.241354 0.064445 0.000000 0.000000 -0.010309
  2 1.674751 2.312572 -2.007073 0.000000 -0.000000 -0.000000
  3 13.696569 5.952871 -1.702292 0.872601 3.141593 0.000000
  4 9.023235 4.335627 -0.571782 -0.000000 -1.570796 0.000000
  5 6.891871 5.750109 0.840362 -1.570796 -0.949622 1.560488
  6 27.644865 5.676430 0.000000 0.000000 -0.000000 0.000000
time 92
  0 -0.630227 0.757033 -1.568220 1.588705 -0.008112 -0.011262
  1 1.338231 3.241354 0.064445 0.000000 0.000000 -0.010309
  2 1.674751 2.312572 -2.007073 -0.000000 0.000000 -0.000000
  3 13.696569 5.952871 -1.702293 0.872601 3.141593 0.000000
  4 9.023235 4.335628 -0.571781 -0.000000 -1.570796 0.000000
  5 6.891871 5.750110 0.840362 -1.570796 -0.949622 1.560488
  6 27.644863 5.676431 0.000000 0.000000 -0.000000 0.000000
time 93
  0 -0.696422 0.615620 -1.579590 1.584930 -0.008601 -0.008886
  1 1.338230 3.241354 0.064445 0.000000 0.000000 -0.010309
  2 1.674751 2.312572 -2.007073 0.000000 0.000000 0.000000
  3 13.696569 5.952871 -1.702293 0.872601 3.141593 0.000000
  4 9.023234 4.335628 -0.571782 0.000000 -1.570796 0.000000
  5 6.891871 5.750109 0.840362 -1.570796 -0.949622 1.560488
  6 27.644863 5.676430 0.000000 0.000000 -0.000000 0.000000
time 94
  0 -0.758376 0.483267 -1.589832 1.581490 -0.009035 -0.006722
  1 1.338231 3.241354 0.064445 -0.000000 0.000000 -0.010309
  2 1.674751 2.312572 -2.007074 0.000000 -0.000000 0.000000
  3 13.696569 5.952871 -1.702293 0.872601 3.141593 0.000000
  4 9.023236 4.335628 -0.571782 0.000000 -1.570796 0.000000
  5 6.891871 5.750109 0.840362 -1.570796 -0.949622 1.560488
  6 27.644863 5.676430 0.000000 0.000000 -0.000000 0.000000
time 95
  0 -0.814677 0.362991 -1.598825 1.578438 -0.009410 -0.004803
  1 1.338231 3.241354 0.064445 -0.000000 0.000000 -0.010309
  2 1.674751 2.312573 -2.007073 0.000000 0.000000 0.000000
  3 13.696569 5.952871 -1.702293 0.872600 3.141593 0.000000
  4 9.023234 4.335628 -0.571782 -0.000000 -1.570796 0.000000
  5 6.891872 5.750109 0.840362 -1.570796 -0.949622 1.560488
  6 27.644863 5.676431 0.000000 0.000000 -0.000000 0.000000
time 96
  0 -0.863911 0.257812 -1.606451 1.575825 -0.009725 -0.003160
  1 1.338231 3.241354 0.064445 -0.000000 -0.000000 -0.010309
  2 1.674751 2.312573 -2.007074 0.000000 -0.000000 -0.000000
  3 13.696571 5.952872 -1.702293 0.872601 3.141593 0.000000
  4 9.023235 4.335628 -0.571782 0.000000 -1.570796 0.000000
  5 6.891872 5.750110 0.840362 -1.570796 -0.949622 1.560488
  6 27.644863 5.676430 0.000000 0.000000 -0.000000 0.000000
time 97
  0 -0.904664 0.170751 -1.612590 1.573702 -0.009976 -0.001826
  1 1.338230 3.241354 0.064445 0.000000 -0.000000 -0.010309
  2 1.674751 2.312573 -2.007073 -0.000000 -0.000000 0.000000
  3 13.696568 5.952872 -1.702293 0.872601 3.141593 0.000000
  4 9.023234 4.335628 -0.571782 0.000000 -1.570796 0.000000
  5 6.891871 5.750110 0.840362 -1.570796 -0.949622 1.560488
  6 27.644859 5.676431 0.000000 0.000000 -0.000000 0.000000
time 98
  0 -0.935524 0.104825 -1.617122 1.572122 -0.010159 -0.000833
  1 1.338231 3.241354 0.064445 0.000000 0.000000 -0.010309
  2 1.674752 2.312572 -2.007073 0.000000 -0.000000 -0.000000
  3 13.696570 5.952872 -1.702293 0.872601 3.141593 0.000000
  4 9.023235 4.335628 -0.571782 -0.000000 -1.570796 0.000000
  5 6.891871 5.750109 0.840362 -1.570796 -0.949622 1.560488
  6 27.644865 5.676430 -0.000000 0.000000 -0.000000 0.000000
time 99
  0 -0.955076 0.063056 -1.619929 1.571136 -0.010271 -0.000214
  1 1.338231 3.241354 0.064445 0.000000 -0.000000 -0.010309
  2 1.674751 2.312573 -2.007073 0.000000 -0.000000 0.000000
  3 13.696571 5.952871 -1.702293 0.872601 3.141593 0.000000
  4 9.023236 4.335628 -0.571782 0.000000 -1.570796 0.000000
  5 6.891872 5.750109 0.840362 -1.570796 -0.949622 1.560488
  6 27.644861 5.676429 0.000000 0.000000 -0.000000 0.000000
time 100
  0 -0.961907 0.048462 -1.620892 1.570796 -0.010309 0.000000
  1 1.338231 3.241354 0.064445 0.000000 0.000000 -0.010309
  2 1.674751 2.312573 -2.007073 0.000000 0.000000 0.000000
  3 13.696570 5.952872 -1.702293 0.872601 3.141593 0.000000
  4 9.023235 4.335629 -0.571782 -0.000000 -1.570796 0.000000
  5 6.891871 5.750110 0.840362 -1.570796 -0.949622 1.560488
  6 27.644863 5.676431 0.000000 0.000000 -0.000000 0.000000
end
