MD5Version 10
commandline ""

numFrames 40
numJoints 4
frameRate 24
numAnimatedComponents 6

hierarchy {
	"origin"	-1 0 0	//
	"weapon"	0 63 0	// origin
	"shot"	1 0 0	// weapon
	"shell"	1 0 0	// weapon
}

bounds {
	( 0.000000 0.000000 0.000000 ) ( 0.000000 0.000000 0.000000 )
	( 0.000000 0.000000 0.000000 ) ( 0.000000 0.000000 0.000000 )
	( 0.000000 0.000000 0.000000 ) ( 0.000000 0.000000 0.000000 )
	( 0.000000 0.000000 0.000000 ) ( 0.000000 0.000000 0.000000 )
	( 0.000000 0.000000 0.000000 ) ( 0.000000 0.000000 0.000000 )
	( 0.000000 0.000000 0.000000 ) ( 0.000000 0.000000 0.000000 )
	( 0.000000 0.000000 0.000000 ) ( 0.000000 0.000000 0.000000 )
	( 0.000000 0.000000 0.000000 ) ( 0.000000 0.000000 0.000000 )
	( 0.000000 0.000000 0.000000 ) ( 0.000000 0.000000 0.000000 )
	( 0.000000 0.000000 0.000000 ) ( 0.000000 0.000000 0.000000 )
	( 0.000000 0.000000 0.000000 ) ( 0.000000 0.000000 0.000000 )
	( 0.000000 0.000000 0.000000 ) ( 0.000000 0.000000 0.000000 )
	( 0.000000 0.000000 0.000000 ) ( 0.000000 0.000000 0.000000 )
	( 0.000000 0.000000 0.000000 ) ( 0.000000 0.000000 0.000000 )
	( 0.000000 0.000000 0.000000 ) ( 0.000000 0.000000 0.000000 )
	( 0.000000 0.000000 0.000000 ) ( 0.000000 0.000000 0.000000 )
	( 0.000000 0.000000 0.000000 ) ( 0.000000 0.000000 0.000000 )
	( 0.000000 0.000000 0.000000 ) ( 0.000000 0.000000 0.000000 )
	( 0.000000 0.000000 0.000000 ) ( 0.000000 0.000000 0.000000 )
	( 0.000000 0.000000 0.000000 ) ( 0.000000 0.000000 0.000000 )
	( 0.000000 0.000000 0.000000 ) ( 0.000000 0.000000 0.000000 )
	( 0.000000 0.000000 0.000000 ) ( 0.000000 0.000000 0.000000 )
	( 0.000000 0.000000 0.000000 ) ( 0.000000 0.000000 0.000000 )
	( 0.000000 0.000000 0.000000 ) ( 0.000000 0.000000 0.000000 )
	( 0.000000 0.000000 0.000000 ) ( 0.000000 0.000000 0.000000 )
	( 0.000000 0.000000 0.000000 ) ( 0.000000 0.000000 0.000000 )
	( 0.000000 0.000000 0.000000 ) ( 0.000000 0.000000 0.000000 )
	( 0.000000 0.000000 0.000000 ) ( 0.000000 0.000000 0.000000 )
	( 0.000000 0.000000 0.000000 ) ( 0.000000 0.000000 0.000000 )
	( 0.000000 0.000000 0.000000 ) ( 0.000000 0.000000 0.000000 )
	( 0.000000 0.000000 0.000000 ) ( 0.000000 0.000000 0.000000 )
	( 0.000000 0.000000 0.000000 ) ( 0.000000 0.000000 0.000000 )
	( 0.000000 0.000000 0.000000 ) ( 0.000000 0.000000 0.000000 )
	( 0.000000 0.000000 0.000000 ) ( 0.000000 0.000000 0.000000 )
	( 0.000000 0.000000 0.000000 ) ( 0.000000 0.000000 0.000000 )
	( 0.000000 0.000000 0.000000 ) ( 0.000000 0.000000 0.000000 )
	( 0.000000 0.000000 0.000000 ) ( 0.000000 0.000000 0.000000 )
	( 0.000000 0.000000 0.000000 ) ( 0.000000 0.000000 0.000000 )
	( 0.000000 0.000000 0.000000 ) ( 0.000000 0.000000 0.000000 )
	( 0.000000 0.000000 0.000000 ) ( 0.000000 0.000000 0.000000 )
}

baseframe {
	( 0.000000 0.000000 0.000000 ) ( -0.000000 -0.000000 -0.000000 )
	( 10.291484 -9.986809 -17.929485 ) ( -0.000000 0.000000 0.000332 )
	( 61.053509 1.333576 5.261511 ) ( 0.000000 0.000000 -0.000333 )
	( 12.133600 -0.945925 5.942903 ) ( 0.000000 -0.000000 -0.000332 )
}

frame 0 {
	10.291484 -9.986809 -17.929485 -0.000000 0.000000 0.000332
}

frame 1 {
	10.291484 -9.986809 -17.929485 0.001748 -0.003671 -0.005888
}

frame 2 {
	10.291484 -9.986809 -17.929485 0.007133 -0.014979 -0.024795
}

frame 3 {
	10.291484 -9.986809 -17.929485 0.016281 -0.034185 -0.056350
}

frame 4 {
	10.291484 -9.986809 -17.929485 0.029077 -0.061047 -0.099506
}

frame 5 {
	10.291484 -9.986809 -17.929485 0.044986 -0.094440 -0.151624
}

frame 6 {
	10.291484 -9.986809 -17.929485 0.062965 -0.132174 -0.208293
}

frame 7 {
	10.291484 -9.986809 -17.929485 0.081603 -0.171291 -0.264008
}

frame 8 {
	10.291484 -9.986809 -17.929485 0.099492 -0.208833 -0.313567
}

frame 9 {
	10.291484 -9.986809 -17.929485 0.115584 -0.242606 -0.353324
}

frame 10 {
	10.291484 -9.986809 -17.929485 0.129341 -0.271479 -0.381564
}

frame 11 {
	10.291484 -9.986809 -17.929485 0.140640 -0.295196 -0.398041
}

frame 12 {
	10.291484 -9.986809 -17.929485 0.149590 -0.313982 -0.403258
}

frame 13 {
	10.273662 -10.008780 -17.962381 0.156462 -0.328404 -0.402391
}

frame 14 {
	10.227049 -10.066237 -18.048388 0.160839 -0.337591 -0.400498
}

frame 15 {
	10.180441 -10.123687 -18.134369 0.162633 -0.341358 -0.398710
}

frame 16 {
	10.162622 -10.145650 -18.167240 0.162955 -0.342034 -0.398045
}

frame 17 {
	10.168154 -10.138820 -18.134369 0.161118 -0.338177 -0.398793
}

frame 18 {
	10.190319 -10.111488 -18.048395 0.156294 -0.328053 -0.400707
}

frame 19 {
	10.233313 -10.058505 -17.962387 0.151448 -0.317882 -0.402564
}

frame 20 {
	10.291484 -9.986809 -17.929485 0.149590 -0.313982 -0.403258
}

frame 21 {
	10.383558 -9.873268 -18.000050 0.149590 -0.313982 -0.403258
}

frame 22 {
	10.515046 -9.711184 -18.184511 0.149590 -0.313982 -0.403258
}

frame 23 {
	10.625587 -9.574971 -18.368906 0.149590 -0.313982 -0.403258
}

frame 24 {
	10.664914 -9.526498 -18.439411 0.149590 -0.313982 -0.403258
}

frame 25 {
	10.624492 -9.576321 -18.384220 0.149590 -0.313982 -0.403258
}

frame 26 {
	10.517130 -9.708642 -18.237652 0.149590 -0.313982 -0.403258
}

frame 27 {
	10.405320 -9.846469 -18.084967 0.149590 -0.313982 -0.403258
}

frame 28 {
	10.353716 -9.910098 -18.014465 0.149590 -0.313982 -0.403258
}

frame 29 {
	10.340985 -9.925797 -17.997068 0.147635 -0.309877 -0.397981
}

frame 30 {
	10.329509 -9.939946 -17.981392 0.141617 -0.297246 -0.381743
}

frame 31 {
	10.319476 -9.952314 -17.967691 0.131332 -0.275660 -0.353995
}

frame 32 {
	10.311046 -9.962705 -17.956181 0.116793 -0.245147 -0.314773
}

frame 33 {
	10.304311 -9.971004 -17.946989 0.098534 -0.206828 -0.265522
}

frame 34 {
	10.299256 -9.977232 -17.940092 0.077848 -0.163414 -0.209723
}

frame 35 {
	10.295743 -9.981561 -17.935297 0.056693 -0.119014 -0.152655
}

frame 36 {
	10.293520 -9.984300 -17.932264 0.037199 -0.078097 -0.100063
}

frame 37 {
	10.292277 -9.985831 -17.930569 0.021077 -0.044254 -0.056560
}

frame 38 {
	10.291699 -9.986543 -17.929779 0.009325 -0.019580 -0.024841
}

frame 39 {
	10.291509 -9.986778 -17.929520 0.002305 -0.004840 -0.005891
}

