<?xml version="1.0" encoding="UTF-8" standalone="no"?>
<!-- Created with Inkscape (http://www.inkscape.org/) -->

<svg
   xmlns:dc="http://purl.org/dc/elements/1.1/"
   xmlns:cc="http://creativecommons.org/ns#"
   xmlns:rdf="http://www.w3.org/1999/02/22-rdf-syntax-ns#"
   xmlns:svg="http://www.w3.org/2000/svg"
   xmlns="http://www.w3.org/2000/svg"
   xmlns:sodipodi="http://sodipodi.sourceforge.net/DTD/sodipodi-0.dtd"
   xmlns:inkscape="http://www.inkscape.org/namespaces/inkscape"
   width="64"
   height="64"
   id="svg2"
   version="1.1"
   inkscape:version="0.48.0 r9654"
   sodipodi:docname="Crosshairs4.svg"
   inkscape:export-filename="/home/rasse/crosshairs.png"
   inkscape:export-xdpi="577.09924"
   inkscape:export-ydpi="577.09924">
  <title
     id="title3069">Xonotic Crosshairs 4</title>
  <defs
     id="defs4">
    <inkscape:perspective
       sodipodi:type="inkscape:persp3d"
       inkscape:vp_x="0 : 526.18109 : 1"
       inkscape:vp_y="0 : 1000 : 0"
       inkscape:vp_z="744.09448 : 526.18109 : 1"
       inkscape:persp3d-origin="372.04724 : 350.78739 : 1"
       id="perspective10" />
    <inkscape:perspective
       id="perspective2824"
       inkscape:persp3d-origin="0.5 : 0.33333333 : 1"
       inkscape:vp_z="1 : 0.5 : 1"
       inkscape:vp_y="0 : 1000 : 0"
       inkscape:vp_x="0 : 0.5 : 1"
       sodipodi:type="inkscape:persp3d" />
    <inkscape:perspective
       id="perspective2838"
       inkscape:persp3d-origin="0.5 : 0.33333333 : 1"
       inkscape:vp_z="1 : 0.5 : 1"
       inkscape:vp_y="0 : 1000 : 0"
       inkscape:vp_x="0 : 0.5 : 1"
       sodipodi:type="inkscape:persp3d" />
    <inkscape:perspective
       id="perspective2852"
       inkscape:persp3d-origin="0.5 : 0.33333333 : 1"
       inkscape:vp_z="1 : 0.5 : 1"
       inkscape:vp_y="0 : 1000 : 0"
       inkscape:vp_x="0 : 0.5 : 1"
       sodipodi:type="inkscape:persp3d" />
    <inkscape:perspective
       id="perspective2866"
       inkscape:persp3d-origin="0.5 : 0.33333333 : 1"
       inkscape:vp_z="1 : 0.5 : 1"
       inkscape:vp_y="0 : 1000 : 0"
       inkscape:vp_x="0 : 0.5 : 1"
       sodipodi:type="inkscape:persp3d" />
    <inkscape:perspective
       id="perspective2880"
       inkscape:persp3d-origin="0.5 : 0.33333333 : 1"
       inkscape:vp_z="1 : 0.5 : 1"
       inkscape:vp_y="0 : 1000 : 0"
       inkscape:vp_x="0 : 0.5 : 1"
       sodipodi:type="inkscape:persp3d" />
    <inkscape:perspective
       id="perspective2894"
       inkscape:persp3d-origin="0.5 : 0.33333333 : 1"
       inkscape:vp_z="1 : 0.5 : 1"
       inkscape:vp_y="0 : 1000 : 0"
       inkscape:vp_x="0 : 0.5 : 1"
       sodipodi:type="inkscape:persp3d" />
    <inkscape:perspective
       id="perspective2908"
       inkscape:persp3d-origin="0.5 : 0.33333333 : 1"
       inkscape:vp_z="1 : 0.5 : 1"
       inkscape:vp_y="0 : 1000 : 0"
       inkscape:vp_x="0 : 0.5 : 1"
       sodipodi:type="inkscape:persp3d" />
    <inkscape:perspective
       id="perspective2922"
       inkscape:persp3d-origin="0.5 : 0.33333333 : 1"
       inkscape:vp_z="1 : 0.5 : 1"
       inkscape:vp_y="0 : 1000 : 0"
       inkscape:vp_x="0 : 0.5 : 1"
       sodipodi:type="inkscape:persp3d" />
    <inkscape:perspective
       id="perspective2936"
       inkscape:persp3d-origin="0.5 : 0.33333333 : 1"
       inkscape:vp_z="1 : 0.5 : 1"
       inkscape:vp_y="0 : 1000 : 0"
       inkscape:vp_x="0 : 0.5 : 1"
       sodipodi:type="inkscape:persp3d" />
    <inkscape:perspective
       id="perspective2950"
       inkscape:persp3d-origin="0.5 : 0.33333333 : 1"
       inkscape:vp_z="1 : 0.5 : 1"
       inkscape:vp_y="0 : 1000 : 0"
       inkscape:vp_x="0 : 0.5 : 1"
       sodipodi:type="inkscape:persp3d" />
    <inkscape:perspective
       id="perspective2964"
       inkscape:persp3d-origin="0.5 : 0.33333333 : 1"
       inkscape:vp_z="1 : 0.5 : 1"
       inkscape:vp_y="0 : 1000 : 0"
       inkscape:vp_x="0 : 0.5 : 1"
       sodipodi:type="inkscape:persp3d" />
    <inkscape:perspective
       id="perspective2978"
       inkscape:persp3d-origin="0.5 : 0.33333333 : 1"
       inkscape:vp_z="1 : 0.5 : 1"
       inkscape:vp_y="0 : 1000 : 0"
       inkscape:vp_x="0 : 0.5 : 1"
       sodipodi:type="inkscape:persp3d" />
    <inkscape:perspective
       id="perspective2992"
       inkscape:persp3d-origin="0.5 : 0.33333333 : 1"
       inkscape:vp_z="1 : 0.5 : 1"
       inkscape:vp_y="0 : 1000 : 0"
       inkscape:vp_x="0 : 0.5 : 1"
       sodipodi:type="inkscape:persp3d" />
    <inkscape:perspective
       id="perspective3006"
       inkscape:persp3d-origin="0.5 : 0.33333333 : 1"
       inkscape:vp_z="1 : 0.5 : 1"
       inkscape:vp_y="0 : 1000 : 0"
       inkscape:vp_x="0 : 0.5 : 1"
       sodipodi:type="inkscape:persp3d" />
    <inkscape:perspective
       id="perspective3020"
       inkscape:persp3d-origin="0.5 : 0.33333333 : 1"
       inkscape:vp_z="1 : 0.5 : 1"
       inkscape:vp_y="0 : 1000 : 0"
       inkscape:vp_x="0 : 0.5 : 1"
       sodipodi:type="inkscape:persp3d" />
    <inkscape:perspective
       id="perspective3034"
       inkscape:persp3d-origin="0.5 : 0.33333333 : 1"
       inkscape:vp_z="1 : 0.5 : 1"
       inkscape:vp_y="0 : 1000 : 0"
       inkscape:vp_x="0 : 0.5 : 1"
       sodipodi:type="inkscape:persp3d" />
    <inkscape:perspective
       id="perspective3048"
       inkscape:persp3d-origin="0.5 : 0.33333333 : 1"
       inkscape:vp_z="1 : 0.5 : 1"
       inkscape:vp_y="0 : 1000 : 0"
       inkscape:vp_x="0 : 0.5 : 1"
       sodipodi:type="inkscape:persp3d" />
    <inkscape:perspective
       id="perspective3062"
       inkscape:persp3d-origin="0.5 : 0.33333333 : 1"
       inkscape:vp_z="1 : 0.5 : 1"
       inkscape:vp_y="0 : 1000 : 0"
       inkscape:vp_x="0 : 0.5 : 1"
       sodipodi:type="inkscape:persp3d" />
    <inkscape:perspective
       id="perspective3076"
       inkscape:persp3d-origin="0.5 : 0.33333333 : 1"
       inkscape:vp_z="1 : 0.5 : 1"
       inkscape:vp_y="0 : 1000 : 0"
       inkscape:vp_x="0 : 0.5 : 1"
       sodipodi:type="inkscape:persp3d" />
    <inkscape:perspective
       id="perspective3090"
       inkscape:persp3d-origin="0.5 : 0.33333333 : 1"
       inkscape:vp_z="1 : 0.5 : 1"
       inkscape:vp_y="0 : 1000 : 0"
       inkscape:vp_x="0 : 0.5 : 1"
       sodipodi:type="inkscape:persp3d" />
    <inkscape:perspective
       id="perspective3104"
       inkscape:persp3d-origin="0.5 : 0.33333333 : 1"
       inkscape:vp_z="1 : 0.5 : 1"
       inkscape:vp_y="0 : 1000 : 0"
       inkscape:vp_x="0 : 0.5 : 1"
       sodipodi:type="inkscape:persp3d" />
    <inkscape:perspective
       id="perspective3118"
       inkscape:persp3d-origin="0.5 : 0.33333333 : 1"
       inkscape:vp_z="1 : 0.5 : 1"
       inkscape:vp_y="0 : 1000 : 0"
       inkscape:vp_x="0 : 0.5 : 1"
       sodipodi:type="inkscape:persp3d" />
    <inkscape:perspective
       id="perspective3132"
       inkscape:persp3d-origin="0.5 : 0.33333333 : 1"
       inkscape:vp_z="1 : 0.5 : 1"
       inkscape:vp_y="0 : 1000 : 0"
       inkscape:vp_x="0 : 0.5 : 1"
       sodipodi:type="inkscape:persp3d" />
    <inkscape:perspective
       id="perspective3146"
       inkscape:persp3d-origin="0.5 : 0.33333333 : 1"
       inkscape:vp_z="1 : 0.5 : 1"
       inkscape:vp_y="0 : 1000 : 0"
       inkscape:vp_x="0 : 0.5 : 1"
       sodipodi:type="inkscape:persp3d" />
    <inkscape:perspective
       id="perspective3160"
       inkscape:persp3d-origin="0.5 : 0.33333333 : 1"
       inkscape:vp_z="1 : 0.5 : 1"
       inkscape:vp_y="0 : 1000 : 0"
       inkscape:vp_x="0 : 0.5 : 1"
       sodipodi:type="inkscape:persp3d" />
    <inkscape:perspective
       id="perspective3174"
       inkscape:persp3d-origin="0.5 : 0.33333333 : 1"
       inkscape:vp_z="1 : 0.5 : 1"
       inkscape:vp_y="0 : 1000 : 0"
       inkscape:vp_x="0 : 0.5 : 1"
       sodipodi:type="inkscape:persp3d" />
    <inkscape:perspective
       id="perspective3188"
       inkscape:persp3d-origin="0.5 : 0.33333333 : 1"
       inkscape:vp_z="1 : 0.5 : 1"
       inkscape:vp_y="0 : 1000 : 0"
       inkscape:vp_x="0 : 0.5 : 1"
       sodipodi:type="inkscape:persp3d" />
    <inkscape:perspective
       id="perspective3202"
       inkscape:persp3d-origin="0.5 : 0.33333333 : 1"
       inkscape:vp_z="1 : 0.5 : 1"
       inkscape:vp_y="0 : 1000 : 0"
       inkscape:vp_x="0 : 0.5 : 1"
       sodipodi:type="inkscape:persp3d" />
    <inkscape:perspective
       id="perspective3216"
       inkscape:persp3d-origin="0.5 : 0.33333333 : 1"
       inkscape:vp_z="1 : 0.5 : 1"
       inkscape:vp_y="0 : 1000 : 0"
       inkscape:vp_x="0 : 0.5 : 1"
       sodipodi:type="inkscape:persp3d" />
    <inkscape:perspective
       id="perspective3230"
       inkscape:persp3d-origin="0.5 : 0.33333333 : 1"
       inkscape:vp_z="1 : 0.5 : 1"
       inkscape:vp_y="0 : 1000 : 0"
       inkscape:vp_x="0 : 0.5 : 1"
       sodipodi:type="inkscape:persp3d" />
    <inkscape:perspective
       id="perspective3244"
       inkscape:persp3d-origin="0.5 : 0.33333333 : 1"
       inkscape:vp_z="1 : 0.5 : 1"
       inkscape:vp_y="0 : 1000 : 0"
       inkscape:vp_x="0 : 0.5 : 1"
       sodipodi:type="inkscape:persp3d" />
    <inkscape:perspective
       id="perspective3258"
       inkscape:persp3d-origin="0.5 : 0.33333333 : 1"
       inkscape:vp_z="1 : 0.5 : 1"
       inkscape:vp_y="0 : 1000 : 0"
       inkscape:vp_x="0 : 0.5 : 1"
       sodipodi:type="inkscape:persp3d" />
  </defs>
  <sodipodi:namedview
     id="base"
     pagecolor="#ffffff"
     bordercolor="#666666"
     borderopacity="1.0"
     inkscape:pageopacity="0"
     inkscape:pageshadow="2"
     inkscape:zoom="8"
     inkscape:cx="12.493574"
     inkscape:cy="16.398021"
     inkscape:document-units="px"
     inkscape:current-layer="g3966"
     showgrid="true"
     inkscape:window-width="1680"
     inkscape:window-height="995"
     inkscape:window-x="-2"
     inkscape:window-y="-3"
     inkscape:window-maximized="1"
     inkscape:snap-grids="false"
     inkscape:snap-to-guides="true"
     inkscape:showpageshadow="false"
     showborder="false">
    <inkscape:grid
       type="xygrid"
       id="grid3277"
       empspacing="16"
       visible="false"
       enabled="true"
       snapvisiblegridlinesonly="true"
       spacingx="1px"
       spacingy="1px" />
  </sodipodi:namedview>
  <metadata
     id="metadata7">
    <rdf:RDF>
      <cc:Work
         rdf:about="">
        <dc:format>image/svg+xml</dc:format>
        <dc:type
           rdf:resource="http://purl.org/dc/dcmitype/StillImage" />
        <dc:title>Xonotic Crosshairs 4</dc:title>
        <dc:creator>
          <cc:Agent>
            <dc:title>unfa</dc:title>
          </cc:Agent>
        </dc:creator>
        <dc:rights>
          <cc:Agent>
            <dc:title>GPL</dc:title>
          </cc:Agent>
        </dc:rights>
        <dc:contributor>
          <cc:Agent>
            <dc:title>unfa</dc:title>
          </cc:Agent>
        </dc:contributor>
        <dc:description>A set of crosshairs for Xonotic www.xonotic.org</dc:description>
        <cc:license
           rdf:resource="http://creativecommons.org/licenses/by/3.0/" />
      </cc:Work>
      <cc:License
         rdf:about="http://creativecommons.org/licenses/by/3.0/">
        <cc:permits
           rdf:resource="http://creativecommons.org/ns#Reproduction" />
        <cc:permits
           rdf:resource="http://creativecommons.org/ns#Distribution" />
        <cc:requires
           rdf:resource="http://creativecommons.org/ns#Notice" />
        <cc:requires
           rdf:resource="http://creativecommons.org/ns#Attribution" />
        <cc:permits
           rdf:resource="http://creativecommons.org/ns#DerivativeWorks" />
      </cc:License>
    </rdf:RDF>
  </metadata>
  <g
     inkscape:groupmode="layer"
     id="layer3"
     inkscape:label="BG"
     style="display:inline">
    <rect
       style="fill:#4d4d4d;fill-opacity:1;stroke:none;display:inline"
       id="rect4118"
       width="147.375"
       height="53"
       x="-59"
       y="24.5"
       rx="0.80975276"
       ry="0.36805555"
       inkscape:export-filename="/home/unfa/Projekty/Xonotic/Crosshairs/Crosshairs4.png"
       inkscape:export-xdpi="494.50549"
       inkscape:export-ydpi="494.50549" />
  </g>
  <g
     inkscape:groupmode="layer"
     id="layer12"
     inkscape:label="hidden crosshairs"
     style="display:none">
    <g
       style="display:inline"
       id="g4142"
       inkscape:export-xdpi="713.31262"
       inkscape:export-ydpi="713.31262"
       inkscape:export-filename="/home/unfa/Projekty/Xonotic/Crosshairs/2.png">
      <path
         id="path4103"
         d="m 29.25,16.25 c -6.620887,1.152506 -11.843361,6.381993 -13,13 L 17,30 18.15625,30 C 19.031457,23.869739 23.869367,19.035948 30,18.15625 L 30,17 29.25,16.25 z m 5.5,0 L 34,17 34,18.15625 C 40.126424,19.035344 44.964656,23.873576 45.84375,30 L 47,30 47.75,29.25 c -1.152752,-6.622299 -6.377701,-11.847248 -13,-13 z M 17,34 16.25,34.75 c 1.152752,6.622299 6.377701,11.847248 13,13 L 30,47 30,45.84375 C 23.873576,44.964656 19.035344,40.126424 18.15625,34 L 17,34 z m 28.84375,0 C 44.964052,40.130633 40.130261,44.968543 34,45.84375 L 34,47 l 0.75,0.75 c 6.618007,-1.156639 11.847494,-6.379113 13,-13 L 47,34 45.84375,34 z"
         style="fill:#ffffff;fill-opacity:1;stroke:#000000;stroke-width:0.80000001;stroke-linejoin:bevel;stroke-miterlimit:4;stroke-opacity:1;stroke-dasharray:none"
         inkscape:connector-curvature="0" />
      <path
         id="path4132"
         d="m 23,20 c -1.656854,0 -3,1.343146 -3,3 0,0.473471 0.117156,0.914288 0.3125,1.3125 1.047856,-1.590533 2.408392,-2.952949 4,-4 C 23.914288,20.117156 23.473471,20 23,20 z m 18,0 c -0.473471,0 -0.914288,0.117156 -1.3125,0.3125 1.593291,1.048836 2.951164,2.406709 4,4 C 43.882844,23.914288 44,23.473471 44,23 44,21.343146 42.656854,20 41,20 z M 20.3125,39.6875 C 20.117156,40.085712 20,40.526529 20,41 c 0,1.656854 1.343146,3 3,3 0.473471,0 0.914288,-0.117156 1.3125,-0.3125 -1.593291,-1.048836 -2.951164,-2.406709 -4,-4 z m 23.375,0 c -1.047051,1.591608 -2.409467,2.952144 -4,4 C 40.085712,43.882844 40.526529,44 41,44 c 1.656854,0 3,-1.343146 3,-3 0,-0.473471 -0.117156,-0.914288 -0.3125,-1.3125 z"
         style="fill:#000000;fill-opacity:1;stroke:none"
         inkscape:connector-curvature="0" />
    </g>
    <g
       style="display:inline"
       id="g4303"
       inkscape:export-xdpi="480"
       inkscape:export-ydpi="480"
       inkscape:export-filename="/home/unfa/Projekty/Xonotic/Crosshairs/01.png">
      <g
         id="g4266">
        <g
           id="g4157"
           inkscape:transform-center-x="-14"
           transform="matrix(-1,0,0,-1,64,64)">
          <rect
             ry="1"
             rx="1"
             y="31"
             x="9"
             height="2"
             width="18"
             id="rect4159"
             style="fill:#000000;fill-opacity:1;stroke:#000000;stroke-width:1.5;stroke-miterlimit:4;stroke-opacity:1;stroke-dasharray:none" />
          <path
             style="fill:#ffffff;fill-opacity:1;stroke:none"
             d="m 38,31 c -0.554,0 -1,0.446 -1,1 0,0.554 0.446,1 1,1 l 16,0 c -0.552285,0 -1,-0.447715 -1,-1 0,-0.552285 0.447715,-1 1,-1 l -16,0 z"
             transform="matrix(-1,0,0,-1,64,64)"
             id="rect4161"
             inkscape:connector-curvature="0" />
        </g>
        <g
           id="g4178"
           transform="translate(0,-5)">
          <path
             d="m 33,32 a 1,1 0 1 1 -2,0 1,1 0 1 1 2,0 z"
             sodipodi:ry="1"
             sodipodi:rx="1"
             sodipodi:cy="32"
             sodipodi:cx="32"
             id="path4163"
             style="fill:#000000;fill-opacity:1;stroke:#000000;stroke-width:1.5;stroke-linejoin:bevel;stroke-miterlimit:4;stroke-opacity:1;stroke-dasharray:none"
             sodipodi:type="arc" />
          <path
             sodipodi:type="arc"
             style="fill:#ffffff;fill-opacity:1;stroke:none"
             id="path4165"
             sodipodi:cx="32"
             sodipodi:cy="32"
             sodipodi:rx="1"
             sodipodi:ry="1"
             d="m 33,32 a 1,1 0 1 1 -2,0 1,1 0 1 1 2,0 z" />
        </g>
        <g
           inkscape:transform-center-x="14"
           id="g4172">
          <rect
             style="fill:#000000;fill-opacity:1;stroke:#000000;stroke-width:1.5;stroke-miterlimit:4;stroke-opacity:1;stroke-dasharray:none"
             id="rect4174"
             width="18"
             height="2"
             x="9"
             y="31"
             rx="1"
             ry="1" />
          <path
             id="path4176"
             transform="matrix(-1,0,0,-1,64,64)"
             d="m 38,31 c -0.554,0 -1,0.446 -1,1 0,0.554 0.446,1 1,1 l 16,0 c -0.552285,0 -1,-0.447715 -1,-1 0,-0.552285 0.447715,-1 1,-1 l -16,0 z"
             style="fill:#ffffff;fill-opacity:1;stroke:none"
             inkscape:connector-curvature="0" />
        </g>
        <g
           transform="translate(0,5)"
           id="g4396">
          <path
             sodipodi:type="arc"
             style="fill:#000000;fill-opacity:1;stroke:#000000;stroke-width:1.5;stroke-linejoin:bevel;stroke-miterlimit:4;stroke-opacity:1;stroke-dasharray:none"
             id="path4398"
             sodipodi:cx="32"
             sodipodi:cy="32"
             sodipodi:rx="1"
             sodipodi:ry="1"
             d="m 33,32 a 1,1 0 1 1 -2,0 1,1 0 1 1 2,0 z" />
          <path
             d="m 33,32 a 1,1 0 1 1 -2,0 1,1 0 1 1 2,0 z"
             sodipodi:ry="1"
             sodipodi:rx="1"
             sodipodi:cy="32"
             sodipodi:cx="32"
             id="path4400"
             style="fill:#ffffff;fill-opacity:1;stroke:none"
             sodipodi:type="arc" />
        </g>
        <g
           id="g4402"
           transform="translate(0,15)">
          <path
             d="m 33,32 a 1,1 0 1 1 -2,0 1,1 0 1 1 2,0 z"
             sodipodi:ry="1"
             sodipodi:rx="1"
             sodipodi:cy="32"
             sodipodi:cx="32"
             id="path4404"
             style="fill:#000000;fill-opacity:1;stroke:#000000;stroke-width:1.5;stroke-linejoin:bevel;stroke-miterlimit:4;stroke-opacity:1;stroke-dasharray:none"
             sodipodi:type="arc" />
          <path
             sodipodi:type="arc"
             style="fill:#ffffff;fill-opacity:1;stroke:none"
             id="path4406"
             sodipodi:cx="32"
             sodipodi:cy="32"
             sodipodi:rx="1"
             sodipodi:ry="1"
             d="m 33,32 a 1,1 0 1 1 -2,0 1,1 0 1 1 2,0 z" />
        </g>
      </g>
      <path
         d="M 56,32 A 24,24 0 1 1 8,32 24,24 0 1 1 56,32 z"
         sodipodi:ry="24"
         sodipodi:rx="24"
         sodipodi:cy="32"
         sodipodi:cx="32"
         id="path4301"
         style="fill:none;stroke:none"
         sodipodi:type="arc" />
    </g>
    <g
       inkscape:export-filename="/home/unfa/Projekty/Xonotic/Crosshairs/3.png"
       inkscape:export-ydpi="172.00447"
       inkscape:export-xdpi="172.00447"
       id="g3686"
       style="display:inline">
      <path
         style="fill:none;stroke:#000000;stroke-width:1.79999995;stroke-linejoin:bevel;stroke-miterlimit:4;stroke-opacity:1;stroke-dasharray:none"
         d="M 30,16.15625 C 22.775244,17.064438 17.064438,22.775244 16.15625,30 l 4.03125,0 C 20.076685,30.655275 20,31.313189 20,32 c 0,0.686811 0.07669,1.344725 0.1875,2 l -4.03125,0 C 17.064438,41.224756 22.775244,46.935562 30,47.84375 L 30,43.8125 C 30.655275,43.923315 31.313189,44 32,44 c 0.686811,0 1.344725,-0.07668 2,-0.1875 l 0,4.03125 C 41.224756,46.935562 46.935562,41.224756 47.84375,34 L 43.8125,34 C 43.923315,33.344725 44,32.686811 44,32 44,31.313189 43.92332,30.655275 43.8125,30 l 4.03125,0 C 46.935562,22.775244 41.224756,17.064438 34,16.15625 l 0,4.03125 C 33.344725,20.076685 32.686811,20 32,20 c -0.686811,0 -1.344725,0.07669 -2,0.1875 l 0,-4.03125 z"
         id="path3688"
         inkscape:connector-curvature="0" />
      <path
         inkscape:export-ydpi="172.00447"
         inkscape:export-xdpi="172.00447"
         inkscape:export-filename="/home/unfa/Projekty/Xonotic/Crosshairs/crosshairrocketlauncher.tga.png"
         id="path3690"
         d="m 30,16.15625 c -1.845593,0.232 -3.59432,0.789766 -5.1875,1.59375 L 32,24.9375 39.1875,17.75 C 37.59432,16.946016 35.845593,16.38825 34,16.15625 l 0,4.03125 C 33.344725,20.076685 32.686811,20 32,20 c -0.686811,0 -1.344725,0.07669 -2,0.1875 l 0,-4.03125 z M 17.75,24.8125 C 16.946016,26.40568 16.38825,28.154407 16.15625,30 l 4.03125,0 C 20.076685,30.655275 20,31.313189 20,32 c 0,0.686811 0.07669,1.344725 0.1875,2 l -4.03125,0 c 0.232,1.845593 0.789766,3.59432 1.59375,5.1875 L 24.9375,32 17.75,24.8125 z m 28.5,0 L 39.0625,32 46.25,39.1875 C 47.053984,37.59432 47.61175,35.845593 47.84375,34 L 43.8125,34 C 43.923315,33.344725 44,32.686811 44,32 44,31.313189 43.92332,30.655275 43.8125,30 l 4.03125,0 C 47.61175,28.154407 47.053984,26.40568 46.25,24.8125 z M 32,39.0625 24.8125,46.25 c 1.59318,0.803984 3.341907,1.36175 5.1875,1.59375 L 30,43.8125 C 30.655275,43.923315 31.313189,44 32,44 c 0.686811,0 1.344725,-0.07668 2,-0.1875 l 0,4.03125 c 1.845593,-0.232 3.59432,-0.789766 5.1875,-1.59375 L 32,39.0625 z"
         style="fill:none;stroke:#ffffff;stroke-width:1.79999995;stroke-linejoin:bevel;stroke-miterlimit:4;stroke-opacity:1;stroke-dasharray:none"
         inkscape:connector-curvature="0" />
    </g>
    <g
       style="display:inline"
       id="g3735">
      <g
         style="opacity:0.25;display:inline"
         id="g3737"
         inkscape:export-xdpi="172.00447"
         inkscape:export-ydpi="172.00447"
         inkscape:export-filename="/home/unfa/Projekty/Xonotic/Crosshairs/3.png">
        <path
           id="path3739"
           d="M 30,16.15625 C 22.775244,17.064438 17.064438,22.775244 16.15625,30 l 4.03125,0 C 20.076685,30.655275 20,31.313189 20,32 c 0,0.686811 0.07669,1.344725 0.1875,2 l -4.03125,0 C 17.064438,41.224756 22.775244,46.935562 30,47.84375 L 30,43.8125 C 30.655275,43.923315 31.313189,44 32,44 c 0.686811,0 1.344725,-0.07668 2,-0.1875 l 0,4.03125 C 41.224756,46.935562 46.935562,41.224756 47.84375,34 L 43.8125,34 C 43.923315,33.344725 44,32.686811 44,32 44,31.313189 43.92332,30.655275 43.8125,30 l 4.03125,0 C 46.935562,22.775244 41.224756,17.064438 34,16.15625 l 0,4.03125 C 33.344725,20.076685 32.686811,20 32,20 c -0.686811,0 -1.344725,0.07669 -2,0.1875 l 0,-4.03125 z"
           style="fill:none;stroke:#000000;stroke-width:1.79999995;stroke-linejoin:bevel;stroke-miterlimit:4;stroke-opacity:1;stroke-dasharray:none"
           inkscape:connector-curvature="0" />
        <path
           style="fill:none;stroke:#ffffff;stroke-width:1.79999995;stroke-linejoin:bevel;stroke-miterlimit:4;stroke-opacity:1;stroke-dasharray:none"
           d="m 30,16.15625 c -1.845593,0.232 -3.59432,0.789766 -5.1875,1.59375 L 32,24.9375 39.1875,17.75 C 37.59432,16.946016 35.845593,16.38825 34,16.15625 l 0,4.03125 C 33.344725,20.076685 32.686811,20 32,20 c -0.686811,0 -1.344725,0.07669 -2,0.1875 l 0,-4.03125 z M 17.75,24.8125 C 16.946016,26.40568 16.38825,28.154407 16.15625,30 l 4.03125,0 C 20.076685,30.655275 20,31.313189 20,32 c 0,0.686811 0.07669,1.344725 0.1875,2 l -4.03125,0 c 0.232,1.845593 0.789766,3.59432 1.59375,5.1875 L 24.9375,32 17.75,24.8125 z m 28.5,0 L 39.0625,32 46.25,39.1875 C 47.053984,37.59432 47.61175,35.845593 47.84375,34 L 43.8125,34 C 43.923315,33.344725 44,32.686811 44,32 44,31.313189 43.92332,30.655275 43.8125,30 l 4.03125,0 C 47.61175,28.154407 47.053984,26.40568 46.25,24.8125 z M 32,39.0625 24.8125,46.25 c 1.59318,0.803984 3.341907,1.36175 5.1875,1.59375 L 30,43.8125 C 30.655275,43.923315 31.313189,44 32,44 c 0.686811,0 1.344725,-0.07668 2,-0.1875 l 0,4.03125 c 1.845593,-0.232 3.59432,-0.789766 5.1875,-1.59375 L 32,39.0625 z"
           id="path3741"
           inkscape:export-filename="/home/unfa/Projekty/Xonotic/Crosshairs/crosshairrocketlauncher.tga.png"
           inkscape:export-xdpi="172.00447"
           inkscape:export-ydpi="172.00447"
           inkscape:connector-curvature="0" />
      </g>
      <path
         sodipodi:type="arc"
         style="fill:#ffffff;fill-opacity:1;stroke:none"
         id="path3743"
         sodipodi:cx="32"
         sodipodi:cy="39"
         sodipodi:rx="1"
         sodipodi:ry="1"
         d="m 33,39 a 1,1 0 1 1 -2,0 1,1 0 1 1 2,0 z" />
      <path
         d="m 33,39 a 1,1 0 1 1 -2,0 1,1 0 1 1 2,0 z"
         sodipodi:ry="1"
         sodipodi:rx="1"
         sodipodi:cy="39"
         sodipodi:cx="32"
         id="path3745"
         style="fill:#ffffff;fill-opacity:1;stroke:none"
         sodipodi:type="arc"
         transform="translate(7,-7)" />
      <path
         transform="translate(0,-14)"
         sodipodi:type="arc"
         style="fill:#ffffff;fill-opacity:1;stroke:none"
         id="path3747"
         sodipodi:cx="32"
         sodipodi:cy="39"
         sodipodi:rx="1"
         sodipodi:ry="1"
         d="m 33,39 a 1,1 0 1 1 -2,0 1,1 0 1 1 2,0 z" />
      <path
         d="m 33,39 a 1,1 0 1 1 -2,0 1,1 0 1 1 2,0 z"
         sodipodi:ry="1"
         sodipodi:rx="1"
         sodipodi:cy="39"
         sodipodi:cx="32"
         id="path3749"
         style="fill:#ffffff;fill-opacity:1;stroke:none"
         sodipodi:type="arc"
         transform="translate(-7,-7)" />
    </g>
    <g
       style="display:inline"
       id="g3759">
      <path
         sodipodi:type="arc"
         style="fill:#ffffff;fill-opacity:1;stroke:none"
         id="path3761"
         sodipodi:cx="32"
         sodipodi:cy="39"
         sodipodi:rx="1"
         sodipodi:ry="1"
         d="m 33,39 a 1,1 0 1 1 -2,0 1,1 0 1 1 2,0 z" />
      <path
         d="m 33,39 a 1,1 0 1 1 -2,0 1,1 0 1 1 2,0 z"
         sodipodi:ry="1"
         sodipodi:rx="1"
         sodipodi:cy="39"
         sodipodi:cx="32"
         id="path3763"
         style="fill:#ffffff;fill-opacity:1;stroke:none"
         sodipodi:type="arc"
         transform="translate(7,-7)" />
      <path
         transform="translate(0,-14)"
         sodipodi:type="arc"
         style="fill:#ffffff;fill-opacity:1;stroke:none"
         id="path3765"
         sodipodi:cx="32"
         sodipodi:cy="39"
         sodipodi:rx="1"
         sodipodi:ry="1"
         d="m 33,39 a 1,1 0 1 1 -2,0 1,1 0 1 1 2,0 z" />
      <path
         d="m 33,39 a 1,1 0 1 1 -2,0 1,1 0 1 1 2,0 z"
         sodipodi:ry="1"
         sodipodi:rx="1"
         sodipodi:cy="39"
         sodipodi:cx="32"
         id="path3767"
         style="fill:#ffffff;fill-opacity:1;stroke:none"
         sodipodi:type="arc"
         transform="translate(-7,-7)" />
    </g>
    <g
       style="display:inline"
       id="g3784">
      <g
         id="g3786">
        <path
           d="m 33,39 a 1,1 0 1 1 -2,0 1,1 0 1 1 2,0 z"
           sodipodi:ry="1"
           sodipodi:rx="1"
           sodipodi:cy="39"
           sodipodi:cx="32"
           id="path3788"
           style="fill:#ffffff;fill-opacity:1;stroke:none"
           sodipodi:type="arc" />
        <path
           transform="translate(7,-7)"
           sodipodi:type="arc"
           style="fill:#ffffff;fill-opacity:1;stroke:none"
           id="path3790"
           sodipodi:cx="32"
           sodipodi:cy="39"
           sodipodi:rx="1"
           sodipodi:ry="1"
           d="m 33,39 a 1,1 0 1 1 -2,0 1,1 0 1 1 2,0 z" />
        <path
           d="m 33,39 a 1,1 0 1 1 -2,0 1,1 0 1 1 2,0 z"
           sodipodi:ry="1"
           sodipodi:rx="1"
           sodipodi:cy="39"
           sodipodi:cx="32"
           id="path3792"
           style="fill:#ffffff;fill-opacity:1;stroke:none"
           sodipodi:type="arc"
           transform="translate(0,-14)" />
        <path
           transform="translate(-7,-7)"
           sodipodi:type="arc"
           style="fill:#ffffff;fill-opacity:1;stroke:none"
           id="path3794"
           sodipodi:cx="32"
           sodipodi:cy="39"
           sodipodi:rx="1"
           sodipodi:ry="1"
           d="m 33,39 a 1,1 0 1 1 -2,0 1,1 0 1 1 2,0 z" />
      </g>
      <path
         sodipodi:type="arc"
         style="opacity:0.25;fill:#ffffff;fill-opacity:1;stroke:none"
         id="path3796"
         sodipodi:cx="32"
         sodipodi:cy="32"
         sodipodi:rx="7"
         sodipodi:ry="7"
         d="m 39,32 a 7,7 0 1 1 -14,0 7,7 0 1 1 14,0 z" />
    </g>
    <g
       style="display:inline"
       id="g3855">
      <g
         id="g3857">
        <path
           d="m 33,39 a 1,1 0 1 1 -2,0 1,1 0 1 1 2,0 z"
           sodipodi:ry="1"
           sodipodi:rx="1"
           sodipodi:cy="39"
           sodipodi:cx="32"
           id="path3859"
           style="fill:#ffffff;fill-opacity:1;stroke:none"
           sodipodi:type="arc" />
        <path
           transform="translate(7,-7)"
           sodipodi:type="arc"
           style="fill:#ffffff;fill-opacity:1;stroke:none"
           id="path3861"
           sodipodi:cx="32"
           sodipodi:cy="39"
           sodipodi:rx="1"
           sodipodi:ry="1"
           d="m 33,39 a 1,1 0 1 1 -2,0 1,1 0 1 1 2,0 z" />
        <path
           d="m 33,39 a 1,1 0 1 1 -2,0 1,1 0 1 1 2,0 z"
           sodipodi:ry="1"
           sodipodi:rx="1"
           sodipodi:cy="39"
           sodipodi:cx="32"
           id="path3863"
           style="fill:#ffffff;fill-opacity:1;stroke:none"
           sodipodi:type="arc"
           transform="translate(0,-14)" />
        <path
           transform="translate(-7,-7)"
           sodipodi:type="arc"
           style="fill:#ffffff;fill-opacity:1;stroke:none"
           id="path3865"
           sodipodi:cx="32"
           sodipodi:cy="39"
           sodipodi:rx="1"
           sodipodi:ry="1"
           d="m 33,39 a 1,1 0 1 1 -2,0 1,1 0 1 1 2,0 z" />
      </g>
      <path
         sodipodi:type="arc"
         style="opacity:0.25;fill:#ffffff;fill-opacity:1;stroke:none"
         id="path3867"
         sodipodi:cx="32"
         sodipodi:cy="32"
         sodipodi:rx="7"
         sodipodi:ry="7"
         d="m 39,32 a 7,7 0 1 1 -14,0 7,7 0 1 1 14,0 z" />
      <path
         transform="matrix(0.71428571,0,0,0.71428571,9.1428571,9.1428571)"
         d="m 39,32 a 7,7 0 1 1 -14,0 7,7 0 1 1 14,0 z"
         sodipodi:ry="7"
         sodipodi:rx="7"
         sodipodi:cy="32"
         sodipodi:cx="32"
         id="path3869"
         style="opacity:0.25;fill:#ffffff;fill-opacity:1;stroke:none"
         sodipodi:type="arc" />
    </g>
    <g
       style="display:inline"
       id="g3880">
      <g
         id="g3882">
        <path
           d="m 33,39 a 1,1 0 1 1 -2,0 1,1 0 1 1 2,0 z"
           sodipodi:ry="1"
           sodipodi:rx="1"
           sodipodi:cy="39"
           sodipodi:cx="32"
           id="path3884"
           style="fill:#ffffff;fill-opacity:1;stroke:none"
           sodipodi:type="arc" />
        <path
           transform="translate(7,-7)"
           sodipodi:type="arc"
           style="fill:#ffffff;fill-opacity:1;stroke:none"
           id="path3886"
           sodipodi:cx="32"
           sodipodi:cy="39"
           sodipodi:rx="1"
           sodipodi:ry="1"
           d="m 33,39 a 1,1 0 1 1 -2,0 1,1 0 1 1 2,0 z" />
        <path
           d="m 33,39 a 1,1 0 1 1 -2,0 1,1 0 1 1 2,0 z"
           sodipodi:ry="1"
           sodipodi:rx="1"
           sodipodi:cy="39"
           sodipodi:cx="32"
           id="path3888"
           style="fill:#ffffff;fill-opacity:1;stroke:none"
           sodipodi:type="arc"
           transform="translate(0,-14)" />
        <path
           transform="translate(-7,-7)"
           sodipodi:type="arc"
           style="fill:#ffffff;fill-opacity:1;stroke:none"
           id="path3890"
           sodipodi:cx="32"
           sodipodi:cy="39"
           sodipodi:rx="1"
           sodipodi:ry="1"
           d="m 33,39 a 1,1 0 1 1 -2,0 1,1 0 1 1 2,0 z" />
      </g>
      <path
         id="path3892"
         d="m 32,25 c -3.865993,0 -7,3.134007 -7,7 0,3.865993 3.134007,7 7,7 3.865993,0 7,-3.134007 7,-7 0,-3.865993 -3.134007,-7 -7,-7 z m 0,2 c 2.761424,0 5,2.238576 5,5 0,2.761424 -2.238576,5 -5,5 -2.761424,0 -5,-2.238576 -5,-5 0,-2.761424 2.238576,-5 5,-5 z"
         style="opacity:0.25;fill:#ffffff;fill-opacity:1;stroke:none"
         inkscape:connector-curvature="0" />
    </g>
    <g
       style="display:inline"
       id="g3934">
      <path
         id="path3936"
         d="m 31.03125,25.09375 c -3.086586,0.429717 -5.507783,2.850914 -5.9375,5.9375 C 25.597057,31.083371 26,31.48291 26,32 c 0,0.51709 -0.402943,0.916629 -0.90625,0.96875 0.429717,3.086586 2.850914,5.507783 5.9375,5.9375 C 31.083371,38.402943 31.48291,38 32,38 c 0.51709,0 0.916629,0.402943 0.96875,0.90625 3.086586,-0.429717 5.507783,-2.850914 5.9375,-5.9375 C 38.402943,32.916629 38,32.51709 38,32 c 0,-0.51709 0.402943,-0.916629 0.90625,-0.96875 -0.429717,-3.086586 -2.850914,-5.507783 -5.9375,-5.9375 C 32.916629,25.597057 32.51709,26 32,26 31.48291,26 31.083371,25.597057 31.03125,25.09375 z M 32,27 c 2.761424,0 5,2.238576 5,5 0,2.761424 -2.238576,5 -5,5 -2.761424,0 -5,-2.238576 -5,-5 0,-2.761424 2.238576,-5 5,-5 z"
         style="opacity:0.5;fill:#ffffff;fill-opacity:1;stroke:none"
         inkscape:connector-curvature="0" />
    </g>
    <g
       style="display:inline"
       id="g3947">
      <g
         id="g3949">
        <path
           style="opacity:0.5;fill:#ffffff;fill-opacity:1;stroke:none"
           d="m 31.03125,25.09375 c -3.086586,0.429717 -5.507783,2.850914 -5.9375,5.9375 C 25.597057,31.083371 26,31.48291 26,32 c 0,0.51709 -0.402943,0.916629 -0.90625,0.96875 0.429717,3.086586 2.850914,5.507783 5.9375,5.9375 C 31.083371,38.402943 31.48291,38 32,38 c 0.51709,0 0.916629,0.402943 0.96875,0.90625 3.086586,-0.429717 5.507783,-2.850914 5.9375,-5.9375 C 38.402943,32.916629 38,32.51709 38,32 c 0,-0.51709 0.402943,-0.916629 0.90625,-0.96875 -0.429717,-3.086586 -2.850914,-5.507783 -5.9375,-5.9375 C 32.916629,25.597057 32.51709,26 32,26 31.48291,26 31.083371,25.597057 31.03125,25.09375 z M 32,27 c 2.761424,0 5,2.238576 5,5 0,2.761424 -2.238576,5 -5,5 -2.761424,0 -5,-2.238576 -5,-5 0,-2.761424 2.238576,-5 5,-5 z"
           id="path3951"
           inkscape:connector-curvature="0" />
      </g>
      <path
         sodipodi:type="arc"
         style="fill:#ffffff;fill-opacity:1;stroke:none"
         id="path3953"
         sodipodi:cx="32"
         sodipodi:cy="32"
         sodipodi:rx="1"
         sodipodi:ry="1"
         d="m 33,32 a 1,1 0 1 1 -2,0 1,1 0 1 1 2,0 z" />
    </g>
    <g
       style="display:inline"
       id="g3961">
      <g
         id="g3963">
        <path
           style="opacity:0.5;fill:#ffffff;fill-opacity:1;stroke:none"
           d="m 31.03125,25.09375 c -3.086586,0.429717 -5.507783,2.850914 -5.9375,5.9375 C 25.597057,31.083371 26,31.48291 26,32 c 0,0.51709 -0.402943,0.916629 -0.90625,0.96875 0.429717,3.086586 2.850914,5.507783 5.9375,5.9375 C 31.083371,38.402943 31.48291,38 32,38 c 0.51709,0 0.916629,0.402943 0.96875,0.90625 3.086586,-0.429717 5.507783,-2.850914 5.9375,-5.9375 C 38.402943,32.916629 38,32.51709 38,32 c 0,-0.51709 0.402943,-0.916629 0.90625,-0.96875 -0.429717,-3.086586 -2.850914,-5.507783 -5.9375,-5.9375 C 32.916629,25.597057 32.51709,26 32,26 31.48291,26 31.083371,25.597057 31.03125,25.09375 z M 32,27 c 2.761424,0 5,2.238576 5,5 0,2.761424 -2.238576,5 -5,5 -2.761424,0 -5,-2.238576 -5,-5 0,-2.761424 2.238576,-5 5,-5 z"
           id="path3965"
           inkscape:connector-curvature="0" />
      </g>
      <path
         transform="translate(-7,0)"
         sodipodi:type="arc"
         style="fill:#ffffff;fill-opacity:1;stroke:none"
         id="path3967"
         sodipodi:cx="32"
         sodipodi:cy="32"
         sodipodi:rx="1"
         sodipodi:ry="1"
         d="m 33,32 a 1,1 0 1 1 -2,0 1,1 0 1 1 2,0 z" />
      <path
         d="m 33,32 a 1,1 0 1 1 -2,0 1,1 0 1 1 2,0 z"
         sodipodi:ry="1"
         sodipodi:rx="1"
         sodipodi:cy="32"
         sodipodi:cx="32"
         id="path3969"
         style="fill:#ffffff;fill-opacity:1;stroke:none"
         sodipodi:type="arc"
         transform="translate(7,0)" />
    </g>
  </g>
  <g
     style="display:inline"
     inkscape:label="hidden crosshairs copy"
     id="g3976"
     inkscape:groupmode="layer">
    <g
       id="g4042"
       style="display:inline"
       transform="translate(42.389087,6.833631)">
      <path
         d="m 33,39 a 1,1 0 1 1 -2,0 1,1 0 1 1 2,0 z"
         sodipodi:ry="1"
         sodipodi:rx="1"
         sodipodi:cy="39"
         sodipodi:cx="32"
         id="path4044"
         style="fill:#ffffff;fill-opacity:1;stroke:none"
         sodipodi:type="arc"
         transform="translate(0,-2.199631)" />
      <path
         transform="translate(4.799913,-7)"
         sodipodi:type="arc"
         style="fill:#ffffff;fill-opacity:1;stroke:none"
         id="path4046"
         sodipodi:cx="32"
         sodipodi:cy="39"
         sodipodi:rx="1"
         sodipodi:ry="1"
         d="m 33,39 a 1,1 0 1 1 -2,0 1,1 0 1 1 2,0 z" />
      <path
         d="m 33,39 a 1,1 0 1 1 -2,0 1,1 0 1 1 2,0 z"
         sodipodi:ry="1"
         sodipodi:rx="1"
         sodipodi:cy="39"
         sodipodi:cx="32"
         id="path4048"
         style="fill:#ffffff;fill-opacity:1;stroke:none"
         sodipodi:type="arc"
         transform="translate(0,-11.799631)" />
      <path
         transform="translate(-4.800087,-7)"
         sodipodi:type="arc"
         style="fill:#ffffff;fill-opacity:1;stroke:none"
         id="path4050"
         sodipodi:cx="32"
         sodipodi:cy="39"
         sodipodi:rx="1"
         sodipodi:ry="1"
         d="m 33,39 a 1,1 0 1 1 -2,0 1,1 0 1 1 2,0 z" />
      <path
         d="m 33,39 a 1,1 0 1 1 -2,0 1,1 0 1 1 2,0 z"
         sodipodi:ry="1"
         sodipodi:rx="1"
         sodipodi:cy="39"
         sodipodi:cx="32"
         id="path3826"
         style="opacity:0.5;fill:#ffffff;fill-opacity:1;stroke:none"
         sodipodi:type="arc"
         transform="translate(6.799913,-7)" />
      <path
         transform="translate(8.799913,-7)"
         sodipodi:type="arc"
         style="opacity:0.25;fill:#ffffff;fill-opacity:1;stroke:none"
         id="path3828"
         sodipodi:cx="32"
         sodipodi:cy="39"
         sodipodi:rx="1"
         sodipodi:ry="1"
         d="m 33,39 a 1,1 0 1 1 -2,0 1,1 0 1 1 2,0 z" />
      <path
         transform="translate(0,-13.799631)"
         sodipodi:type="arc"
         style="opacity:0.5;fill:#ffffff;fill-opacity:1;stroke:none"
         id="path3830"
         sodipodi:cx="32"
         sodipodi:cy="39"
         sodipodi:rx="1"
         sodipodi:ry="1"
         d="m 33,39 a 1,1 0 1 1 -2,0 1,1 0 1 1 2,0 z" />
      <path
         d="m 33,39 a 1,1 0 1 1 -2,0 1,1 0 1 1 2,0 z"
         sodipodi:ry="1"
         sodipodi:rx="1"
         sodipodi:cy="39"
         sodipodi:cx="32"
         id="path3832"
         style="opacity:0.25;fill:#ffffff;fill-opacity:1;stroke:none"
         sodipodi:type="arc"
         transform="translate(0,-15.799631)" />
      <path
         sodipodi:type="arc"
         style="opacity:0.5;fill:#ffffff;fill-opacity:1;stroke:none"
         id="path3834"
         sodipodi:cx="32"
         sodipodi:cy="39"
         sodipodi:rx="1"
         sodipodi:ry="1"
         d="m 33,39 a 1,1 0 1 1 -2,0 1,1 0 1 1 2,0 z"
         transform="translate(0,-0.199631)" />
      <path
         transform="translate(0,1.800369)"
         d="m 33,39 a 1,1 0 1 1 -2,0 1,1 0 1 1 2,0 z"
         sodipodi:ry="1"
         sodipodi:rx="1"
         sodipodi:cy="39"
         sodipodi:cx="32"
         id="path3836"
         style="opacity:0.25;fill:#ffffff;fill-opacity:1;stroke:none"
         sodipodi:type="arc" />
      <path
         d="m 33,39 a 1,1 0 1 1 -2,0 1,1 0 1 1 2,0 z"
         sodipodi:ry="1"
         sodipodi:rx="1"
         sodipodi:cy="39"
         sodipodi:cx="32"
         id="path3838"
         style="opacity:0.5;fill:#ffffff;fill-opacity:1;stroke:none"
         sodipodi:type="arc"
         transform="translate(-6.800087,-7)" />
      <path
         transform="translate(-8.800087,-7)"
         sodipodi:type="arc"
         style="opacity:0.25;fill:#ffffff;fill-opacity:1;stroke:none"
         id="path3840"
         sodipodi:cx="32"
         sodipodi:cy="39"
         sodipodi:rx="1"
         sodipodi:ry="1"
         d="m 33,39 a 1,1 0 1 1 -2,0 1,1 0 1 1 2,0 z" />
    </g>
    <g
       id="g4052"
       style="display:inline"
       transform="translate(-78.875,33.125)">
      <g
         id="g4054">
        <path
           sodipodi:type="arc"
           style="fill:#ffffff;fill-opacity:1;stroke:none"
           id="path4056"
           sodipodi:cx="32"
           sodipodi:cy="39"
           sodipodi:rx="1"
           sodipodi:ry="1"
           d="m 33,39 a 1,1 0 1 1 -2,0 1,1 0 1 1 2,0 z" />
        <path
           d="m 33,39 a 1,1 0 1 1 -2,0 1,1 0 1 1 2,0 z"
           sodipodi:ry="1"
           sodipodi:rx="1"
           sodipodi:cy="39"
           sodipodi:cx="32"
           id="path4058"
           style="fill:#ffffff;fill-opacity:1;stroke:none"
           sodipodi:type="arc"
           transform="translate(7,-7)" />
        <path
           transform="translate(0,-14)"
           sodipodi:type="arc"
           style="fill:#ffffff;fill-opacity:1;stroke:none"
           id="path4060"
           sodipodi:cx="32"
           sodipodi:cy="39"
           sodipodi:rx="1"
           sodipodi:ry="1"
           d="m 33,39 a 1,1 0 1 1 -2,0 1,1 0 1 1 2,0 z" />
        <path
           d="m 33,39 a 1,1 0 1 1 -2,0 1,1 0 1 1 2,0 z"
           sodipodi:ry="1"
           sodipodi:rx="1"
           sodipodi:cy="39"
           sodipodi:cx="32"
           id="path4062"
           style="fill:#ffffff;fill-opacity:1;stroke:none"
           sodipodi:type="arc"
           transform="translate(-7,-7)" />
      </g>
      <path
         d="m 39,32 a 7,7 0 1 1 -14,0 7,7 0 1 1 14,0 z"
         sodipodi:ry="7"
         sodipodi:rx="7"
         sodipodi:cy="32"
         sodipodi:cx="32"
         id="path4064"
         style="opacity:0.25;fill:#ffffff;fill-opacity:1;stroke:none"
         sodipodi:type="arc" />
    </g>
    <g
       id="g4066"
       style="display:inline"
       transform="translate(-54.182243,33.098087)">
      <g
         id="g4068">
        <path
           sodipodi:type="arc"
           style="fill:#ffffff;fill-opacity:1;stroke:none"
           id="path4070"
           sodipodi:cx="32"
           sodipodi:cy="39"
           sodipodi:rx="1"
           sodipodi:ry="1"
           d="m 33,39 a 1,1 0 1 1 -2,0 1,1 0 1 1 2,0 z" />
        <path
           d="m 33,39 a 1,1 0 1 1 -2,0 1,1 0 1 1 2,0 z"
           sodipodi:ry="1"
           sodipodi:rx="1"
           sodipodi:cy="39"
           sodipodi:cx="32"
           id="path4072"
           style="fill:#ffffff;fill-opacity:1;stroke:none"
           sodipodi:type="arc"
           transform="translate(7,-7)" />
        <path
           transform="translate(0,-14)"
           sodipodi:type="arc"
           style="fill:#ffffff;fill-opacity:1;stroke:none"
           id="path4074"
           sodipodi:cx="32"
           sodipodi:cy="39"
           sodipodi:rx="1"
           sodipodi:ry="1"
           d="m 33,39 a 1,1 0 1 1 -2,0 1,1 0 1 1 2,0 z" />
        <path
           d="m 33,39 a 1,1 0 1 1 -2,0 1,1 0 1 1 2,0 z"
           sodipodi:ry="1"
           sodipodi:rx="1"
           sodipodi:cy="39"
           sodipodi:cx="32"
           id="path4076"
           style="fill:#ffffff;fill-opacity:1;stroke:none"
           sodipodi:type="arc"
           transform="translate(-7,-7)" />
      </g>
      <path
         d="m 39,32 a 7,7 0 1 1 -14,0 7,7 0 1 1 14,0 z"
         sodipodi:ry="7"
         sodipodi:rx="7"
         sodipodi:cy="32"
         sodipodi:cx="32"
         id="path4078"
         style="opacity:0.25;fill:#ffffff;fill-opacity:1;stroke:none"
         sodipodi:type="arc" />
      <path
         sodipodi:type="arc"
         style="opacity:0.25;fill:#ffffff;fill-opacity:1;stroke:none"
         id="path4080"
         sodipodi:cx="32"
         sodipodi:cy="32"
         sodipodi:rx="7"
         sodipodi:ry="7"
         d="m 39,32 a 7,7 0 1 1 -14,0 7,7 0 1 1 14,0 z"
         transform="matrix(0.71428571,0,0,0.71428571,9.1428571,9.1428571)" />
    </g>
    <g
       id="g4082"
       style="display:inline"
       transform="translate(-33.467515,33.247845)">
      <g
         id="g4084">
        <path
           sodipodi:type="arc"
           style="fill:#ffffff;fill-opacity:1;stroke:none"
           id="path4086"
           sodipodi:cx="32"
           sodipodi:cy="39"
           sodipodi:rx="1"
           sodipodi:ry="1"
           d="m 33,39 a 1,1 0 1 1 -2,0 1,1 0 1 1 2,0 z" />
        <path
           d="m 33,39 a 1,1 0 1 1 -2,0 1,1 0 1 1 2,0 z"
           sodipodi:ry="1"
           sodipodi:rx="1"
           sodipodi:cy="39"
           sodipodi:cx="32"
           id="path4088"
           style="fill:#ffffff;fill-opacity:1;stroke:none"
           sodipodi:type="arc"
           transform="translate(7,-7)" />
        <path
           transform="translate(0,-14)"
           sodipodi:type="arc"
           style="fill:#ffffff;fill-opacity:1;stroke:none"
           id="path4090"
           sodipodi:cx="32"
           sodipodi:cy="39"
           sodipodi:rx="1"
           sodipodi:ry="1"
           d="m 33,39 a 1,1 0 1 1 -2,0 1,1 0 1 1 2,0 z" />
        <path
           d="m 33,39 a 1,1 0 1 1 -2,0 1,1 0 1 1 2,0 z"
           sodipodi:ry="1"
           sodipodi:rx="1"
           sodipodi:cy="39"
           sodipodi:cx="32"
           id="path4092"
           style="fill:#ffffff;fill-opacity:1;stroke:none"
           sodipodi:type="arc"
           transform="translate(-7,-7)" />
      </g>
      <path
         style="opacity:0.25;fill:#ffffff;fill-opacity:1;stroke:none"
         d="m 32,25 c -3.865993,0 -7,3.134007 -7,7 0,3.865993 3.134007,7 7,7 3.865993,0 7,-3.134007 7,-7 0,-3.865993 -3.134007,-7 -7,-7 z m 0,2 c 2.761424,0 5,2.238576 5,5 0,2.761424 -2.238576,5 -5,5 -2.761424,0 -5,-2.238576 -5,-5 0,-2.761424 2.238576,-5 5,-5 z"
         id="path4094"
         inkscape:connector-curvature="0" />
    </g>
    <g
       id="g4100"
       style="display:inline"
       transform="translate(33.458631,47.766243)"
       inkscape:export-filename="/home/unfa/Projekty/Xonotic/Crosshairs/Set PNG/crosshairuzi.png"
       inkscape:export-xdpi="834"
       inkscape:export-ydpi="834" />
    <g
       id="g4108"
       style="display:inline"
       transform="translate(-12.815494,33.136671)"
       inkscape:export-filename="/home/unfa/Projekty/Xonotic/Crosshairs/Set PNG/crosshairgrenadelauncher.png"
       inkscape:export-xdpi="720"
       inkscape:export-ydpi="720">
      <g
         id="g4110">
        <path
           id="path4112"
           d="m 31.03125,25.09375 c -3.086586,0.429717 -5.507783,2.850914 -5.9375,5.9375 C 25.597057,31.083371 26,31.48291 26,32 c 0,0.51709 -0.402943,0.916629 -0.90625,0.96875 0.429717,3.086586 2.850914,5.507783 5.9375,5.9375 C 31.083371,38.402943 31.48291,38 32,38 c 0.51709,0 0.916629,0.402943 0.96875,0.90625 3.086586,-0.429717 5.507783,-2.850914 5.9375,-5.9375 C 38.402943,32.916629 38,32.51709 38,32 c 0,-0.51709 0.402943,-0.916629 0.90625,-0.96875 -0.429717,-3.086586 -2.850914,-5.507783 -5.9375,-5.9375 C 32.916629,25.597057 32.51709,26 32,26 31.48291,26 31.083371,25.597057 31.03125,25.09375 z M 32,27 c 2.761424,0 5,2.238576 5,5 0,2.761424 -2.238576,5 -5,5 -2.761424,0 -5,-2.238576 -5,-5 0,-2.761424 2.238576,-5 5,-5 z"
           style="opacity:0.25;fill:#ffffff;fill-opacity:1;stroke:none"
           inkscape:connector-curvature="0" />
      </g>
      <path
         d="m 33,32 a 1,1 0 1 1 -2,0 1,1 0 1 1 2,0 z"
         sodipodi:ry="1"
         sodipodi:rx="1"
         sodipodi:cy="32"
         sodipodi:cx="32"
         id="path4114"
         style="fill:#ffffff;fill-opacity:1;stroke:none"
         sodipodi:type="arc"
         transform="translate(-7,0)" />
      <path
         transform="translate(7,0)"
         sodipodi:type="arc"
         style="fill:#ffffff;fill-opacity:1;stroke:none"
         id="path4116"
         sodipodi:cx="32"
         sodipodi:cy="32"
         sodipodi:rx="1"
         sodipodi:ry="1"
         d="m 33,32 a 1,1 0 1 1 -2,0 1,1 0 1 1 2,0 z" />
    </g>
    <g
       style="display:inline"
       id="g3814"
       transform="translate(-53.594562,8.211048)">
      <path
         sodipodi:type="arc"
         style="fill:#ffffff;fill-opacity:1;stroke:none"
         id="path3816"
         sodipodi:cx="32"
         sodipodi:cy="39"
         sodipodi:rx="1"
         sodipodi:ry="1"
         d="m 33,39 a 1,1 0 1 1 -2,0 1,1 0 1 1 2,0 z" />
      <path
         d="m 33,39 a 1,1 0 1 1 -2,0 1,1 0 1 1 2,0 z"
         sodipodi:ry="1"
         sodipodi:rx="1"
         sodipodi:cy="39"
         sodipodi:cx="32"
         id="path3818"
         style="fill:#ffffff;fill-opacity:1;stroke:none"
         sodipodi:type="arc"
         transform="translate(7,-7)" />
      <path
         transform="translate(0,-14)"
         sodipodi:type="arc"
         style="fill:#ffffff;fill-opacity:1;stroke:none"
         id="path3820"
         sodipodi:cx="32"
         sodipodi:cy="39"
         sodipodi:rx="1"
         sodipodi:ry="1"
         d="m 33,39 a 1,1 0 1 1 -2,0 1,1 0 1 1 2,0 z" />
      <path
         d="m 33,39 a 1,1 0 1 1 -2,0 1,1 0 1 1 2,0 z"
         sodipodi:ry="1"
         sodipodi:rx="1"
         sodipodi:cy="39"
         sodipodi:cx="32"
         id="path3822"
         style="fill:#ffffff;fill-opacity:1;stroke:none"
         sodipodi:type="arc"
         transform="translate(-7,-7)" />
      <path
         d="m 33,39 a 1,1 0 1 1 -2,0 1,1 0 1 1 2,0 z"
         sodipodi:ry="1"
         sodipodi:rx="1"
         sodipodi:cy="39"
         sodipodi:cx="32"
         id="path3852"
         style="opacity:0.5;fill:#ffffff;fill-opacity:1;stroke:none"
         sodipodi:type="arc"
         transform="translate(0,-2)" />
      <path
         transform="translate(0,-4)"
         sodipodi:type="arc"
         style="opacity:0.25;fill:#ffffff;fill-opacity:1;stroke:none"
         id="path3854"
         sodipodi:cx="32"
         sodipodi:cy="39"
         sodipodi:rx="1"
         sodipodi:ry="1"
         d="m 33,39 a 1,1 0 1 1 -2,0 1,1 0 1 1 2,0 z" />
      <path
         d="m 33,39 a 1,1 0 1 1 -2,0 1,1 0 1 1 2,0 z"
         sodipodi:ry="1"
         sodipodi:rx="1"
         sodipodi:cy="39"
         sodipodi:cx="32"
         id="path3860"
         style="opacity:0.25;fill:#ffffff;fill-opacity:1;stroke:none"
         sodipodi:type="arc"
         transform="translate(0,-10)" />
      <path
         transform="translate(0,-12)"
         sodipodi:type="arc"
         style="opacity:0.5;fill:#ffffff;fill-opacity:1;stroke:none"
         id="path3862"
         sodipodi:cx="32"
         sodipodi:cy="39"
         sodipodi:rx="1"
         sodipodi:ry="1"
         d="m 33,39 a 1,1 0 1 1 -2,0 1,1 0 1 1 2,0 z" />
      <path
         transform="translate(5,-7)"
         sodipodi:type="arc"
         style="opacity:0.5;fill:#ffffff;fill-opacity:1;stroke:none"
         id="path3864"
         sodipodi:cx="32"
         sodipodi:cy="39"
         sodipodi:rx="1"
         sodipodi:ry="1"
         d="m 33,39 a 1,1 0 1 1 -2,0 1,1 0 1 1 2,0 z" />
      <path
         d="m 33,39 a 1,1 0 1 1 -2,0 1,1 0 1 1 2,0 z"
         sodipodi:ry="1"
         sodipodi:rx="1"
         sodipodi:cy="39"
         sodipodi:cx="32"
         id="path3866"
         style="opacity:0.25;fill:#ffffff;fill-opacity:1;stroke:none"
         sodipodi:type="arc"
         transform="translate(3,-7)" />
      <path
         transform="translate(-3,-7)"
         sodipodi:type="arc"
         style="opacity:0.25;fill:#ffffff;fill-opacity:1;stroke:none"
         id="path3872"
         sodipodi:cx="32"
         sodipodi:cy="39"
         sodipodi:rx="1"
         sodipodi:ry="1"
         d="m 33,39 a 1,1 0 1 1 -2,0 1,1 0 1 1 2,0 z" />
      <path
         d="m 33,39 a 1,1 0 1 1 -2,0 1,1 0 1 1 2,0 z"
         sodipodi:ry="1"
         sodipodi:rx="1"
         sodipodi:cy="39"
         sodipodi:cx="32"
         id="path3874"
         style="opacity:0.5;fill:#ffffff;fill-opacity:1;stroke:none"
         sodipodi:type="arc"
         transform="translate(-5,-7)" />
    </g>
    <g
       id="g3966"
       style="display:inline"
       transform="translate(-7.602029,7.608496)"
       inkscape:export-filename="/home/unfa/Projekty/Xonotic/Crosshairs/Set PNG/crosshairlaser.png"
       inkscape:export-xdpi="1152"
       inkscape:export-ydpi="1152">
      <path
         transform="translate(0,-4)"
         sodipodi:type="arc"
         style="opacity:0.5;fill:#ffffff;fill-opacity:1;stroke:none"
         id="path3970"
         sodipodi:cx="32"
         sodipodi:cy="32"
         sodipodi:rx="1"
         sodipodi:ry="1"
         d="m 33,32 a 1,1 0 1 1 -2,0 1,1 0 1 1 2,0 z" />
      <path
         transform="translate(0,4)"
         d="m 33,32 a 1,1 0 1 1 -2,0 1,1 0 1 1 2,0 z"
         sodipodi:ry="1"
         sodipodi:rx="1"
         sodipodi:cy="32"
         sodipodi:cx="32"
         id="path3972"
         style="opacity:0.5;fill:#ffffff;fill-opacity:1;stroke:none"
         sodipodi:type="arc" />
      <path
         transform="translate(4,0)"
         sodipodi:type="arc"
         style="opacity:0.5;fill:#ffffff;fill-opacity:1;stroke:none"
         id="path3974"
         sodipodi:cx="32"
         sodipodi:cy="32"
         sodipodi:rx="1"
         sodipodi:ry="1"
         d="m 33,32 a 1,1 0 1 1 -2,0 1,1 0 1 1 2,0 z" />
      <path
         transform="translate(-4,0)"
         d="m 33,32 a 1,1 0 1 1 -2,0 1,1 0 1 1 2,0 z"
         sodipodi:ry="1"
         sodipodi:rx="1"
         sodipodi:cy="32"
         sodipodi:cx="32"
         id="path3976"
         style="opacity:0.5;fill:#ffffff;fill-opacity:1;stroke:none"
         sodipodi:type="arc" />
    </g>
    <g
       transform="matrix(0.70710678,-0.70710678,0.70710678,0.70710678,-42.077949,40.04334)"
       id="g3978"
       style="display:inline">
      <path
         d="m 33,39 a 1,1 0 1 1 -2,0 1,1 0 1 1 2,0 z"
         sodipodi:ry="1"
         sodipodi:rx="1"
         sodipodi:cy="39"
         sodipodi:cx="32"
         id="path3980"
         style="fill:#ffffff;fill-opacity:1;stroke:none"
         sodipodi:type="arc" />
      <path
         transform="translate(7,-7)"
         sodipodi:type="arc"
         style="fill:#ffffff;fill-opacity:1;stroke:none"
         id="path3982"
         sodipodi:cx="32"
         sodipodi:cy="39"
         sodipodi:rx="1"
         sodipodi:ry="1"
         d="m 33,39 a 1,1 0 1 1 -2,0 1,1 0 1 1 2,0 z" />
      <path
         d="m 33,39 a 1,1 0 1 1 -2,0 1,1 0 1 1 2,0 z"
         sodipodi:ry="1"
         sodipodi:rx="1"
         sodipodi:cy="39"
         sodipodi:cx="32"
         id="path3984"
         style="fill:#ffffff;fill-opacity:1;stroke:none"
         sodipodi:type="arc"
         transform="translate(0,-14)" />
      <path
         transform="translate(-7,-7)"
         sodipodi:type="arc"
         style="fill:#ffffff;fill-opacity:1;stroke:none"
         id="path3986"
         sodipodi:cx="32"
         sodipodi:cy="39"
         sodipodi:rx="1"
         sodipodi:ry="1"
         d="m 33,39 a 1,1 0 1 1 -2,0 1,1 0 1 1 2,0 z" />
      <path
         transform="translate(0,-2)"
         sodipodi:type="arc"
         style="opacity:0.5;fill:#ffffff;fill-opacity:1;stroke:none"
         id="path3988"
         sodipodi:cx="32"
         sodipodi:cy="39"
         sodipodi:rx="1"
         sodipodi:ry="1"
         d="m 33,39 a 1,1 0 1 1 -2,0 1,1 0 1 1 2,0 z" />
      <path
         d="m 33,39 a 1,1 0 1 1 -2,0 1,1 0 1 1 2,0 z"
         sodipodi:ry="1"
         sodipodi:rx="1"
         sodipodi:cy="39"
         sodipodi:cx="32"
         id="path3990"
         style="opacity:0.25;fill:#ffffff;fill-opacity:1;stroke:none"
         sodipodi:type="arc"
         transform="translate(0,-4)" />
      <path
         transform="translate(0,-10)"
         sodipodi:type="arc"
         style="opacity:0.25;fill:#ffffff;fill-opacity:1;stroke:none"
         id="path3992"
         sodipodi:cx="32"
         sodipodi:cy="39"
         sodipodi:rx="1"
         sodipodi:ry="1"
         d="m 33,39 a 1,1 0 1 1 -2,0 1,1 0 1 1 2,0 z" />
      <path
         d="m 33,39 a 1,1 0 1 1 -2,0 1,1 0 1 1 2,0 z"
         sodipodi:ry="1"
         sodipodi:rx="1"
         sodipodi:cy="39"
         sodipodi:cx="32"
         id="path3994"
         style="opacity:0.5;fill:#ffffff;fill-opacity:1;stroke:none"
         sodipodi:type="arc"
         transform="translate(0,-12)" />
      <path
         d="m 33,39 a 1,1 0 1 1 -2,0 1,1 0 1 1 2,0 z"
         sodipodi:ry="1"
         sodipodi:rx="1"
         sodipodi:cy="39"
         sodipodi:cx="32"
         id="path3996"
         style="opacity:0.5;fill:#ffffff;fill-opacity:1;stroke:none"
         sodipodi:type="arc"
         transform="translate(5,-7)" />
      <path
         transform="translate(3,-7)"
         sodipodi:type="arc"
         style="opacity:0.25;fill:#ffffff;fill-opacity:1;stroke:none"
         id="path3998"
         sodipodi:cx="32"
         sodipodi:cy="39"
         sodipodi:rx="1"
         sodipodi:ry="1"
         d="m 33,39 a 1,1 0 1 1 -2,0 1,1 0 1 1 2,0 z" />
      <path
         d="m 33,39 a 1,1 0 1 1 -2,0 1,1 0 1 1 2,0 z"
         sodipodi:ry="1"
         sodipodi:rx="1"
         sodipodi:cy="39"
         sodipodi:cx="32"
         id="path4000"
         style="opacity:0.25;fill:#ffffff;fill-opacity:1;stroke:none"
         sodipodi:type="arc"
         transform="translate(-3,-7)" />
      <path
         transform="translate(-5,-7)"
         sodipodi:type="arc"
         style="opacity:0.5;fill:#ffffff;fill-opacity:1;stroke:none"
         id="path4002"
         sodipodi:cx="32"
         sodipodi:cy="39"
         sodipodi:rx="1"
         sodipodi:ry="1"
         d="m 33,39 a 1,1 0 1 1 -2,0 1,1 0 1 1 2,0 z" />
    </g>
    <g
       transform="matrix(0.70710678,-0.70710678,0.70710678,0.70710678,0.207476,39.161796)"
       style="display:inline"
       id="g4004">
      <path
         sodipodi:type="arc"
         style="fill:#ffffff;fill-opacity:1;stroke:none"
         id="path4006"
         sodipodi:cx="32"
         sodipodi:cy="39"
         sodipodi:rx="1"
         sodipodi:ry="1"
         d="m 33,39 a 1,1 0 1 1 -2,0 1,1 0 1 1 2,0 z" />
      <path
         d="m 33,39 a 1,1 0 1 1 -2,0 1,1 0 1 1 2,0 z"
         sodipodi:ry="1"
         sodipodi:rx="1"
         sodipodi:cy="39"
         sodipodi:cx="32"
         id="path4008"
         style="fill:#ffffff;fill-opacity:1;stroke:none"
         sodipodi:type="arc"
         transform="translate(7,-7)" />
      <path
         transform="translate(0,-14)"
         sodipodi:type="arc"
         style="fill:#ffffff;fill-opacity:1;stroke:none"
         id="path4010"
         sodipodi:cx="32"
         sodipodi:cy="39"
         sodipodi:rx="1"
         sodipodi:ry="1"
         d="m 33,39 a 1,1 0 1 1 -2,0 1,1 0 1 1 2,0 z" />
      <path
         d="m 33,39 a 1,1 0 1 1 -2,0 1,1 0 1 1 2,0 z"
         sodipodi:ry="1"
         sodipodi:rx="1"
         sodipodi:cy="39"
         sodipodi:cx="32"
         id="path4012"
         style="fill:#ffffff;fill-opacity:1;stroke:none"
         sodipodi:type="arc"
         transform="translate(-7,-7)" />
      <path
         transform="translate(9,-7)"
         sodipodi:type="arc"
         style="opacity:0.5;fill:#ffffff;fill-opacity:1;stroke:none"
         id="path4014"
         sodipodi:cx="32"
         sodipodi:cy="39"
         sodipodi:rx="1"
         sodipodi:ry="1"
         d="m 33,39 a 1,1 0 1 1 -2,0 1,1 0 1 1 2,0 z" />
      <path
         d="m 33,39 a 1,1 0 1 1 -2,0 1,1 0 1 1 2,0 z"
         sodipodi:ry="1"
         sodipodi:rx="1"
         sodipodi:cy="39"
         sodipodi:cx="32"
         id="path4016"
         style="opacity:0.25;fill:#ffffff;fill-opacity:1;stroke:none"
         sodipodi:type="arc"
         transform="translate(11,-7)" />
      <path
         d="m 33,39 a 1,1 0 1 1 -2,0 1,1 0 1 1 2,0 z"
         sodipodi:ry="1"
         sodipodi:rx="1"
         sodipodi:cy="39"
         sodipodi:cx="32"
         id="path4018"
         style="opacity:0.5;fill:#ffffff;fill-opacity:1;stroke:none"
         sodipodi:type="arc"
         transform="translate(0,-16)" />
      <path
         transform="translate(0,-18)"
         sodipodi:type="arc"
         style="opacity:0.25;fill:#ffffff;fill-opacity:1;stroke:none"
         id="path4020"
         sodipodi:cx="32"
         sodipodi:cy="39"
         sodipodi:rx="1"
         sodipodi:ry="1"
         d="m 33,39 a 1,1 0 1 1 -2,0 1,1 0 1 1 2,0 z" />
      <path
         transform="translate(0,2)"
         d="m 33,39 a 1,1 0 1 1 -2,0 1,1 0 1 1 2,0 z"
         sodipodi:ry="1"
         sodipodi:rx="1"
         sodipodi:cy="39"
         sodipodi:cx="32"
         id="path4022"
         style="opacity:0.5;fill:#ffffff;fill-opacity:1;stroke:none"
         sodipodi:type="arc" />
      <path
         sodipodi:type="arc"
         style="opacity:0.25;fill:#ffffff;fill-opacity:1;stroke:none"
         id="path4024"
         sodipodi:cx="32"
         sodipodi:cy="39"
         sodipodi:rx="1"
         sodipodi:ry="1"
         d="m 33,39 a 1,1 0 1 1 -2,0 1,1 0 1 1 2,0 z"
         transform="translate(0,4)" />
      <path
         transform="translate(-9,-7)"
         sodipodi:type="arc"
         style="opacity:0.5;fill:#ffffff;fill-opacity:1;stroke:none"
         id="path4026"
         sodipodi:cx="32"
         sodipodi:cy="39"
         sodipodi:rx="1"
         sodipodi:ry="1"
         d="m 33,39 a 1,1 0 1 1 -2,0 1,1 0 1 1 2,0 z" />
      <path
         d="m 33,39 a 1,1 0 1 1 -2,0 1,1 0 1 1 2,0 z"
         sodipodi:ry="1"
         sodipodi:rx="1"
         sodipodi:cy="39"
         sodipodi:cx="32"
         id="path4028"
         style="opacity:0.25;fill:#ffffff;fill-opacity:1;stroke:none"
         sodipodi:type="arc"
         transform="translate(-11,-7)" />
    </g>
    <g
       style="display:inline"
       id="g3942"
       transform="translate(20.120058,7.358757)">
      <g
         id="g3945"
         transform="translate(-13.965359,25.986174)">
        <path
           style="opacity:0.25;fill:#ffffff;fill-opacity:1;stroke:none"
           d="m 31.03125,25.09375 c -3.086586,0.429717 -5.507783,2.850914 -5.9375,5.9375 C 25.597057,31.083371 26,31.48291 26,32 c 0,0.51709 -0.402943,0.916629 -0.90625,0.96875 0.429717,3.086586 2.850914,5.507783 5.9375,5.9375 C 31.083371,38.402943 31.48291,38 32,38 c 0.51709,0 0.916629,0.402943 0.96875,0.90625 3.086586,-0.429717 5.507783,-2.850914 5.9375,-5.9375 C 38.402943,32.916629 38,32.51709 38,32 c 0,-0.51709 0.402943,-0.916629 0.90625,-0.96875 -0.429717,-3.086586 -2.850914,-5.507783 -5.9375,-5.9375 C 32.916629,25.597057 32.51709,26 32,26 31.48291,26 31.083371,25.597057 31.03125,25.09375 z M 32,27 c 2.761424,0 5,2.238576 5,5 0,2.761424 -2.238576,5 -5,5 -2.761424,0 -5,-2.238576 -5,-5 0,-2.761424 2.238576,-5 5,-5 z"
           id="path3947"
           inkscape:connector-curvature="0" />
      </g>
    </g>
    <g
       style="display:inline"
       id="g3904"
       transform="translate(25.5,33.625)"
       inkscape:export-filename="/home/unfa/Projekty/Xonotic/Crosshairs/Set PNG/crosshairelectro.png"
       inkscape:export-xdpi="660"
       inkscape:export-ydpi="660">
      <path
         transform="matrix(0.8660254,-0.5,0.5,0.8660254,-5.650635,16.787187)"
         d="m 33,32 c 0,0.552285 -0.447715,1 -1,1 -0.552285,0 -1,-0.447715 -1,-1 0,-0.552285 0.447715,-1 1,-1 0.552285,0 1,0.447715 1,1 z m -14,0 c 0,0.552285 -0.447715,1 -1,1 -0.552285,0 -1,-0.447715 -1,-1 0,-0.552285 0.447715,-1 1,-1 0.552285,0 1,0.447715 1,1 z m 10,6.928203 C 28.521707,39.204346 27.910117,39.040471 27.633975,38.562178 27.357832,38.083885 27.521707,37.472295 28,37.196153 28.478293,36.92001 29.089883,37.083885 29.366025,37.562178 29.642168,38.040471 29.478293,38.652061 29,38.928203 z M 22,26.803847 C 21.521707,27.07999 20.910117,26.916115 20.633974,26.437822 20.357832,25.959529 20.521707,25.347939 21,25.071797 c 0.478293,-0.276143 1.089883,-0.112268 1.366025,0.366025 0.276143,0.478293 0.112268,1.089883 -0.366025,1.366025 z"
         style="fill:#ffffff;fill-opacity:1;stroke:none"
         id="path3922"
         inkscape:connector-curvature="0" />
      <g
         id="g3906">
        <path
           style="opacity:0.25;fill:#ffffff;fill-opacity:1;stroke:none"
           d="m 31.03125,25.09375 c -3.086586,0.429717 -5.507783,2.850914 -5.9375,5.9375 C 25.597057,31.083371 26,31.48291 26,32 c 0,0.51709 -0.402943,0.916629 -0.90625,0.96875 0.429717,3.086586 2.850914,5.507783 5.9375,5.9375 C 31.083371,38.402943 31.48291,38 32,38 c 0.51709,0 0.916629,0.402943 0.96875,0.90625 3.086586,-0.429717 5.507783,-2.850914 5.9375,-5.9375 C 38.402943,32.916629 38,32.51709 38,32 c 0,-0.51709 0.402943,-0.916629 0.90625,-0.96875 -0.429717,-3.086586 -2.850914,-5.507783 -5.9375,-5.9375 C 32.916629,25.597057 32.51709,26 32,26 31.48291,26 31.083371,25.597057 31.03125,25.09375 z M 32,27 c 2.761424,0 5,2.238576 5,5 0,2.761424 -2.238576,5 -5,5 -2.761424,0 -5,-2.238576 -5,-5 0,-2.761424 2.238576,-5 5,-5 z"
           id="path3908"
           inkscape:connector-curvature="0" />
      </g>
      <path
         id="path3910"
         d="m 33,32 c 0,0.552285 -0.447715,1 -1,1 -0.552285,0 -1,-0.447715 -1,-1 0,-0.552285 0.447715,-1 1,-1 0.552285,0 1,0.447715 1,1 z"
         style="fill:#ffffff;fill-opacity:1;stroke:none"
         transform="translate(-7,0)"
         inkscape:connector-curvature="0" />
      <path
         id="path3912"
         d="m 33,32 c 0,0.552285 -0.447715,1 -1,1 -0.552285,0 -1,-0.447715 -1,-1 0,-0.552285 0.447715,-1 1,-1 0.552285,0 1,0.447715 1,1 z"
         style="fill:#ffffff;fill-opacity:1;stroke:none"
         transform="translate(7,0)"
         inkscape:connector-curvature="0" />
    </g>
    <g
       style="display:inline"
       id="g3926"
       transform="translate(46.25,33.5)"
       inkscape:export-filename="/home/unfa/Projekty/Xonotic/Crosshairs/Set PNG/crosshairrocketlauncher.png"
       inkscape:export-xdpi="815.59308"
       inkscape:export-ydpi="815.59308">
      <path
         transform="matrix(0.8660254,-0.5,0.5,0.8660254,-5.650635,16.787187)"
         d="m 33,32 c 0,0.552285 -0.447715,1 -1,1 -0.552285,0 -1,-0.447715 -1,-1 0,-0.552285 0.447715,-1 1,-1 0.552285,0 1,0.447715 1,1 z m -14,0 c 0,0.552285 -0.447715,1 -1,1 -0.552285,0 -1,-0.447715 -1,-1 0,-0.552285 0.447715,-1 1,-1 0.552285,0 1,0.447715 1,1 z m 10,6.928203 C 28.521707,39.204346 27.910117,39.040471 27.633975,38.562178 27.357832,38.083885 27.521707,37.472295 28,37.196153 28.478293,36.92001 29.089883,37.083885 29.366025,37.562178 29.642168,38.040471 29.478293,38.652061 29,38.928203 z M 22,26.803847 C 21.521707,27.07999 20.910117,26.916115 20.633974,26.437822 20.357832,25.959529 20.521707,25.347939 21,25.071797 c 0.478293,-0.276143 1.089883,-0.112268 1.366025,0.366025 0.276143,0.478293 0.112268,1.089883 -0.366025,1.366025 z"
         style="fill:#ffffff;fill-opacity:1;stroke:none"
         id="path3941"
         inkscape:connector-curvature="0" />
      <path
         id="path3943"
         style="fill:#ffffff;fill-opacity:1;stroke:none"
         d="M 36,38.928203 C 35.521707,39.204346 34.910117,39.04047 34.633975,38.562178 34.357832,38.083885 34.521707,37.472295 35,37.196152 35.478293,36.92001 36.089883,37.083885 36.366025,37.562178 36.642168,38.04047 36.478293,38.652061 36,38.928203 z M 29,26.803847 C 28.521707,27.07999 27.910117,26.916115 27.633975,26.437822 27.357832,25.959529 27.521707,25.347939 28,25.071797 28.478293,24.795654 29.089883,24.959529 29.366025,25.437822 29.642168,25.916115 29.478293,26.527705 29,26.803847 z M 28,38.928203 C 27.521707,38.652061 27.357832,38.040471 27.633975,37.562178 27.910117,37.083885 28.521707,36.92001 29,37.196153 c 0.478293,0.276142 0.642168,0.887732 0.366025,1.366024 C 29.089883,39.040471 28.478293,39.204346 28,38.928203 z M 35,26.803847 C 34.521707,26.527705 34.357832,25.916115 34.633974,25.437821 34.910117,24.959529 35.521707,24.795654 36,25.071797 c 0.478293,0.276142 0.642168,0.887732 0.366025,1.366025 C 36.089883,26.916115 35.478293,27.07999 35,26.803847 z"
         inkscape:connector-curvature="0" />
      <g
         id="g3928">
        <path
           style="opacity:0.25;fill:#ffffff;fill-opacity:1;stroke:none"
           d="m 31.03125,25.09375 c -3.086586,0.429717 -5.507783,2.850914 -5.9375,5.9375 C 25.597057,31.083371 26,31.48291 26,32 c 0,0.51709 -0.402943,0.916629 -0.90625,0.96875 0.429717,3.086586 2.850914,5.507783 5.9375,5.9375 C 31.083371,38.402943 31.48291,38 32,38 c 0.51709,0 0.916629,0.402943 0.96875,0.90625 3.086586,-0.429717 5.507783,-2.850914 5.9375,-5.9375 C 38.402943,32.916629 38,32.51709 38,32 c 0,-0.51709 0.402943,-0.916629 0.90625,-0.96875 -0.429717,-3.086586 -2.850914,-5.507783 -5.9375,-5.9375 C 32.916629,25.597057 32.51709,26 32,26 31.48291,26 31.083371,25.597057 31.03125,25.09375 z M 32,27 c 2.761424,0 5,2.238576 5,5 0,2.761424 -2.238576,5 -5,5 -2.761424,0 -5,-2.238576 -5,-5 0,-2.761424 2.238576,-5 5,-5 z"
           id="path3930"
           inkscape:connector-curvature="0" />
      </g>
    </g>
    <g
       style="display:inline"
       id="g3619"
       transform="translate(-78.409903,8.221194)">
      <path
         sodipodi:type="arc"
         style="opacity:0.5;fill:#ffffff;fill-opacity:1;stroke:none"
         id="path3621"
         sodipodi:cx="32"
         sodipodi:cy="39"
         sodipodi:rx="1"
         sodipodi:ry="1"
         d="m 33,39 a 1,1 0 1 1 -2,0 1,1 0 1 1 2,0 z" />
      <path
         d="m 33,39 a 1,1 0 1 1 -2,0 1,1 0 1 1 2,0 z"
         sodipodi:ry="1"
         sodipodi:rx="1"
         sodipodi:cy="39"
         sodipodi:cx="32"
         id="path3623"
         style="opacity:0.5;fill:#ffffff;fill-opacity:1;stroke:none"
         sodipodi:type="arc"
         transform="translate(7,-7)" />
      <path
         transform="translate(0,-14)"
         sodipodi:type="arc"
         style="opacity:0.5;fill:#ffffff;fill-opacity:1;stroke:none"
         id="path3625"
         sodipodi:cx="32"
         sodipodi:cy="39"
         sodipodi:rx="1"
         sodipodi:ry="1"
         d="m 33,39 a 1,1 0 1 1 -2,0 1,1 0 1 1 2,0 z" />
      <path
         d="m 33,39 a 1,1 0 1 1 -2,0 1,1 0 1 1 2,0 z"
         sodipodi:ry="1"
         sodipodi:rx="1"
         sodipodi:cy="39"
         sodipodi:cx="32"
         id="path3627"
         style="opacity:0.5;fill:#ffffff;fill-opacity:1;stroke:none"
         sodipodi:type="arc"
         transform="translate(-7,-7)" />
    </g>
  </g>
  <g
     inkscape:groupmode="layer"
     id="layer2"
     inkscape:label="Workspace"
     style="display:inline" />
</svg>
