<?xml version="1.0" encoding="UTF-8"?>
<svg xmlns="http://www.w3.org/2000/svg" version="1.1" width="64" height="64">
	<defs>
		<clipPath id="clip">
			<rect x="0" y="0" width="26" height="26"/>
			<rect y="0" x="38" width="26" height="26"/>
			<rect x="38" y="38" width="26" height="26"/>
			<rect y="38" x="0" width="26" height="26"/>
		</clipPath>
	</defs>
	<g style="filter:url(common.filters#shadow)">
		<circle style="fill:none;stroke:#fff;stroke-width:2" clip-path="url(#clip)" cx="32" cy="32" r="23"/>
	</g>
</svg>
