version 1
nodes
0 "origin" -1
1 "weapon" 0
2 "shot" 1
3 "shell" 1
end
skeleton
time 0
0  0.000000 0.000000 0.000000  0.000000 -0.000000 0.000000
1  3.595216 -6.988966 -15.212314  0.000000 -0.000000 -0.000609
2  26.195436 0.561191 4.577767  0.000000 -0.000000 0.000598
3  13.082526 -1.578972 4.955914  0.000000 -0.000000 0.000609
end
triangles
nodraw
0  -0.989949 0.000000 0.000000  0.000000 0.000000 1.000000  0.000000 1.000000 1 0 1.000000
0  0.000000 -0.989949 0.000000  0.000000 0.000000 1.000000  0.000000 0.000000 1 0 1.000000
0  0.000000 0.989949 0.000000  0.000000 0.000000 1.000000  1.000000 1.000000 1 0 1.000000
nodraw
0  0.000000 -0.989949 0.000000  0.000000 0.000000 1.000000  0.000000 0.000000 1 0 1.000000
0  0.989949 0.000000 0.000000  0.000000 0.000000 1.000000  1.000000 0.000000 1 0 1.000000
0  0.000000 0.989949 0.000000  0.000000 0.000000 1.000000  1.000000 1.000000 1 0 1.000000
end
