version 1
nodes
  0 "Bone01"  -1
  1 "Bone03"   0
  2 "Bone02"   0
  3 "Group03"  -1
  4 "scopescreen"   3
  5 "default"   3
end
skeleton
time 0
  0 0.000000 0.000000 0.000000 1.570796 0.000000 0.000000
  1 8.300574 5.094661 0.000003 1.570796 0.000000 0.000000
  2 52.063595 9.633454 -0.000002 1.570796 0.000000 0.000000
  3 15.801064 0.000000 5.432989 0.000000 0.000000 0.000000
  4 -28.489891 0.000000 12.316710 -1.570796 3.141593 1.570796
  5 3.189212 0.000009 -0.023490 0.000000 0.000000 3.141593
time 1
  0 -0.255622 0.000000 -0.776595 1.575921 -0.060304 0.032400
  1 8.300574 5.094661 0.000003 1.570796 0.000000 0.000000
  2 52.063595 9.633454 -0.000002 1.570796 0.000000 0.000000
  3 15.801064 0.000000 5.432989 0.000000 0.000000 0.000000
  4 -28.489891 0.000000 12.316710 -1.570796 3.141593 1.570796
  5 3.189212 0.000009 -0.023490 0.000000 0.000000 3.141593
time 2
  0 -0.894676 0.000000 -2.718081 1.588734 -0.211065 0.113400
  1 8.300574 5.094662 0.000003 1.570796 0.000000 0.000000
  2 52.063591 9.633455 -0.000002 1.570796 0.000000 0.000000
  3 15.801064 0.000000 5.432989 0.000000 0.000000 0.000000
  4 -28.489891 0.000000 12.316710 -1.570796 3.141593 1.570796
  5 3.189212 0.000009 -0.023490 0.000000 0.000000 3.141593
time 3
  0 -1.725447 0.000000 -5.242014 1.605390 -0.407054 0.218700
  1 8.300573 5.094661 0.000003 1.570796 0.000000 0.000000
  2 52.063587 9.633453 -0.000003 1.570796 0.000000 0.000000
  3 15.801064 0.000000 5.432989 0.000000 0.000000 0.000000
  4 -28.489891 0.000000 12.316710 -1.570796 3.141593 1.570796
  5 3.189212 0.000009 -0.023490 0.000000 0.000000 3.141593
time 4
  0 -2.556218 0.000000 -7.765946 1.622046 -0.603042 0.324001
  1 8.300573 5.094660 0.000003 1.570796 0.000000 0.000000
  2 52.063591 9.633450 -0.000002 1.570796 0.000000 0.000000
  3 15.801064 0.000000 5.432989 0.000000 0.000000 0.000000
  4 -28.489891 0.000000 12.316710 -1.570796 3.141593 1.570796
  5 3.189212 0.000009 -0.023490 0.000000 0.000000 3.141593
time 5
  0 -3.195272 0.000000 -9.707434 1.634858 -0.753803 0.405001
  1 8.300575 5.094662 0.000004 1.570796 0.000000 0.000001
  2 52.063599 9.633456 -0.000000 1.570796 0.000000 0.000000
  3 15.801064 0.000000 5.432989 0.000000 0.000000 0.000000
  4 -28.489891 0.000000 12.316710 -1.570796 3.141593 1.570796
  5 3.189212 0.000009 -0.023490 0.000000 0.000000 3.141593
time 6
  0 -3.450894 0.000000 -10.484028 1.639983 -0.814107 0.437401
  1 8.300574 5.094662 0.000003 1.570796 0.000000 0.000000
  2 52.063595 9.633456 -0.000003 1.570796 0.000000 0.000000
  3 15.801064 0.000000 5.432989 0.000000 0.000000 0.000000
  4 -28.489891 0.000000 12.316710 -1.570796 3.141593 1.570796
  5 3.189212 0.000009 -0.023490 0.000000 0.000000 3.141593
time 7
  0 -3.450894 0.000000 -10.484028 1.633916 -0.812902 0.425856
  1 8.300574 5.094661 0.000004 1.570796 0.000000 0.000000
  2 52.063591 9.633453 0.000001 1.570796 0.000000 0.000000
  3 15.801064 0.000000 5.432989 0.000000 0.000000 0.000000
  4 -28.489891 0.000000 12.316710 -1.570796 3.141593 1.570796
  5 3.189212 0.000009 -0.023490 0.000000 0.000000 3.141593
time 8
  0 -3.450894 0.000000 -10.484028 1.620568 -0.809948 0.400456
  1 8.300574 5.094661 0.000003 1.570796 0.000000 0.000000
  2 52.063591 9.633453 -0.000001 1.570796 0.000000 0.000000
  3 15.801064 0.000000 5.432989 0.000000 0.000000 0.000000
  4 -28.489891 0.000000 12.316710 -1.570796 3.141593 1.570796
  5 3.189212 0.000009 -0.023490 0.000000 0.000000 3.141593
time 9
  0 -3.450894 0.000000 -10.484028 1.607220 -0.806235 0.375057
  1 8.300573 5.094662 0.000003 1.570796 0.000000 0.000000
  2 52.063591 9.633457 -0.000005 1.570796 0.000000 0.000000
  3 15.801064 0.000000 5.432989 0.000000 0.000000 0.000000
  4 -28.489891 0.000000 12.316710 -1.570796 3.141593 1.570796
  5 3.189212 0.000009 -0.023490 0.000000 0.000000 3.141593
time 10
  0 -3.450894 0.000000 -10.484028 1.601153 -0.802753 0.363511
  1 8.300574 5.094662 0.000003 1.570796 0.000000 0.000000
  2 52.063595 9.633459 -0.000004 1.570796 0.000000 0.000000
  3 15.801064 0.000000 5.432989 0.000000 0.000000 0.000000
  4 -28.489891 0.000000 12.316710 -1.570796 3.141593 1.570796
  5 3.189212 0.000009 -0.023490 0.000000 0.000000 3.141593
time 11
  0 -4.037897 0.000001 -11.523107 1.602892 -0.799421 0.364905
  1 8.300573 5.094662 0.000003 1.570796 0.000000 0.000000
  2 52.063591 9.633454 -0.000003 1.570796 0.000000 0.000000
  3 15.801064 0.000000 5.432989 0.000000 0.000000 0.000000
  4 -28.489891 0.000000 12.316710 -1.570796 3.141593 1.570796
  5 3.189212 0.000009 -0.023490 0.000000 0.000000 3.141593
time 12
  0 -4.624899 0.000001 -12.562185 1.607613 -0.795625 0.368687
  1 8.300574 5.094662 0.000003 1.570796 0.000000 0.000000
  2 52.063591 9.633457 -0.000004 1.570796 0.000000 0.000000
  3 15.801064 0.000000 5.432989 0.000000 0.000000 0.000000
  4 -28.489891 0.000000 12.316710 -1.570796 3.141593 1.570796
  5 3.189212 0.000009 -0.023490 0.000000 0.000000 3.141593
time 13
  0 -4.558545 0.000001 -12.333070 1.614570 -0.791558 0.374261
  1 8.300575 5.094662 0.000003 1.570796 0.000000 0.000000
  2 52.063595 9.633458 -0.000004 1.570796 0.000000 0.000000
  3 15.801064 0.000000 5.432989 0.000000 0.000000 0.000000
  4 -28.489891 0.000000 12.316710 -1.570796 3.141593 1.570796
  5 3.189212 0.000009 -0.023490 0.000000 0.000000 3.141593
time 14
  0 -4.388371 0.000001 -11.750100 1.623018 -0.787412 0.381029
  1 8.300573 5.094662 0.000003 1.570796 0.000001 0.000000
  2 52.063591 9.633454 -0.000002 1.570796 0.000000 0.000000
  3 15.801064 0.000000 5.432989 0.000000 0.000000 0.000000
  4 -28.489891 0.000000 12.316710 -1.570796 3.141593 1.570796
  5 3.189212 0.000009 -0.023490 0.000000 0.000000 3.141593
time 15
  0 -4.157711 0.000001 -10.969841 1.632212 -0.783377 0.388395
  1 8.300574 5.094663 0.000003 1.570796 0.000000 0.000000
  2 52.063595 9.633461 -0.000003 1.570796 0.000000 0.000000
  3 15.801064 0.000000 5.432989 0.000000 0.000000 0.000000
  4 -28.489891 0.000000 12.316710 -1.570796 3.141593 1.570796
  5 3.189212 0.000009 -0.023490 0.000000 0.000000 3.141593
time 16
  0 -3.909896 0.000000 -10.148855 1.641405 -0.779646 0.395760
  1 8.300574 5.094662 0.000003 1.570796 0.000000 0.000000
  2 52.063591 9.633458 -0.000002 1.570796 0.000000 0.000000
  3 15.801064 0.000000 5.432989 0.000000 0.000000 0.000000
  4 -28.489891 0.000000 12.316710 -1.570796 3.141593 1.570796
  5 3.189212 0.000009 -0.023490 0.000000 0.000000 3.141593
time 17
  0 -3.688261 0.000000 -9.443709 1.649853 -0.776410 0.402528
  1 8.300574 5.094662 0.000003 1.570796 0.000001 0.000000
  2 52.063595 9.633454 -0.000004 1.570796 0.000000 0.000000
  3 15.801064 0.000000 5.432989 0.000000 0.000000 0.000000
  4 -28.489891 0.000000 12.316710 -1.570796 3.141593 1.570796
  5 3.189212 0.000009 -0.023490 0.000000 0.000000 3.141593
time 18
  0 -3.500279 0.000000 -8.858235 1.656811 -0.773862 0.408102
  1 8.300573 5.094662 0.000003 1.570796 0.000000 0.000000
  2 52.063591 9.633457 -0.000002 1.570796 0.000000 0.000000
  3 15.801064 0.000000 5.432989 0.000000 0.000000 0.000000
  4 -28.489891 0.000000 12.316710 -1.570796 3.141593 1.570796
  5 3.189212 0.000009 -0.023490 0.000000 0.000000 3.141593
time 19
  0 -3.304772 0.000000 -8.304603 1.661532 -0.772192 0.411884
  1 8.300573 5.094662 0.000003 1.570796 0.000000 0.000000
  2 52.063591 9.633456 -0.000003 1.570796 0.000000 0.000000
  3 15.801064 0.000000 5.432989 0.000000 0.000000 0.000000
  4 -28.489891 0.000000 12.316710 -1.570796 3.141593 1.570796
  5 3.189212 0.000009 -0.023490 0.000000 0.000000 3.141593
time 20
  0 -3.072090 0.000000 -7.801878 1.663271 -0.771593 0.413278
  1 8.300574 5.094662 0.000004 1.570796 0.000000 0.000000
  2 52.063591 9.633458 -0.000001 1.570796 0.000000 0.000000
  3 15.801064 0.000000 5.432989 0.000000 0.000000 0.000000
  4 -28.489891 0.000000 12.316710 -1.570796 3.141593 1.570796
  5 3.189212 0.000009 -0.023490 0.000000 0.000000 3.141593
time 21
  0 -2.662009 0.756953 -7.327776 1.663271 -0.771593 0.413278
  1 8.300574 5.094662 0.000004 1.570796 0.000000 0.000000
  2 52.063595 9.633458 -0.000000 1.570796 0.000000 0.000000
  3 15.801064 0.000000 5.432989 0.000000 0.000000 0.000000
  4 -28.489891 0.000000 12.316710 -1.570796 3.141593 1.570796
  5 3.189212 0.000009 -0.023490 0.000000 0.000000 3.141593
time 22
  0 -2.382504 1.513906 -7.089131 1.663271 -0.771593 0.413278
  1 8.300574 5.094662 0.000004 1.570796 0.000000 0.000000
  2 52.063591 9.633457 -0.000001 1.570796 0.000000 0.000000
  3 15.801064 0.000000 5.432989 0.000000 0.000000 0.000000
  4 -28.489891 0.000000 12.316710 -1.570796 3.141593 1.570796
  5 3.189212 0.000009 -0.023490 0.000000 0.000000 3.141593
time 23
  0 -2.561285 1.121412 -7.273918 1.663271 -0.771593 0.413278
  1 8.300574 5.094662 0.000004 1.570796 0.000000 0.000000
  2 52.063591 9.633456 -0.000000 1.570796 0.000000 0.000000
  3 15.801064 0.000000 5.432989 0.000000 0.000000 0.000000
  4 -28.489891 0.000000 12.316710 -1.570796 3.141593 1.570796
  5 3.189212 0.000009 -0.023490 0.000000 0.000000 3.141593
time 24
  0 -2.893308 0.392494 -7.617092 1.663271 -0.771593 0.413278
  1 8.300574 5.094662 0.000004 1.570796 0.000000 0.000000
  2 52.063591 9.633456 -0.000001 1.570796 0.000000 0.000000
  3 15.801064 0.000000 5.432989 0.000000 0.000000 0.000000
  4 -28.489891 0.000000 12.316710 -1.570796 3.141593 1.570796
  5 3.189212 0.000009 -0.023490 0.000000 0.000000 3.141593
time 25
  0 -3.072090 0.000000 -7.801878 1.663271 -0.771593 0.413278
  1 8.300574 5.094662 0.000004 1.570796 0.000000 0.000000
  2 52.063591 9.633458 -0.000001 1.570796 0.000000 0.000000
  3 15.801064 0.000000 5.432989 0.000000 0.000000 0.000000
  4 -28.489891 0.000000 12.316710 -1.570796 3.141593 1.570796
  5 3.189212 0.000009 -0.023490 0.000000 0.000000 3.141593
time 26
  0 -3.057737 0.000000 -7.765428 1.664660 -0.770800 0.414391
  1 8.300574 5.094662 0.000003 1.570796 0.000000 0.000000
  2 52.063591 9.633454 -0.000003 1.570796 0.000000 0.000000
  3 15.801064 0.000000 5.432989 0.000000 0.000000 0.000000
  4 -28.489891 0.000000 12.316710 -1.570796 3.141593 1.570796
  5 3.189212 0.000009 -0.023490 0.000000 0.000000 3.141593
time 27
  0 -3.016252 0.000000 -7.660071 1.668134 -0.768048 0.417174
  1 8.300574 5.094662 0.000003 1.570796 0.000000 0.000000
  2 52.063595 9.633455 -0.000003 1.570796 0.000000 0.000001
  3 15.801064 0.000000 5.432989 0.000000 0.000000 0.000000
  4 -28.489891 0.000000 12.316710 -1.570796 3.141593 1.570796
  5 3.189212 0.000009 -0.023490 0.000000 0.000000 3.141593
time 28
  0 -2.949993 0.000000 -7.491800 1.672650 -0.762771 0.420792
  1 8.300574 5.094662 0.000003 1.570796 0.000000 0.000000
  2 52.063595 9.633454 -0.000002 1.570796 0.000000 0.000000
  3 15.801064 0.000000 5.432989 0.000000 0.000000 0.000000
  4 -28.489891 0.000000 12.316710 -1.570796 3.141593 1.570796
  5 3.189212 0.000009 -0.023490 0.000000 0.000000 3.141593
time 29
  0 -2.861320 0.000000 -7.266607 1.677166 -0.754404 0.424410
  1 8.300573 5.094662 0.000004 1.570796 0.000000 0.000000
  2 52.063595 9.633456 -0.000000 1.570796 0.000000 0.000000
  3 15.801064 0.000000 5.432989 0.000000 0.000000 0.000000
  4 -28.489891 0.000000 12.316710 -1.570796 3.141593 1.570796
  5 3.189212 0.000009 -0.023490 0.000000 0.000000 3.141593
time 30
  0 -2.752593 0.000000 -6.990483 1.680639 -0.742385 0.427193
  1 8.300573 5.094661 0.000004 1.570796 0.000000 0.000001
  2 52.063591 9.633455 -0.000001 1.570796 0.000000 0.000001
  3 15.801064 0.000000 5.432989 0.000000 0.000000 0.000000
  4 -28.489891 0.000000 12.316710 -1.570796 3.141593 1.570796
  5 3.189212 0.000009 -0.023490 0.000000 0.000000 3.141593
time 31
  0 -2.626170 0.000000 -6.669420 1.682029 -0.726149 0.428306
  1 8.300573 5.094661 0.000003 1.570796 0.000000 0.000000
  2 52.063591 9.633451 -0.000003 1.570796 0.000001 0.000000
  3 15.801064 0.000000 5.432989 0.000000 0.000000 0.000000
  4 -28.489891 0.000000 12.316710 -1.570796 3.141593 1.570796
  5 3.189212 0.000009 -0.023490 0.000000 0.000000 3.141593
time 32
  0 -2.484412 0.000000 -6.309410 1.681137 -0.703693 0.424871
  1 8.300574 5.094662 0.000004 1.570796 0.000000 0.000000
  2 52.063595 9.633457 0.000002 1.570796 0.000000 0.000000
  3 15.801064 0.000000 5.432989 0.000000 0.000000 0.000000
  4 -28.489891 0.000000 12.316710 -1.570796 3.141593 1.570796
  5 3.189212 0.000009 -0.023490 0.000000 0.000000 3.141593
time 33
  0 -2.329677 0.000000 -5.916445 1.678591 -0.674032 0.415068
  1 8.300573 5.094662 0.000003 1.570796 0.000000 0.000001
  2 52.063595 9.633459 -0.000000 1.570796 0.000000 0.000000
  3 15.801064 0.000000 5.432989 0.000000 0.000000 0.000000
  4 -28.489891 0.000000 12.316710 -1.570796 3.141593 1.570796
  5 3.189212 0.000009 -0.023490 0.000000 0.000000 3.141593
time 34
  0 -2.164325 0.000000 -5.496517 1.674585 -0.638128 0.399644
  1 8.300573 5.094662 0.000003 1.570796 0.000000 0.000001
  2 52.063595 9.633458 -0.000001 1.570796 0.000000 0.000001
  3 15.801064 0.000000 5.432989 0.000000 0.000000 0.000000
  4 -28.489891 0.000000 12.316710 -1.570796 3.141593 1.570796
  5 3.189212 0.000009 -0.023490 0.000000 0.000000 3.141593
time 35
  0 -1.990714 0.000000 -5.055617 1.669315 -0.596944 0.379350
  1 8.300573 5.094662 0.000003 1.570796 0.000000 0.000000
  2 52.063587 9.633454 -0.000002 1.570796 0.000000 0.000000
  3 15.801064 0.000000 5.432989 0.000000 0.000000 0.000000
  4 -28.489891 0.000000 12.316710 -1.570796 3.141593 1.570796
  5 3.189212 0.000009 -0.023490 0.000000 0.000000 3.141593
time 36
  0 -1.811206 0.000000 -4.599738 1.662974 -0.551443 0.354934
  1 8.300573 5.094661 0.000004 1.570796 0.000000 0.000000
  2 52.063591 9.633451 -0.000001 1.570796 0.000000 0.000000
  3 15.801064 0.000000 5.432989 0.000000 0.000000 0.000000
  4 -28.489891 0.000000 12.316710 -1.570796 3.141593 1.570796
  5 3.189212 0.000009 -0.023490 0.000000 0.000000 3.141593
time 37
  0 -1.628159 0.000000 -4.134871 1.655757 -0.502586 0.327146
  1 8.300574 5.094662 0.000003 1.570796 0.000000 0.000000
  2 52.063591 9.633455 -0.000002 1.570796 0.000000 0.000000
  3 15.801064 0.000000 5.432989 0.000000 0.000000 0.000000
  4 -28.489891 0.000000 12.316710 -1.570796 3.141593 1.570796
  5 3.189212 0.000009 -0.023490 0.000000 0.000000 3.141593
time 38
  0 -1.443932 0.000000 -3.667008 1.647859 -0.451336 0.296736
  1 8.300574 5.094661 0.000003 1.570796 0.000000 0.000000
  2 52.063595 9.633453 -0.000003 1.570796 0.000000 0.000000
  3 15.801064 0.000000 5.432989 0.000000 0.000000 0.000000
  4 -28.489891 0.000000 12.316710 -1.570796 3.141593 1.570796
  5 3.189212 0.000009 -0.023490 0.000000 0.000000 3.141593
time 39
  0 -1.260884 0.000000 -3.202141 1.639475 -0.398656 0.264452
  1 8.300574 5.094661 0.000003 1.570796 0.000000 0.000001
  2 52.063595 9.633454 -0.000002 1.570796 0.000000 0.000001
  3 15.801064 0.000000 5.432989 0.000000 0.000000 0.000000
  4 -28.489891 0.000000 12.316710 -1.570796 3.141593 1.570796
  5 3.189212 0.000009 -0.023490 0.000000 0.000000 3.141593
time 40
  0 -1.081376 0.000000 -2.746261 1.630799 -0.345508 0.231044
  1 8.300574 5.094662 0.000003 1.570796 0.000000 0.000000
  2 52.063591 9.633458 -0.000004 1.570796 0.000000 0.000000
  3 15.801064 0.000000 5.432989 0.000000 0.000000 0.000000
  4 -28.489891 0.000000 12.316710 -1.570796 3.141593 1.570796
  5 3.189212 0.000009 -0.023490 0.000000 0.000000 3.141593
time 41
  0 -0.907766 0.000000 -2.305361 1.622026 -0.292854 0.197262
  1 8.300574 5.094661 0.000004 1.570796 0.000000 0.000000
  2 52.063591 9.633453 -0.000001 1.570796 0.000000 0.000000
  3 15.801064 0.000000 5.432989 0.000000 0.000000 0.000000
  4 -28.489891 0.000000 12.316710 -1.570796 3.141593 1.570796
  5 3.189212 0.000009 -0.023490 0.000000 0.000000 3.141593
time 42
  0 -0.742414 0.000000 -1.885433 1.613350 -0.241656 0.163854
  1 8.300574 5.094661 0.000003 1.570796 0.000000 0.000000
  2 52.063595 9.633453 -0.000001 1.570796 0.000000 0.000000
  3 15.801064 0.000000 5.432989 0.000000 0.000000 0.000000
  4 -28.489891 0.000000 12.316710 -1.570796 3.141593 1.570796
  5 3.189212 0.000009 -0.023490 0.000000 0.000000 3.141593
time 43
  0 -0.587679 0.000000 -1.492468 1.604965 -0.192877 0.131570
  1 8.300573 5.094661 0.000003 1.570796 0.000000 0.000000
  2 52.063591 9.633455 -0.000002 1.570796 0.000000 0.000000
  3 15.801064 0.000000 5.432989 0.000000 0.000000 0.000000
  4 -28.489891 0.000000 12.316710 -1.570796 3.141593 1.570796
  5 3.189212 0.000009 -0.023490 0.000000 0.000000 3.141593
time 44
  0 -0.445920 0.000000 -1.132458 1.597068 -0.147480 0.101160
  1 8.300574 5.094662 0.000003 1.570796 0.000000 0.000000
  2 52.063595 9.633454 -0.000002 1.570796 0.000000 0.000000
  3 15.801064 0.000000 5.432989 0.000000 0.000000 0.000000
  4 -28.489891 0.000000 12.316710 -1.570796 3.141593 1.570796
  5 3.189212 0.000009 -0.023490 0.000000 0.000000 3.141593
time 45
  0 -0.319497 0.000000 -0.811395 1.589851 -0.106427 0.073372
  1 8.300574 5.094661 0.000003 1.570796 0.000000 0.000000
  2 52.063595 9.633453 -0.000002 1.570796 0.000000 0.000000
  3 15.801064 0.000000 5.432989 0.000000 0.000000 0.000000
  4 -28.489891 0.000000 12.316710 -1.570796 3.141593 1.570796
  5 3.189212 0.000009 -0.023490 0.000000 0.000000 3.141593
time 46
  0 -0.210770 0.000000 -0.535271 1.583511 -0.070679 0.048956
  1 8.300573 5.094661 0.000003 1.570796 0.000000 0.000000
  2 52.063591 9.633455 -0.000002 1.570796 0.000000 0.000000
  3 15.801064 0.000000 5.432989 0.000000 0.000000 0.000000
  4 -28.489891 0.000000 12.316710 -1.570796 3.141593 1.570796
  5 3.189212 0.000009 -0.023490 0.000000 0.000000 3.141593
time 47
  0 -0.122097 0.000000 -0.310078 1.578240 -0.041201 0.028662
  1 8.300573 5.094662 0.000003 1.570796 0.000000 0.000000
  2 52.063591 9.633455 -0.000002 1.570796 0.000000 0.000000
  3 15.801064 0.000000 5.432989 0.000000 0.000000 0.000000
  4 -28.489891 0.000000 12.316710 -1.570796 3.141593 1.570796
  5 3.189212 0.000009 -0.023490 0.000000 0.000000 3.141593
time 48
  0 -0.055838 0.000000 -0.141807 1.574234 -0.018953 0.013238
  1 8.300573 5.094661 0.000003 1.570796 0.000000 0.000000
  2 52.063591 9.633455 -0.000002 1.570796 0.000000 0.000000
  3 15.801064 0.000000 5.432989 0.000000 0.000000 0.000000
  4 -28.489891 0.000000 12.316710 -1.570796 3.141593 1.570796
  5 3.189212 0.000009 -0.023490 0.000000 0.000000 3.141593
time 49
  0 -0.014353 0.000000 -0.036450 1.571688 -0.004899 0.003434
  1 8.300574 5.094662 0.000003 1.570796 0.000000 0.000000
  2 52.063599 9.633454 -0.000002 1.570796 0.000000 0.000000
  3 15.801064 0.000000 5.432989 0.000000 0.000000 0.000000
  4 -28.489891 0.000000 12.316710 -1.570796 3.141593 1.570796
  5 3.189212 0.000009 -0.023490 0.000000 0.000000 3.141593
time 50
  0 0.000000 0.000000 0.000000 1.570796 0.000000 0.000000
  1 8.300574 5.094661 0.000003 1.570796 0.000000 0.000000
  2 52.063595 9.633454 -0.000002 1.570796 0.000000 0.000000
  3 15.801064 0.000000 5.432989 0.000000 0.000000 0.000000
  4 -28.489891 0.000000 12.316710 -1.570796 3.141593 1.570796
  5 3.189212 0.000009 -0.023490 0.000000 0.000000 3.141593
end
