<?xml version="1.0" encoding="UTF-8"?>
<?xml-stylesheet href="common.css" type="text/css"?>
<svg xmlns="http://www.w3.org/2000/svg" width="256" height="256" version="1.1">
	<path class="invisibility shining" d="m 14.19,126.1 c 12.54,23.37 30.59,40.66 51.87,51.87 l -13.3,13.3 13.68,13.87 L 206.85,64.73 193.17,50.86 175.31,68.72 C 159.35,62.45 142.63,59.41 126.005,59.505 81.45,59.79 37.56,82.4 14.19,126.1 Z m 114,-55.67 c 12.73,0 24.51,4.18 33.82,11.4 l -78.28,78.28 c -7.22,-9.31 -11.4,-21.09 -11.4,-33.82 0,-30.78 24.89,-55.86 55.86,-55.86 z m 54.91,45.6 c 0.57,3.23 0.76,6.65 0.76,10.26 0,30.78 -24.89,55.86 -55.86,55.86 -3.61,0 -6.84,-0.38 -10.26,-0.95 l -10.45,10.45 c 6.08,0.76 12.16,1.52 18.43,1.52 44.65,0.38 89.87,-21.66 116.09,-66.69 -8.74,-15.01 -19.57,-27.55 -31.73,-37.525 z"/>
</svg>
