version 1
nodes
  0 "tag_handle"  -1
  1 "tag_RCell"   0
  2 "tag_shell"   0
  3 "tag_Core"   0
  4 "tag_shot"   0
  5 "Tag_LWires"   0
  6 "Tag_RWires"   0
  7 "tag_LCell"   0
  8 "Crylink"  -1
end
skeleton
time 0
  0 -6.361559 0.000000 -2.000000 1.570796 0.000000 0.000000
  1 -0.213204 10.177486 5.272728 -2.969658 -0.770319 1.326416
  2 11.107477 6.258768 -0.298242 1.545069 -0.970163 -1.560027
  3 18.487717 6.359417 0.000002 0.000000 0.000000 0.000000
  4 37.780266 6.184988 -0.000001 0.000000 0.000000 0.000000
  5 18.974072 5.820559 -7.976972 -1.570796 0.000000 0.000000
  6 18.974072 5.820553 8.256499 -1.570796 0.000000 0.000000
  7 -0.247127 10.129152 -4.964115 -0.171934 0.770319 1.326417
  8 3.592913 0.000000 1.747035 0.000000 -0.000000 1.570796
time 1
  0 -18.060381 -0.000002 -4.653641 1.570796 -0.019708 0.000000
  1 4.291923 9.615780 4.711018 -2.969658 -0.770319 1.326416
  2 11.107477 6.258769 -0.298242 1.545069 -0.970163 -1.560027
  3 18.487719 6.359417 0.000002 -0.523506 0.009853 -0.002639
  4 37.780266 6.184988 -0.000001 0.000000 -0.000000 0.000000
  5 17.709560 5.704839 -7.976972 -1.570796 0.000000 0.000000
  6 17.709560 5.704833 8.256499 -1.570796 0.000000 0.000000
  7 4.258001 9.567446 -4.402407 -0.171934 0.770319 1.326416
  8 3.592913 0.000000 1.747035 0.000000 -0.000000 1.570796
time 2
  0 -16.533611 -0.000001 -4.266149 1.570796 -0.063534 0.000000
  1 4.291924 9.615782 4.711019 -2.969658 -0.770319 1.326416
  2 11.107479 6.258769 -0.298242 1.545069 -0.970163 -1.560027
  3 18.487717 6.359418 0.000002 -0.616303 0.009804 -0.002626
  4 37.780270 6.184988 -0.000001 0.000000 -0.000000 0.000000
  5 16.445045 5.456151 -7.976972 -1.570796 -0.000000 0.000000
  6 16.445045 5.456144 8.256499 -1.570796 -0.000000 0.000000
  7 4.258001 9.567446 -4.402406 -0.171934 0.770319 1.326416
  8 3.592913 0.000000 1.747035 0.000000 -0.000000 1.570796
time 3
  0 -13.014091 -0.000001 -3.399192 1.570796 -0.114574 0.000000
  1 4.291923 9.615781 4.711019 -2.969658 -0.770319 1.326416
  2 11.107477 6.258770 -0.298242 1.545069 -0.970163 -1.560027
  3 18.487719 6.359418 0.000002 -0.884088 0.009660 -0.002587
  4 37.780266 6.184988 -0.000001 0.000000 -0.000000 0.000000
  5 17.440981 5.039995 -7.976971 -1.570796 0.000000 0.000000
  6 17.440981 5.039989 8.256499 -1.570796 0.000000 0.000000
  7 4.258001 9.567446 -4.402406 -0.171934 0.770320 1.326417
  8 3.592913 0.000000 1.747035 0.000000 -0.000000 1.570796
time 4
  0 -9.093011 -0.000000 -2.496049 1.570796 -0.156886 -0.000000
  1 4.291923 9.615780 4.711019 -2.969658 -0.770319 1.326417
  2 11.107477 6.258768 -0.298242 1.545068 -0.970163 -1.560027
  3 18.487717 6.359417 0.000002 -1.310953 0.009430 -0.002526
  4 37.780266 6.184989 -0.000001 0.000000 -0.000000 0.000000
  5 18.436909 4.756809 -7.976972 -1.570796 -0.000000 0.000000
  6 18.436909 4.756803 8.256499 -1.570796 -0.000000 0.000000
  7 4.258001 9.567446 -4.402406 -0.171934 0.770319 1.326416
  8 3.592913 0.000000 1.747035 0.000000 -0.000000 1.570796
time 5
  0 -6.361559 0.000000 -2.000000 1.570796 -0.174533 0.000000
  1 4.291923 9.615781 4.711018 -2.969658 -0.770319 1.326416
  2 11.107478 6.258769 -0.298242 1.545069 -0.970163 -1.560027
  3 18.487717 6.359418 0.000002 -1.880991 0.009124 -0.002444
  4 37.780266 6.184989 -0.000001 0.000000 -0.000000 0.000000
  5 18.416283 4.795468 -7.976971 -1.570796 0.000000 0.000000
  6 18.416283 4.795462 8.256498 -1.570796 0.000000 0.000000
  7 4.258001 9.567446 -4.402406 -0.171934 0.770319 1.326417
  8 3.592913 0.000000 1.747035 0.000000 -0.000000 1.570796
time 6
  0 -5.046798 0.000000 -1.882276 1.570796 -0.170468 -0.000000
  1 4.291923 9.615781 4.711018 -2.969658 -0.770319 1.326416
  2 11.107477 6.258769 -0.298242 1.545069 -0.970163 -1.560027
  3 18.487717 6.359418 0.000002 -2.578292 0.008749 -0.002343
  4 37.780266 6.184989 -0.000001 0.000000 -0.000000 0.000000
  5 18.377975 4.904447 -7.976971 -1.570796 0.000000 0.000000
  6 18.377975 4.904440 8.256498 -1.570796 0.000000 0.000000
  7 4.258001 9.567447 -4.402406 -0.171934 0.770320 1.326417
  8 3.592913 0.000000 1.747035 0.000000 -0.000000 1.570796
time 7
  0 -4.234473 0.000000 -1.810869 1.570796 -0.159322 0.000000
  1 4.291922 9.615781 4.711018 -2.969658 -0.770319 1.326416
  2 11.107477 6.258768 -0.298242 1.545069 -0.970163 -1.560027
  3 18.487717 6.359417 0.000002 2.896235 0.008314 -0.002227
  4 37.780266 6.184988 -0.000001 0.000000 -0.000000 0.000000
  5 18.357346 5.073249 -7.976971 -1.570796 -0.000000 0.000000
  6 18.357346 5.073243 8.256498 -1.570796 -0.000000 0.000000
  7 4.258000 9.567446 -4.402406 -0.171934 0.770319 1.326417
  8 3.592913 0.000000 1.747035 0.000000 -0.000000 1.570796
time 8
  0 -3.803791 0.000000 -1.774201 1.570796 -0.142669 0.000000
  1 4.291923 9.615781 4.711018 -2.969658 -0.770319 1.326416
  2 11.107477 6.258767 -0.298242 1.545069 -0.970163 -1.560027
  3 18.487717 6.359417 0.000002 1.992128 0.007828 -0.002097
  4 37.780266 6.184988 -0.000001 0.000000 -0.000000 0.000000
  5 18.592403 5.356838 -7.976972 -1.570796 0.000000 0.000000
  6 18.592403 5.356833 8.256498 -1.570796 0.000000 0.000000
  7 4.258000 9.567445 -4.402406 -0.171934 0.770320 1.326417
  8 3.592913 0.000000 1.747035 0.000000 -0.000000 1.570796
time 9
  0 -3.633963 0.000000 -1.760692 1.570796 -0.122081 0.000000
  1 4.010648 9.650851 4.746088 -2.969658 -0.770319 1.326416
  2 11.107477 6.258769 -0.298242 1.545069 -0.970163 -1.560027
  3 18.487717 6.359418 0.000002 1.008481 0.007299 -0.001955
  4 37.780266 6.184988 -0.000001 0.000000 -0.000000 0.000000
  5 19.028938 5.700252 -7.976972 -1.570796 0.000000 0.000000
  6 19.028938 5.700246 8.256498 -1.570796 0.000000 0.000000
  7 3.976726 9.602514 -4.437476 -0.171934 0.770319 1.326416
  8 3.592913 0.000000 1.747035 0.000000 -0.000000 1.570796
time 10
  0 -3.604196 0.000000 -1.758762 1.570796 -0.099134 0.000000
  1 3.291729 9.740485 4.835725 -2.969658 -0.770319 1.326417
  2 11.107477 6.258769 -0.298242 1.545069 -0.970163 -1.560027
  3 18.487717 6.359417 0.000002 -0.038797 0.006736 -0.001804
  4 37.780266 6.184988 -0.000001 0.000000 -0.000000 0.000000
  5 19.264000 5.928100 -7.976972 -1.570796 -0.000000 0.000000
  6 19.264000 5.928094 8.256499 -1.570796 -0.000000 0.000000
  7 3.257807 9.692150 -4.527112 -0.171934 0.770319 1.326417
  8 3.592913 0.000000 1.747035 0.000000 -0.000000 1.570796
time 11
  0 -3.808445 0.000000 -1.776631 1.570796 -0.075399 0.000000
  1 2.322526 9.861327 4.956567 -2.969658 -0.770319 1.326416
  2 11.107478 6.258768 -0.298242 1.545069 -0.970163 -1.560027
  3 18.487717 6.359417 0.000002 -1.133800 0.006147 -0.001646
  4 37.780266 6.184988 -0.000001 0.000000 -0.000000 0.000000
  5 18.996664 6.002540 -7.976972 -1.570796 0.000000 0.000000
  6 18.996664 6.002534 8.256499 -1.570796 0.000000 0.000000
  7 2.288604 9.812992 -4.647954 -0.171934 0.770320 1.326417
  8 3.592913 0.000000 1.747035 0.000000 -0.000000 1.570796
time 12
  0 -4.319068 0.000000 -1.821305 1.570796 -0.052452 0.000000
  1 1.290396 9.990016 5.085255 -2.969658 -0.770319 1.326417
  2 11.107477 6.258769 -0.298242 1.545069 -0.970163 -1.560027
  3 18.487719 6.359417 0.000002 -2.260619 0.005541 -0.001484
  4 37.780266 6.184988 -0.000001 0.000000 -0.000000 0.000000
  5 18.406578 6.027404 -7.976972 -1.570796 0.000000 0.000000
  6 18.406578 6.027398 8.256500 -1.570796 0.000000 0.000000
  7 1.256474 9.941680 -4.776643 -0.171934 0.770319 1.326417
  8 3.592913 0.000000 1.747035 0.000000 -0.000000 1.570796
time 13
  0 -4.982878 0.000000 -1.879381 1.570796 -0.031864 -0.000000
  1 0.382699 10.103189 5.198429 -2.969658 -0.770319 1.326417
  2 11.107477 6.258768 -0.298242 1.545069 -0.970163 -1.560027
  3 18.487717 6.359417 0.000002 2.879840 0.004927 -0.001320
  4 37.780266 6.184988 -0.000001 0.000000 -0.000000 0.000000
  5 17.811619 6.039818 -7.976971 -1.570796 0.000000 0.000000
  6 17.811619 6.039812 8.256500 -1.570796 0.000000 0.000000
  7 0.348778 10.054853 -4.889816 -0.171934 0.770319 1.326416
  8 3.592913 0.000000 1.747035 0.000000 -0.000000 1.570796
time 14
  0 -5.646687 0.000000 -1.937457 1.570796 -0.015211 0.000000
  1 -0.213204 10.177486 5.272728 -2.969658 -0.770319 1.326416
  2 11.107477 6.258768 -0.298242 1.545069 -0.970163 -1.560027
  3 18.487717 6.359417 0.000002 1.737113 0.004312 -0.001155
  4 37.780266 6.184988 -0.000001 0.000000 -0.000000 0.000000
  5 17.529667 6.076903 -7.976971 -1.570796 0.000000 0.000000
  6 17.529667 6.076898 8.256499 -1.570796 0.000000 0.000000
  7 -0.247127 10.129151 -4.964115 -0.171934 0.770320 1.326417
  8 3.592913 0.000000 1.747035 0.000000 -0.000000 1.570796
time 15
  0 -6.157310 0.000000 -1.982131 1.570796 -0.004065 0.000000
  1 -0.504237 10.213774 5.309015 -2.969658 -0.770319 1.326417
  2 11.107478 6.258769 -0.298242 1.545069 -0.970163 -1.560027
  3 18.487719 6.359418 0.000002 0.610295 0.003707 -0.000992
  4 37.780266 6.184988 -0.000001 0.000000 -0.000000 0.000000
  5 17.515955 6.154296 -7.976971 -1.570796 0.000000 0.000000
  6 17.515955 6.154290 8.256499 -1.570796 0.000000 0.000000
  7 -0.538159 10.165439 -5.000401 -0.171934 0.770319 1.326417
  8 3.592913 0.000000 1.747035 0.000000 -0.000000 1.570796
time 16
  0 -6.361559 0.000000 -2.000000 1.570796 0.000000 0.000000
  1 -0.653686 10.232407 5.327648 -2.969658 -0.770319 1.326416
  2 11.107477 6.258768 -0.298242 1.545069 -0.970163 -1.560027
  3 18.487717 6.359417 0.000002 -0.484708 0.003118 -0.000835
  4 37.780266 6.184988 -0.000001 0.000000 0.000000 0.000000
  5 17.510899 6.253552 -7.976971 -1.570796 0.000000 0.000000
  6 17.510899 6.253546 8.256499 -1.570796 0.000000 0.000000
  7 -0.687608 10.184072 -5.019034 -0.171934 0.770319 1.326417
  8 3.592913 0.000000 1.747035 0.000000 -0.000000 1.570796
time 17
  0 -6.361559 0.000000 -2.000000 1.570796 0.000000 0.000000
  1 -0.708746 10.239272 5.334513 -2.969658 -0.770319 1.326416
  2 11.107477 6.258768 -0.298242 1.545069 -0.970163 -1.560027
  3 18.487717 6.359417 0.000002 -1.531988 0.002555 -0.000684
  4 37.780266 6.184988 -0.000001 0.000000 0.000000 0.000000
  5 17.510178 6.360693 -7.976971 -1.570796 0.000000 0.000000
  6 17.510178 6.360687 8.256499 -1.570796 0.000000 0.000000
  7 -0.742668 10.190938 -5.025899 -0.171934 0.770319 1.326417
  8 3.592913 0.000000 1.747035 0.000000 -0.000000 1.570796
time 18
  0 -6.361559 0.000000 -2.000000 1.570796 0.000000 0.000000
  1 -0.716612 10.240252 5.335494 -2.969658 -0.770319 1.326416
  2 11.107477 6.258768 -0.298242 1.545069 -0.970163 -1.560027
  3 18.487717 6.359417 0.000002 -2.515634 0.002026 -0.000542
  4 37.780266 6.184988 -0.000001 0.000000 0.000000 0.000000
  5 17.724350 6.499965 -7.976971 -1.570796 0.000000 0.000000
  6 17.724350 6.499959 8.256499 -1.570796 0.000000 0.000000
  7 -0.750534 10.191918 -5.026880 -0.171934 0.770319 1.326417
  8 3.592913 0.000000 1.747035 0.000000 -0.000000 1.570796
time 19
  0 -6.361559 0.000000 -2.000000 1.570796 0.000000 0.000000
  1 -0.688726 10.236775 5.332017 -2.969658 -0.770319 1.326416
  2 11.107477 6.258768 -0.298242 1.545069 -0.970163 -1.560027
  3 18.487717 6.359417 0.000002 2.863446 0.001540 -0.000412
  4 37.780266 6.184988 -0.000001 0.000000 0.000000 0.000000
  5 18.156954 6.647121 -7.976971 -1.570796 0.000000 0.000000
  6 18.156954 6.647116 8.256500 -1.570796 0.000000 0.000000
  7 -0.722649 10.188441 -5.023404 -0.171934 0.770319 1.326417
  8 3.592913 0.000000 1.747035 0.000000 -0.000000 1.570796
time 20
  0 -6.361559 0.000000 -2.000000 1.570796 0.000000 0.000000
  1 -0.616811 10.227809 5.323050 -2.969658 -0.770319 1.326416
  2 11.107477 6.258768 -0.298242 1.545069 -0.970163 -1.560027
  3 18.487717 6.359417 0.000002 2.054786 0.001105 -0.000296
  4 37.780266 6.184988 -0.000001 0.000000 0.000000 0.000000
  5 18.493118 6.715445 -7.976971 -1.570796 0.000000 0.000000
  6 18.493118 6.715439 8.256500 -1.570796 0.000000 0.000000
  7 -0.650733 10.179475 -5.014437 -0.171934 0.770319 1.326417
  8 3.592913 0.000000 1.747035 0.000000 -0.000000 1.570796
time 21
  0 -6.361559 0.000000 -2.000000 1.570796 0.000000 0.000000
  1 -0.518477 10.215549 5.310790 -2.969658 -0.770319 1.326416
  2 11.107477 6.258768 -0.298242 1.545069 -0.970163 -1.560027
  3 18.487717 6.359417 0.000002 1.357485 0.000730 -0.000195
  4 37.780266 6.184988 -0.000001 0.000000 0.000000 0.000000
  5 18.660248 6.622376 -7.976971 -1.570796 0.000000 0.000000
  6 18.660248 6.622371 8.256500 -1.570796 0.000000 0.000000
  7 -0.552400 10.167214 -5.002177 -0.171934 0.770319 1.326417
  8 3.592913 0.000000 1.747035 0.000000 -0.000000 1.570796
time 22
  0 -6.361559 0.000000 -2.000000 1.570796 0.000000 0.000000
  1 -0.411338 10.202190 5.297432 -2.969658 -0.770319 1.326416
  2 11.107477 6.258768 -0.298242 1.545069 -0.970163 -1.560027
  3 18.487717 6.359417 0.000002 0.787448 0.000424 -0.000113
  4 37.780266 6.184988 -0.000001 0.000000 0.000000 0.000000
  5 18.794165 6.400445 -7.976971 -1.570796 0.000000 0.000000
  6 18.794165 6.400439 8.256499 -1.570796 0.000000 0.000000
  7 -0.445261 10.153856 -4.988818 -0.171934 0.770319 1.326417
  8 3.592913 0.000000 1.747035 0.000000 -0.000000 1.570796
time 23
  0 -6.361559 0.000000 -2.000000 1.570796 0.000000 0.000000
  1 -0.313005 10.189930 5.285172 -2.969658 -0.770319 1.326416
  2 11.107477 6.258768 -0.298242 1.545069 -0.970163 -1.560027
  3 18.487717 6.359417 0.000002 0.360583 0.000194 -0.000052
  4 37.780266 6.184988 -0.000001 0.000000 0.000000 0.000000
  5 18.892609 6.135559 -7.976972 -1.570796 0.000000 0.000000
  6 18.892609 6.135553 8.256499 -1.570796 0.000000 0.000000
  7 -0.346928 10.141596 -4.976558 -0.171934 0.770319 1.326417
  8 3.592913 0.000000 1.747035 0.000000 -0.000000 1.570796
time 24
  0 -6.361559 0.000000 -2.000000 1.570796 0.000000 0.000000
  1 -0.241090 10.180964 5.276205 -2.969658 -0.770319 1.326416
  2 11.107477 6.258768 -0.298242 1.545069 -0.970163 -1.560027
  3 18.487717 6.359417 0.000002 0.092798 0.000050 -0.000013
  4 37.780266 6.184988 -0.000001 0.000000 0.000000 0.000000
  5 18.953331 5.913627 -7.976972 -1.570796 0.000000 0.000000
  6 18.953331 5.913621 8.256499 -1.570796 0.000000 0.000000
  7 -0.275012 10.132629 -4.967591 -0.171934 0.770319 1.326417
  8 3.592913 0.000000 1.747035 0.000000 -0.000000 1.570796
time 25
  0 -6.361559 0.000000 -2.000000 1.570796 0.000000 0.000000
  1 -0.213204 10.177486 5.272728 -2.969658 -0.770319 1.326416
  2 11.107477 6.258768 -0.298242 1.545069 -0.970163 -1.560027
  3 18.487717 6.359417 0.000002 0.000000 0.000000 0.000000
  4 37.780266 6.184988 -0.000001 0.000000 0.000000 0.000000
  5 18.974072 5.820559 -7.976972 -1.570796 0.000000 0.000000
  6 18.974072 5.820553 8.256499 -1.570796 0.000000 0.000000
  7 -0.247127 10.129152 -4.964115 -0.171934 0.770319 1.326417
  8 3.592913 0.000000 1.747035 0.000000 -0.000000 1.570796
end
