version 1
nodes
  0 "tag_handle"  -1
  1 "tag_LCell"   0
  2 "tag_RCell"   0
  3 "tag_shell"   0
  4 "tag_Core"   0
  5 "tag_shot"   0
  6 "Tag_LWires"   0
  7 "Tag_RWires"   0
  8 "Crylink"  -1
end
skeleton
time 0
  0 -6.361559 0.000000 -2.000000 1.570796 0.000000 0.000000
  1 -0.206138 10.177488 -5.012450 -0.171934 0.770319 1.326417
  2 -0.213204 10.177486 5.272728 -2.969658 -0.770319 1.326416
  3 11.107477 6.258768 -0.298242 1.545069 -0.970163 -1.560027
  4 18.487717 6.359417 0.000002 0.000000 0.000000 0.000000
  5 37.780266 6.184988 -0.000001 0.000000 0.000000 0.000000
  6 18.974072 5.820559 -7.976972 -1.570796 0.000000 0.000000
  7 18.974072 5.820553 8.256499 -1.570796 0.000000 0.000000
  8 3.724079 -0.043492 1.670741 0.000000 -0.000000 0.000000
time 1
  0 -6.361559 0.000000 -2.000000 1.570796 0.000000 0.000000
  1 -0.206138 10.177488 -5.012450 -0.171934 0.770319 1.326417
  2 -0.213204 10.177486 5.272728 -2.969658 -0.770319 1.326416
  3 11.107477 6.258768 -0.298242 1.545069 -0.970163 -1.560027
  4 18.487717 6.359417 0.000002 0.000000 0.000000 0.000000
  5 37.780266 6.184988 -0.000001 0.000000 0.000000 0.000000
  6 18.974072 5.820559 -7.976972 -1.570796 0.000000 0.000000
  7 18.974072 5.820553 8.256499 -1.570796 0.000000 0.000000
  8 3.724079 -0.043492 1.670741 0.000000 -0.000000 0.000000
time 2
  0 -6.361559 0.000000 -2.000000 1.570796 0.000000 0.000000
  1 -0.206138 10.177488 -5.012450 -0.171934 0.770319 1.326417
  2 -0.213204 10.177486 5.272728 -2.969658 -0.770319 1.326416
  3 11.107477 6.258768 -0.298242 1.545069 -0.970163 -1.560027
  4 18.487717 6.359417 0.000002 0.000000 0.000000 0.000000
  5 37.780266 6.184988 -0.000001 0.000000 0.000000 0.000000
  6 18.974072 5.820559 -7.976972 -1.570796 0.000000 0.000000
  7 18.974072 5.820553 8.256499 -1.570796 0.000000 0.000000
  8 3.724079 -0.043492 1.670741 0.000000 -0.000000 0.000000
time 3
  0 -6.361559 0.000000 -2.000000 1.570796 0.000000 0.000000
  1 -0.206138 10.177488 -5.012450 -0.171934 0.770319 1.326417
  2 -0.213204 10.177486 5.272728 -2.969658 -0.770319 1.326416
  3 11.107477 6.258768 -0.298242 1.545069 -0.970163 -1.560027
  4 18.487717 6.359417 0.000002 0.000000 0.000000 0.000000
  5 37.780266 6.184988 -0.000001 0.000000 0.000000 0.000000
  6 18.974072 5.820559 -7.976972 -1.570796 0.000000 0.000000
  7 18.974072 5.820553 8.256499 -1.570796 0.000000 0.000000
  8 3.724079 -0.043492 1.670741 0.000000 -0.000000 0.000000
time 4
  0 -6.361559 0.000000 -2.000000 1.570796 0.000000 0.000000
  1 -0.206138 10.177488 -5.012450 -0.171934 0.770319 1.326417
  2 -0.213204 10.177486 5.272728 -2.969658 -0.770319 1.326416
  3 11.107477 6.258768 -0.298242 1.545069 -0.970163 -1.560027
  4 18.487717 6.359417 0.000002 0.000000 0.000000 0.000000
  5 37.780266 6.184988 -0.000001 0.000000 0.000000 0.000000
  6 18.974072 5.820559 -7.976972 -1.570796 0.000000 0.000000
  7 18.974072 5.820553 8.256499 -1.570796 0.000000 0.000000
  8 3.724079 -0.043492 1.670741 0.000000 -0.000000 0.000000
time 5
  0 -6.361559 0.000000 -2.000000 1.570796 0.000000 0.000000
  1 -0.206138 10.177488 -5.012450 -0.171934 0.770319 1.326417
  2 -0.213204 10.177486 5.272728 -2.969658 -0.770319 1.326416
  3 11.107477 6.258768 -0.298242 1.545069 -0.970163 -1.560027
  4 18.487717 6.359417 0.000002 0.000000 0.000000 0.000000
  5 37.780266 6.184988 -0.000001 0.000000 0.000000 0.000000
  6 18.974072 5.820559 -7.976972 -1.570796 0.000000 0.000000
  7 18.974072 5.820553 8.256499 -1.570796 0.000000 0.000000
  8 3.724079 -0.043492 1.670741 0.000000 -0.000000 0.000000
time 6
  0 -6.361559 0.000000 -2.000000 1.570796 0.000000 0.000000
  1 -0.206138 10.177488 -5.012450 -0.171934 0.770319 1.326417
  2 -0.213204 10.177486 5.272728 -2.969658 -0.770319 1.326416
  3 11.107477 6.258768 -0.298242 1.545069 -0.970163 -1.560027
  4 18.487717 6.359417 0.000002 0.000000 0.000000 0.000000
  5 37.780266 6.184988 -0.000001 0.000000 0.000000 0.000000
  6 18.974072 5.820559 -7.976972 -1.570796 0.000000 0.000000
  7 18.974072 5.820553 8.256499 -1.570796 0.000000 0.000000
  8 3.724079 -0.043492 1.670741 0.000000 -0.000000 0.000000
time 7
  0 -6.361559 0.000000 -2.000000 1.570796 0.000000 0.000000
  1 -0.206138 10.177488 -5.012450 -0.171934 0.770319 1.326417
  2 -0.213204 10.177486 5.272728 -2.969658 -0.770319 1.326416
  3 11.107477 6.258768 -0.298242 1.545069 -0.970163 -1.560027
  4 18.487717 6.359417 0.000002 0.000000 0.000000 0.000000
  5 37.780266 6.184988 -0.000001 0.000000 0.000000 0.000000
  6 18.974072 5.820559 -7.976972 -1.570796 0.000000 0.000000
  7 18.974072 5.820553 8.256499 -1.570796 0.000000 0.000000
  8 3.724079 -0.043492 1.670741 0.000000 -0.000000 0.000000
time 8
  0 -6.361559 0.000000 -2.000000 1.570796 0.000000 0.000000
  1 -0.206138 10.177488 -5.012450 -0.171934 0.770319 1.326417
  2 -0.213204 10.177486 5.272728 -2.969658 -0.770319 1.326416
  3 11.107477 6.258768 -0.298242 1.545069 -0.970163 -1.560027
  4 18.487717 6.359417 0.000002 0.000000 0.000000 0.000000
  5 37.780266 6.184988 -0.000001 0.000000 0.000000 0.000000
  6 18.974072 5.820559 -7.976972 -1.570796 0.000000 0.000000
  7 18.974072 5.820553 8.256499 -1.570796 0.000000 0.000000
  8 3.724079 -0.043492 1.670741 0.000000 -0.000000 0.000000
time 9
  0 -6.361559 0.000000 -2.000000 1.570796 0.000000 0.000000
  1 -0.206138 10.177488 -5.012450 -0.171934 0.770319 1.326417
  2 -0.213204 10.177486 5.272728 -2.969658 -0.770319 1.326416
  3 11.107477 6.258768 -0.298242 1.545069 -0.970163 -1.560027
  4 18.487717 6.359417 0.000002 0.000000 0.000000 0.000000
  5 37.780266 6.184988 -0.000001 0.000000 0.000000 0.000000
  6 18.974072 5.820559 -7.976972 -1.570796 0.000000 0.000000
  7 18.974072 5.820553 8.256499 -1.570796 0.000000 0.000000
  8 3.724079 -0.043492 1.670741 0.000000 -0.000000 0.000000
time 10
  0 -6.361559 0.000000 -2.000000 1.570796 0.000000 0.000000
  1 -0.206138 10.177488 -5.012450 -0.171934 0.770319 1.326417
  2 -0.213204 10.177486 5.272728 -2.969658 -0.770319 1.326416
  3 11.107477 6.258768 -0.298242 1.545069 -0.970163 -1.560027
  4 18.487717 6.359417 0.000002 0.000000 0.000000 0.000000
  5 37.780266 6.184988 -0.000001 0.000000 0.000000 0.000000
  6 18.974072 5.820559 -7.976972 -1.570796 0.000000 0.000000
  7 18.974072 5.820553 8.256499 -1.570796 0.000000 0.000000
  8 3.724079 -0.043492 1.670741 0.000000 -0.000000 0.000000
time 11
  0 -6.361559 0.000000 -2.000000 1.570796 0.000000 0.000000
  1 -0.206138 10.177488 -5.012450 -0.171934 0.770319 1.326417
  2 -0.213204 10.177486 5.272728 -2.969658 -0.770319 1.326416
  3 11.107477 6.258768 -0.298242 1.545069 -0.970163 -1.560027
  4 18.487717 6.359417 0.000002 0.000000 0.000000 0.000000
  5 37.780266 6.184988 -0.000001 0.000000 0.000000 0.000000
  6 18.974072 5.820559 -7.976972 -1.570796 0.000000 0.000000
  7 18.974072 5.820553 8.256499 -1.570796 0.000000 0.000000
  8 3.724079 -0.043492 1.670741 0.000000 -0.000000 0.000000
time 12
  0 -6.361559 0.000000 -2.000000 1.570796 0.000000 0.000000
  1 -0.206138 10.177488 -5.012450 -0.171934 0.770319 1.326417
  2 -0.213204 10.177486 5.272728 -2.969658 -0.770319 1.326416
  3 11.107477 6.258768 -0.298242 1.545069 -0.970163 -1.560027
  4 18.487717 6.359417 0.000002 0.000000 0.000000 0.000000
  5 37.780266 6.184988 -0.000001 0.000000 0.000000 0.000000
  6 18.974072 5.820559 -7.976972 -1.570796 0.000000 0.000000
  7 18.974072 5.820553 8.256499 -1.570796 0.000000 0.000000
  8 3.724079 -0.043492 1.670741 0.000000 -0.000000 0.000000
time 13
  0 -6.361559 0.000000 -2.000000 1.570796 0.000000 0.000000
  1 -0.206138 10.177488 -5.012450 -0.171934 0.770319 1.326417
  2 -0.213204 10.177486 5.272728 -2.969658 -0.770319 1.326416
  3 11.107477 6.258768 -0.298242 1.545069 -0.970163 -1.560027
  4 18.487717 6.359417 0.000002 0.000000 0.000000 0.000000
  5 37.780266 6.184988 -0.000001 0.000000 0.000000 0.000000
  6 18.974072 5.820559 -7.976972 -1.570796 0.000000 0.000000
  7 18.974072 5.820553 8.256499 -1.570796 0.000000 0.000000
  8 3.724079 -0.043492 1.670741 0.000000 -0.000000 0.000000
time 14
  0 -6.361559 0.000000 -2.000000 1.570796 0.000000 0.000000
  1 -0.206138 10.177488 -5.012450 -0.171934 0.770319 1.326417
  2 -0.213204 10.177486 5.272728 -2.969658 -0.770319 1.326416
  3 11.107477 6.258768 -0.298242 1.545069 -0.970163 -1.560027
  4 18.487717 6.359417 0.000002 0.000000 0.000000 0.000000
  5 37.780266 6.184988 -0.000001 0.000000 0.000000 0.000000
  6 18.974072 5.820559 -7.976972 -1.570796 0.000000 0.000000
  7 18.974072 5.820553 8.256499 -1.570796 0.000000 0.000000
  8 3.724079 -0.043492 1.670741 0.000000 -0.000000 0.000000
time 15
  0 -6.361559 0.000000 -2.000000 1.570796 0.000000 0.000000
  1 -0.206138 10.177488 -5.012450 -0.171934 0.770319 1.326417
  2 -0.213204 10.177486 5.272728 -2.969658 -0.770319 1.326416
  3 11.107477 6.258768 -0.298242 1.545069 -0.970163 -1.560027
  4 18.487717 6.359417 0.000002 0.000000 0.000000 0.000000
  5 37.780266 6.184988 -0.000001 0.000000 0.000000 0.000000
  6 18.974072 5.820559 -7.976972 -1.570796 0.000000 0.000000
  7 18.974072 5.820553 8.256499 -1.570796 0.000000 0.000000
  8 3.724079 -0.043492 1.670741 0.000000 -0.000000 0.000000
time 16
  0 -6.361559 0.000000 -2.000000 1.570796 0.000000 0.000000
  1 -0.206138 10.177488 -5.012450 -0.171934 0.770319 1.326417
  2 -0.213204 10.177486 5.272728 -2.969658 -0.770319 1.326416
  3 11.107477 6.258768 -0.298242 1.545069 -0.970163 -1.560027
  4 18.487717 6.359417 0.000002 0.000000 0.000000 0.000000
  5 37.780266 6.184988 -0.000001 0.000000 0.000000 0.000000
  6 18.974072 5.820559 -7.976972 -1.570796 0.000000 0.000000
  7 18.974072 5.820553 8.256499 -1.570796 0.000000 0.000000
  8 3.724079 -0.043492 1.670741 0.000000 -0.000000 0.000000
time 17
  0 -6.361559 0.000000 -2.000000 1.570796 0.000000 0.000000
  1 -0.206138 10.177488 -5.012450 -0.171934 0.770319 1.326417
  2 -0.213204 10.177486 5.272728 -2.969658 -0.770319 1.326416
  3 11.107477 6.258768 -0.298242 1.545069 -0.970163 -1.560027
  4 18.487717 6.359417 0.000002 0.000000 0.000000 0.000000
  5 37.780266 6.184988 -0.000001 0.000000 0.000000 0.000000
  6 18.974072 5.820559 -7.976972 -1.570796 0.000000 0.000000
  7 18.974072 5.820553 8.256499 -1.570796 0.000000 0.000000
  8 3.724079 -0.043492 1.670741 0.000000 -0.000000 0.000000
time 18
  0 -6.361559 0.000000 -2.000000 1.570796 0.000000 0.000000
  1 -0.206138 10.177488 -5.012450 -0.171934 0.770319 1.326417
  2 -0.213204 10.177486 5.272728 -2.969658 -0.770319 1.326416
  3 11.107477 6.258768 -0.298242 1.545069 -0.970163 -1.560027
  4 18.487717 6.359417 0.000002 0.000000 0.000000 0.000000
  5 37.780266 6.184988 -0.000001 0.000000 0.000000 0.000000
  6 18.974072 5.820559 -7.976972 -1.570796 0.000000 0.000000
  7 18.974072 5.820553 8.256499 -1.570796 0.000000 0.000000
  8 3.724079 -0.043492 1.670741 0.000000 -0.000000 0.000000
time 19
  0 -6.361559 0.000000 -2.000000 1.570796 0.000000 0.000000
  1 -0.206138 10.177488 -5.012450 -0.171934 0.770319 1.326417
  2 -0.213204 10.177486 5.272728 -2.969658 -0.770319 1.326416
  3 11.107477 6.258768 -0.298242 1.545069 -0.970163 -1.560027
  4 18.487717 6.359417 0.000002 0.000000 0.000000 0.000000
  5 37.780266 6.184988 -0.000001 0.000000 0.000000 0.000000
  6 18.974072 5.820559 -7.976972 -1.570796 0.000000 0.000000
  7 18.974072 5.820553 8.256499 -1.570796 0.000000 0.000000
  8 3.724079 -0.043492 1.670741 0.000000 -0.000000 0.000000
time 20
  0 -6.361559 0.000000 -2.000000 1.570796 0.000000 0.000000
  1 -0.206138 10.177488 -5.012450 -0.171934 0.770319 1.326417
  2 -0.213204 10.177486 5.272728 -2.969658 -0.770319 1.326416
  3 11.107477 6.258768 -0.298242 1.545069 -0.970163 -1.560027
  4 18.487717 6.359417 0.000002 0.000000 0.000000 0.000000
  5 37.780266 6.184988 -0.000001 0.000000 0.000000 0.000000
  6 18.974072 5.820559 -7.976972 -1.570796 0.000000 0.000000
  7 18.974072 5.820553 8.256499 -1.570796 0.000000 0.000000
  8 3.724079 -0.043492 1.670741 0.000000 -0.000000 0.000000
time 21
  0 -6.361559 0.000000 -2.000000 1.570796 0.000000 0.000000
  1 -0.206138 10.177488 -5.012450 -0.171934 0.770319 1.326417
  2 -0.213204 10.177486 5.272728 -2.969658 -0.770319 1.326416
  3 11.107477 6.258768 -0.298242 1.545069 -0.970163 -1.560027
  4 18.487717 6.359417 0.000002 0.000000 0.000000 0.000000
  5 37.780266 6.184988 -0.000001 0.000000 0.000000 0.000000
  6 18.974072 5.820559 -7.976972 -1.570796 0.000000 0.000000
  7 18.974072 5.820553 8.256499 -1.570796 0.000000 0.000000
  8 3.724079 -0.043492 1.670741 0.000000 -0.000000 0.000000
time 22
  0 -6.361559 0.000000 -2.000000 1.570796 0.000000 0.000000
  1 -0.206138 10.177488 -5.012450 -0.171934 0.770319 1.326417
  2 -0.213204 10.177486 5.272728 -2.969658 -0.770319 1.326416
  3 11.107477 6.258768 -0.298242 1.545069 -0.970163 -1.560027
  4 18.487717 6.359417 0.000002 0.000000 0.000000 0.000000
  5 37.780266 6.184988 -0.000001 0.000000 0.000000 0.000000
  6 18.974072 5.820559 -7.976972 -1.570796 0.000000 0.000000
  7 18.974072 5.820553 8.256499 -1.570796 0.000000 0.000000
  8 3.724079 -0.043492 1.670741 0.000000 -0.000000 0.000000
time 23
  0 -6.361559 0.000000 -2.000000 1.570796 0.000000 0.000000
  1 -0.206138 10.177488 -5.012450 -0.171934 0.770319 1.326417
  2 -0.213204 10.177486 5.272728 -2.969658 -0.770319 1.326416
  3 11.107477 6.258768 -0.298242 1.545069 -0.970163 -1.560027
  4 18.487717 6.359417 0.000002 0.000000 0.000000 0.000000
  5 37.780266 6.184988 -0.000001 0.000000 0.000000 0.000000
  6 18.974072 5.820559 -7.976972 -1.570796 0.000000 0.000000
  7 18.974072 5.820553 8.256499 -1.570796 0.000000 0.000000
  8 3.724079 -0.043492 1.670741 0.000000 -0.000000 0.000000
time 24
  0 -6.361559 0.000000 -2.000000 1.570796 0.000000 0.000000
  1 -0.206138 10.177488 -5.012450 -0.171934 0.770319 1.326417
  2 -0.213204 10.177486 5.272728 -2.969658 -0.770319 1.326416
  3 11.107477 6.258768 -0.298242 1.545069 -0.970163 -1.560027
  4 18.487717 6.359417 0.000002 0.000000 0.000000 0.000000
  5 37.780266 6.184988 -0.000001 0.000000 0.000000 0.000000
  6 18.974072 5.820559 -7.976972 -1.570796 0.000000 0.000000
  7 18.974072 5.820553 8.256499 -1.570796 0.000000 0.000000
  8 3.724079 -0.043492 1.670741 0.000000 -0.000000 0.000000
time 25
  0 -6.361559 0.000000 -2.000000 1.570796 0.000000 0.000000
  1 -0.206138 10.177488 -5.012450 -0.171934 0.770319 1.326417
  2 -0.213204 10.177486 5.272728 -2.969658 -0.770319 1.326416
  3 11.107477 6.258768 -0.298242 1.545069 -0.970163 -1.560027
  4 18.487717 6.359417 0.000002 0.000000 0.000000 0.000000
  5 37.780266 6.184988 -0.000001 0.000000 0.000000 0.000000
  6 18.974072 5.820559 -7.976972 -1.570796 0.000000 0.000000
  7 18.974072 5.820553 8.256499 -1.570796 0.000000 0.000000
  8 3.724079 -0.043492 1.670741 0.000000 -0.000000 0.000000
time 26
  0 -6.361559 0.000000 -2.000000 1.570796 0.000000 0.000000
  1 -0.206138 10.177488 -5.012450 -0.171934 0.770319 1.326417
  2 -0.213204 10.177486 5.272728 -2.969658 -0.770319 1.326416
  3 11.107477 6.258768 -0.298242 1.545069 -0.970163 -1.560027
  4 18.487717 6.359417 0.000002 0.000000 0.000000 0.000000
  5 37.780266 6.184988 -0.000001 0.000000 0.000000 0.000000
  6 18.974072 5.820559 -7.976972 -1.570796 0.000000 0.000000
  7 18.974072 5.820553 8.256499 -1.570796 0.000000 0.000000
  8 3.724079 -0.043492 1.670741 0.000000 -0.000000 0.000000
time 27
  0 -6.361559 0.000000 -2.000000 1.570796 0.000000 0.000000
  1 -0.206138 10.177488 -5.012450 -0.171934 0.770319 1.326417
  2 -0.213204 10.177486 5.272728 -2.969658 -0.770319 1.326416
  3 11.107477 6.258768 -0.298242 1.545069 -0.970163 -1.560027
  4 18.487717 6.359417 0.000002 0.000000 0.000000 0.000000
  5 37.780266 6.184988 -0.000001 0.000000 0.000000 0.000000
  6 18.974072 5.820559 -7.976972 -1.570796 0.000000 0.000000
  7 18.974072 5.820553 8.256499 -1.570796 0.000000 0.000000
  8 3.724079 -0.043492 1.670741 0.000000 -0.000000 0.000000
time 28
  0 -6.361559 0.000000 -2.000000 1.570796 0.000000 0.000000
  1 -0.206138 10.177488 -5.012450 -0.171934 0.770319 1.326417
  2 -0.213204 10.177486 5.272728 -2.969658 -0.770319 1.326416
  3 11.107477 6.258768 -0.298242 1.545069 -0.970163 -1.560027
  4 18.487717 6.359417 0.000002 0.000000 0.000000 0.000000
  5 37.780266 6.184988 -0.000001 0.000000 0.000000 0.000000
  6 18.974072 5.820559 -7.976972 -1.570796 0.000000 0.000000
  7 18.974072 5.820553 8.256499 -1.570796 0.000000 0.000000
  8 3.724079 -0.043492 1.670741 0.000000 -0.000000 0.000000
time 29
  0 -6.361559 0.000000 -2.000000 1.570796 0.000000 0.000000
  1 -0.206138 10.177488 -5.012450 -0.171934 0.770319 1.326417
  2 -0.213204 10.177486 5.272728 -2.969658 -0.770319 1.326416
  3 11.107477 6.258768 -0.298242 1.545069 -0.970163 -1.560027
  4 18.487717 6.359417 0.000002 0.000000 0.000000 0.000000
  5 37.780266 6.184988 -0.000001 0.000000 0.000000 0.000000
  6 18.974072 5.820559 -7.976972 -1.570796 0.000000 0.000000
  7 18.974072 5.820553 8.256499 -1.570796 0.000000 0.000000
  8 3.724079 -0.043492 1.670741 0.000000 -0.000000 0.000000
time 30
  0 -6.361559 0.000000 -2.000000 1.570796 0.000000 0.000000
  1 -0.206138 10.177488 -5.012450 -0.171934 0.770319 1.326417
  2 -0.213204 10.177486 5.272728 -2.969658 -0.770319 1.326416
  3 11.107477 6.258768 -0.298242 1.545069 -0.970163 -1.560027
  4 18.487717 6.359417 0.000002 0.000000 0.000000 0.000000
  5 37.780266 6.184988 -0.000001 0.000000 0.000000 0.000000
  6 18.974072 5.820559 -7.976972 -1.570796 0.000000 0.000000
  7 18.974072 5.820553 8.256499 -1.570796 0.000000 0.000000
  8 3.724079 -0.043492 1.670741 0.000000 -0.000000 0.000000
time 31
  0 -6.361559 0.000000 -2.000000 1.570796 0.000000 0.000000
  1 -0.206138 10.177488 -5.012450 -0.171934 0.770319 1.326417
  2 -0.213204 10.177486 5.272728 -2.969658 -0.770319 1.326416
  3 11.107477 6.258768 -0.298242 1.545069 -0.970163 -1.560027
  4 18.487717 6.359417 0.000002 0.000000 0.000000 0.000000
  5 37.780266 6.184988 -0.000001 0.000000 0.000000 0.000000
  6 18.974072 5.820559 -7.976972 -1.570796 0.000000 0.000000
  7 18.974072 5.820553 8.256499 -1.570796 0.000000 0.000000
  8 3.724079 -0.043492 1.670741 0.000000 -0.000000 0.000000
time 32
  0 -6.361559 0.000000 -2.000000 1.570796 0.000000 0.000000
  1 -0.206138 10.177488 -5.012450 -0.171934 0.770319 1.326417
  2 -0.213204 10.177486 5.272728 -2.969658 -0.770319 1.326416
  3 11.107477 6.258768 -0.298242 1.545069 -0.970163 -1.560027
  4 18.487717 6.359417 0.000002 0.000000 0.000000 0.000000
  5 37.780266 6.184988 -0.000001 0.000000 0.000000 0.000000
  6 18.974072 5.820559 -7.976972 -1.570796 0.000000 0.000000
  7 18.974072 5.820553 8.256499 -1.570796 0.000000 0.000000
  8 3.724079 -0.043492 1.670741 0.000000 -0.000000 0.000000
time 33
  0 -6.361559 0.000000 -2.000000 1.570796 0.000000 0.000000
  1 -0.206138 10.177488 -5.012450 -0.171934 0.770319 1.326417
  2 -0.213204 10.177486 5.272728 -2.969658 -0.770319 1.326416
  3 11.107477 6.258768 -0.298242 1.545069 -0.970163 -1.560027
  4 18.487717 6.359417 0.000002 0.000000 0.000000 0.000000
  5 37.780266 6.184988 -0.000001 0.000000 0.000000 0.000000
  6 18.974072 5.820559 -7.976972 -1.570796 0.000000 0.000000
  7 18.974072 5.820553 8.256499 -1.570796 0.000000 0.000000
  8 3.724079 -0.043492 1.670741 0.000000 -0.000000 0.000000
time 34
  0 -6.361559 0.000000 -2.000000 1.570796 0.000000 0.000000
  1 -0.206138 10.177488 -5.012450 -0.171934 0.770319 1.326417
  2 -0.213204 10.177486 5.272728 -2.969658 -0.770319 1.326416
  3 11.107477 6.258768 -0.298242 1.545069 -0.970163 -1.560027
  4 18.487717 6.359417 0.000002 0.000000 0.000000 0.000000
  5 37.780266 6.184988 -0.000001 0.000000 0.000000 0.000000
  6 18.974072 5.820559 -7.976972 -1.570796 0.000000 0.000000
  7 18.974072 5.820553 8.256499 -1.570796 0.000000 0.000000
  8 3.724079 -0.043492 1.670741 0.000000 -0.000000 0.000000
time 35
  0 -6.361559 0.000000 -2.000000 1.570796 0.000000 0.000000
  1 -0.206138 10.177488 -5.012450 -0.171934 0.770319 1.326417
  2 -0.213204 10.177486 5.272728 -2.969658 -0.770319 1.326416
  3 11.107477 6.258768 -0.298242 1.545069 -0.970163 -1.560027
  4 18.487717 6.359417 0.000002 0.000000 0.000000 0.000000
  5 37.780266 6.184988 -0.000001 0.000000 0.000000 0.000000
  6 18.974072 5.820559 -7.976972 -1.570796 0.000000 0.000000
  7 18.974072 5.820553 8.256499 -1.570796 0.000000 0.000000
  8 3.724079 -0.043492 1.670741 0.000000 -0.000000 0.000000
time 36
  0 -6.361559 0.000000 -2.000000 1.570796 0.000000 0.000000
  1 -0.206138 10.177488 -5.012450 -0.171934 0.770319 1.326417
  2 -0.213204 10.177486 5.272728 -2.969658 -0.770319 1.326416
  3 11.107477 6.258768 -0.298242 1.545069 -0.970163 -1.560027
  4 18.487717 6.359417 0.000002 0.000000 0.000000 0.000000
  5 37.780266 6.184988 -0.000001 0.000000 0.000000 0.000000
  6 18.974072 5.820559 -7.976972 -1.570796 0.000000 0.000000
  7 18.974072 5.820553 8.256499 -1.570796 0.000000 0.000000
  8 3.724079 -0.043492 1.670741 0.000000 -0.000000 0.000000
time 37
  0 -6.361559 0.000000 -2.000000 1.570796 0.000000 0.000000
  1 -0.206138 10.177488 -5.012450 -0.171934 0.770319 1.326417
  2 -0.213204 10.177486 5.272728 -2.969658 -0.770319 1.326416
  3 11.107477 6.258768 -0.298242 1.545069 -0.970163 -1.560027
  4 18.487717 6.359417 0.000002 0.000000 0.000000 0.000000
  5 37.780266 6.184988 -0.000001 0.000000 0.000000 0.000000
  6 18.974072 5.820559 -7.976972 -1.570796 0.000000 0.000000
  7 18.974072 5.820553 8.256499 -1.570796 0.000000 0.000000
  8 3.724079 -0.043492 1.670741 0.000000 -0.000000 0.000000
time 38
  0 -6.361559 0.000000 -2.000000 1.570796 0.000000 0.000000
  1 -0.206138 10.177488 -5.012450 -0.171934 0.770319 1.326417
  2 -0.213204 10.177486 5.272728 -2.969658 -0.770319 1.326416
  3 11.107477 6.258768 -0.298242 1.545069 -0.970163 -1.560027
  4 18.487717 6.359417 0.000002 0.000000 0.000000 0.000000
  5 37.780266 6.184988 -0.000001 0.000000 0.000000 0.000000
  6 18.974072 5.820559 -7.976972 -1.570796 0.000000 0.000000
  7 18.974072 5.820553 8.256499 -1.570796 0.000000 0.000000
  8 3.724079 -0.043492 1.670741 0.000000 -0.000000 0.000000
time 39
  0 -6.361559 0.000000 -2.000000 1.570796 0.000000 0.000000
  1 -0.206138 10.177488 -5.012450 -0.171934 0.770319 1.326417
  2 -0.213204 10.177486 5.272728 -2.969658 -0.770319 1.326416
  3 11.107477 6.258768 -0.298242 1.545069 -0.970163 -1.560027
  4 18.487717 6.359417 0.000002 0.000000 0.000000 0.000000
  5 37.780266 6.184988 -0.000001 0.000000 0.000000 0.000000
  6 18.974072 5.820559 -7.976972 -1.570796 0.000000 0.000000
  7 18.974072 5.820553 8.256499 -1.570796 0.000000 0.000000
  8 3.724079 -0.043492 1.670741 0.000000 -0.000000 0.000000
time 40
  0 -6.361559 0.000000 -2.000000 1.570796 0.000000 0.000000
  1 -0.206138 10.177488 -5.012450 -0.171934 0.770319 1.326417
  2 -0.213204 10.177486 5.272728 -2.969658 -0.770319 1.326416
  3 11.107477 6.258768 -0.298242 1.545069 -0.970163 -1.560027
  4 18.487717 6.359417 0.000002 0.000000 0.000000 0.000000
  5 37.780266 6.184988 -0.000001 0.000000 0.000000 0.000000
  6 18.974072 5.820559 -7.976972 -1.570796 0.000000 0.000000
  7 18.974072 5.820553 8.256499 -1.570796 0.000000 0.000000
  8 3.724079 -0.043492 1.670741 0.000000 -0.000000 0.000000
time 41
  0 -6.361559 0.000000 -2.000000 1.570796 0.000000 0.000000
  1 -0.206138 10.177488 -5.012450 -0.171934 0.770319 1.326417
  2 -0.213204 10.177486 5.272728 -2.969658 -0.770319 1.326416
  3 11.107477 6.258768 -0.298242 1.545069 -0.970163 -1.560027
  4 18.487717 6.359417 0.000002 0.000000 0.000000 0.000000
  5 37.780266 6.184988 -0.000001 0.000000 0.000000 0.000000
  6 18.974072 5.820559 -7.976972 -1.570796 0.000000 0.000000
  7 18.974072 5.820553 8.256499 -1.570796 0.000000 0.000000
  8 3.724079 -0.043492 1.670741 0.000000 -0.000000 0.000000
time 42
  0 -6.361559 0.000000 -2.000000 1.570796 0.000000 0.000000
  1 -0.206138 10.177488 -5.012450 -0.171934 0.770319 1.326417
  2 -0.213204 10.177486 5.272728 -2.969658 -0.770319 1.326416
  3 11.107477 6.258768 -0.298242 1.545069 -0.970163 -1.560027
  4 18.487717 6.359417 0.000002 0.000000 0.000000 0.000000
  5 37.780266 6.184988 -0.000001 0.000000 0.000000 0.000000
  6 18.974072 5.820559 -7.976972 -1.570796 0.000000 0.000000
  7 18.974072 5.820553 8.256499 -1.570796 0.000000 0.000000
  8 3.724079 -0.043492 1.670741 0.000000 -0.000000 0.000000
time 43
  0 -6.361559 0.000000 -2.000000 1.570796 0.000000 0.000000
  1 -0.206138 10.177488 -5.012450 -0.171934 0.770319 1.326417
  2 -0.213204 10.177486 5.272728 -2.969658 -0.770319 1.326416
  3 11.107477 6.258768 -0.298242 1.545069 -0.970163 -1.560027
  4 18.487717 6.359417 0.000002 0.000000 0.000000 0.000000
  5 37.780266 6.184988 -0.000001 0.000000 0.000000 0.000000
  6 18.974072 5.820559 -7.976972 -1.570796 0.000000 0.000000
  7 18.974072 5.820553 8.256499 -1.570796 0.000000 0.000000
  8 3.724079 -0.043492 1.670741 0.000000 -0.000000 0.000000
time 44
  0 -6.361559 0.000000 -2.000000 1.570796 0.000000 0.000000
  1 -0.206138 10.177488 -5.012450 -0.171934 0.770319 1.326417
  2 -0.213204 10.177486 5.272728 -2.969658 -0.770319 1.326416
  3 11.107477 6.258768 -0.298242 1.545069 -0.970163 -1.560027
  4 18.487717 6.359417 0.000002 0.000000 0.000000 0.000000
  5 37.780266 6.184988 -0.000001 0.000000 0.000000 0.000000
  6 18.974072 5.820559 -7.976972 -1.570796 0.000000 0.000000
  7 18.974072 5.820553 8.256499 -1.570796 0.000000 0.000000
  8 3.724079 -0.043492 1.670741 0.000000 -0.000000 0.000000
time 45
  0 -6.361559 0.000000 -2.000000 1.570796 0.000000 0.000000
  1 -0.206138 10.177488 -5.012450 -0.171934 0.770319 1.326417
  2 -0.213204 10.177486 5.272728 -2.969658 -0.770319 1.326416
  3 11.107477 6.258768 -0.298242 1.545069 -0.970163 -1.560027
  4 18.487717 6.359417 0.000002 0.000000 0.000000 0.000000
  5 37.780266 6.184988 -0.000001 0.000000 0.000000 0.000000
  6 18.974072 5.820559 -7.976972 -1.570796 0.000000 0.000000
  7 18.974072 5.820553 8.256499 -1.570796 0.000000 0.000000
  8 3.724079 -0.043492 1.670741 0.000000 -0.000000 0.000000
time 46
  0 -6.361559 0.000000 -2.000000 1.570796 0.000000 0.000000
  1 -0.206138 10.177488 -5.012450 -0.171934 0.770319 1.326417
  2 -0.213204 10.177486 5.272728 -2.969658 -0.770319 1.326416
  3 11.107477 6.258768 -0.298242 1.545069 -0.970163 -1.560027
  4 18.487717 6.359417 0.000002 0.000000 0.000000 0.000000
  5 37.780266 6.184988 -0.000001 0.000000 0.000000 0.000000
  6 18.974072 5.820559 -7.976972 -1.570796 0.000000 0.000000
  7 18.974072 5.820553 8.256499 -1.570796 0.000000 0.000000
  8 3.724079 -0.043492 1.670741 0.000000 -0.000000 0.000000
time 47
  0 -6.361559 0.000000 -2.000000 1.570796 0.000000 0.000000
  1 -0.206138 10.177488 -5.012450 -0.171934 0.770319 1.326417
  2 -0.213204 10.177486 5.272728 -2.969658 -0.770319 1.326416
  3 11.107477 6.258768 -0.298242 1.545069 -0.970163 -1.560027
  4 18.487717 6.359417 0.000002 0.000000 0.000000 0.000000
  5 37.780266 6.184988 -0.000001 0.000000 0.000000 0.000000
  6 18.974072 5.820559 -7.976972 -1.570796 0.000000 0.000000
  7 18.974072 5.820553 8.256499 -1.570796 0.000000 0.000000
  8 3.724079 -0.043492 1.670741 0.000000 -0.000000 0.000000
time 48
  0 -6.361559 0.000000 -2.000000 1.570796 0.000000 0.000000
  1 -0.206138 10.177488 -5.012450 -0.171934 0.770319 1.326417
  2 -0.213204 10.177486 5.272728 -2.969658 -0.770319 1.326416
  3 11.107477 6.258768 -0.298242 1.545069 -0.970163 -1.560027
  4 18.487717 6.359417 0.000002 0.000000 0.000000 0.000000
  5 37.780266 6.184988 -0.000001 0.000000 0.000000 0.000000
  6 18.974072 5.820559 -7.976972 -1.570796 0.000000 0.000000
  7 18.974072 5.820553 8.256499 -1.570796 0.000000 0.000000
  8 3.724079 -0.043492 1.670741 0.000000 -0.000000 0.000000
time 49
  0 -6.361559 0.000000 -2.000000 1.570796 0.000000 0.000000
  1 -0.206138 10.177488 -5.012450 -0.171934 0.770319 1.326417
  2 -0.213204 10.177486 5.272728 -2.969658 -0.770319 1.326416
  3 11.107477 6.258768 -0.298242 1.545069 -0.970163 -1.560027
  4 18.487717 6.359417 0.000002 0.000000 0.000000 0.000000
  5 37.780266 6.184988 -0.000001 0.000000 0.000000 0.000000
  6 18.974072 5.820559 -7.976972 -1.570796 0.000000 0.000000
  7 18.974072 5.820553 8.256499 -1.570796 0.000000 0.000000
  8 3.724079 -0.043492 1.670741 0.000000 -0.000000 0.000000
time 50
  0 -6.361559 0.000000 -2.000000 1.570796 0.000000 0.000000
  1 -0.206138 10.177488 -5.012450 -0.171934 0.770319 1.326417
  2 -0.213204 10.177486 5.272728 -2.969658 -0.770319 1.326416
  3 11.107477 6.258768 -0.298242 1.545069 -0.970163 -1.560027
  4 18.487717 6.359417 0.000002 0.000000 0.000000 0.000000
  5 37.780266 6.184988 -0.000001 0.000000 0.000000 0.000000
  6 18.974072 5.820559 -7.976972 -1.570796 0.000000 0.000000
  7 18.974072 5.820553 8.256499 -1.570796 0.000000 0.000000
  8 3.724079 -0.043492 1.670741 0.000000 -0.000000 0.000000
time 51
  0 -6.361559 0.000000 -2.000000 1.570796 0.000000 0.000000
  1 -0.206138 10.177488 -5.012450 -0.171934 0.770319 1.326417
  2 -0.213204 10.177486 5.272728 -2.969658 -0.770319 1.326416
  3 11.107477 6.258768 -0.298242 1.545069 -0.970163 -1.560027
  4 18.487717 6.359417 0.000002 0.000000 0.000000 0.000000
  5 37.780266 6.184988 -0.000001 0.000000 0.000000 0.000000
  6 18.974072 5.820559 -7.976972 -1.570796 0.000000 0.000000
  7 18.974072 5.820553 8.256499 -1.570796 0.000000 0.000000
  8 3.724079 -0.043492 1.670741 0.000000 -0.000000 0.000000
time 52
  0 -6.361559 0.000000 -2.000000 1.570796 0.000000 0.000000
  1 -0.206138 10.177488 -5.012450 -0.171934 0.770319 1.326417
  2 -0.213204 10.177486 5.272728 -2.969658 -0.770319 1.326416
  3 11.107477 6.258768 -0.298242 1.545069 -0.970163 -1.560027
  4 18.487717 6.359417 0.000002 0.000000 0.000000 0.000000
  5 37.780266 6.184988 -0.000001 0.000000 0.000000 0.000000
  6 18.974072 5.820559 -7.976972 -1.570796 0.000000 0.000000
  7 18.974072 5.820553 8.256499 -1.570796 0.000000 0.000000
  8 3.724079 -0.043492 1.670741 0.000000 -0.000000 0.000000
time 53
  0 -6.361559 0.000000 -2.000000 1.570796 0.000000 0.000000
  1 -0.206138 10.177488 -5.012450 -0.171934 0.770319 1.326417
  2 -0.213204 10.177486 5.272728 -2.969658 -0.770319 1.326416
  3 11.107477 6.258768 -0.298242 1.545069 -0.970163 -1.560027
  4 18.487717 6.359417 0.000002 0.000000 0.000000 0.000000
  5 37.780266 6.184988 -0.000001 0.000000 0.000000 0.000000
  6 18.974072 5.820559 -7.976972 -1.570796 0.000000 0.000000
  7 18.974072 5.820553 8.256499 -1.570796 0.000000 0.000000
  8 3.724079 -0.043492 1.670741 0.000000 -0.000000 0.000000
time 54
  0 -6.361559 0.000000 -2.000000 1.570796 0.000000 0.000000
  1 -0.206138 10.177488 -5.012450 -0.171934 0.770319 1.326417
  2 -0.213204 10.177486 5.272728 -2.969658 -0.770319 1.326416
  3 11.107477 6.258768 -0.298242 1.545069 -0.970163 -1.560027
  4 18.487717 6.359417 0.000002 0.000000 0.000000 0.000000
  5 37.780266 6.184988 -0.000001 0.000000 0.000000 0.000000
  6 18.974072 5.820559 -7.976972 -1.570796 0.000000 0.000000
  7 18.974072 5.820553 8.256499 -1.570796 0.000000 0.000000
  8 3.724079 -0.043492 1.670741 0.000000 -0.000000 0.000000
time 55
  0 -6.361559 0.000000 -2.000000 1.570796 0.000000 0.000000
  1 -0.206138 10.177488 -5.012450 -0.171934 0.770319 1.326417
  2 -0.213204 10.177486 5.272728 -2.969658 -0.770319 1.326416
  3 11.107477 6.258768 -0.298242 1.545069 -0.970163 -1.560027
  4 18.487717 6.359417 0.000002 0.000000 0.000000 0.000000
  5 37.780266 6.184988 -0.000001 0.000000 0.000000 0.000000
  6 18.974072 5.820559 -7.976972 -1.570796 0.000000 0.000000
  7 18.974072 5.820553 8.256499 -1.570796 0.000000 0.000000
  8 3.724079 -0.043492 1.670741 0.000000 -0.000000 0.000000
time 56
  0 -6.361559 0.000000 -2.000000 1.570796 0.000000 0.000000
  1 -0.206138 10.177488 -5.012450 -0.171934 0.770319 1.326417
  2 -0.213204 10.177486 5.272728 -2.969658 -0.770319 1.326416
  3 11.107477 6.258768 -0.298242 1.545069 -0.970163 -1.560027
  4 18.487717 6.359417 0.000002 0.000000 0.000000 0.000000
  5 37.780266 6.184988 -0.000001 0.000000 0.000000 0.000000
  6 18.974072 5.820559 -7.976972 -1.570796 0.000000 0.000000
  7 18.974072 5.820553 8.256499 -1.570796 0.000000 0.000000
  8 3.724079 -0.043492 1.670741 0.000000 -0.000000 0.000000
time 57
  0 -6.361559 0.000000 -2.000000 1.570796 0.000000 0.000000
  1 -0.206138 10.177488 -5.012450 -0.171934 0.770319 1.326417
  2 -0.213204 10.177486 5.272728 -2.969658 -0.770319 1.326416
  3 11.107477 6.258768 -0.298242 1.545069 -0.970163 -1.560027
  4 18.487717 6.359417 0.000002 0.000000 0.000000 0.000000
  5 37.780266 6.184988 -0.000001 0.000000 0.000000 0.000000
  6 18.974072 5.820559 -7.976972 -1.570796 0.000000 0.000000
  7 18.974072 5.820553 8.256499 -1.570796 0.000000 0.000000
  8 3.724079 -0.043492 1.670741 0.000000 -0.000000 0.000000
time 58
  0 -6.361559 0.000000 -2.000000 1.570796 0.000000 0.000000
  1 -0.206138 10.177488 -5.012450 -0.171934 0.770319 1.326417
  2 -0.213204 10.177486 5.272728 -2.969658 -0.770319 1.326416
  3 11.107477 6.258768 -0.298242 1.545069 -0.970163 -1.560027
  4 18.487717 6.359417 0.000002 0.000000 0.000000 0.000000
  5 37.780266 6.184988 -0.000001 0.000000 0.000000 0.000000
  6 18.974072 5.820559 -7.976972 -1.570796 0.000000 0.000000
  7 18.974072 5.820553 8.256499 -1.570796 0.000000 0.000000
  8 3.724079 -0.043492 1.670741 0.000000 -0.000000 0.000000
time 59
  0 -6.361559 0.000000 -2.000000 1.570796 0.000000 0.000000
  1 -0.206138 10.177488 -5.012450 -0.171934 0.770319 1.326417
  2 -0.213204 10.177486 5.272728 -2.969658 -0.770319 1.326416
  3 11.107477 6.258768 -0.298242 1.545069 -0.970163 -1.560027
  4 18.487717 6.359417 0.000002 0.000000 0.000000 0.000000
  5 37.780266 6.184988 -0.000001 0.000000 0.000000 0.000000
  6 18.974072 5.820559 -7.976972 -1.570796 0.000000 0.000000
  7 18.974072 5.820553 8.256499 -1.570796 0.000000 0.000000
  8 3.724079 -0.043492 1.670741 0.000000 -0.000000 0.000000
time 60
  0 -6.361559 0.000000 -2.000000 1.570796 0.000000 0.000000
  1 -0.206138 10.177488 -5.012450 -0.171934 0.770319 1.326417
  2 -0.213204 10.177486 5.272728 -2.969658 -0.770319 1.326416
  3 11.107477 6.258768 -0.298242 1.545069 -0.970163 -1.560027
  4 18.487717 6.359417 0.000002 0.000000 0.000000 0.000000
  5 37.780266 6.184988 -0.000001 0.000000 0.000000 0.000000
  6 18.974072 5.820559 -7.976972 -1.570796 0.000000 0.000000
  7 18.974072 5.820553 8.256499 -1.570796 0.000000 0.000000
  8 3.724079 -0.043492 1.670741 0.000000 -0.000000 0.000000
time 61
  0 -6.361559 0.000000 -2.000000 1.570796 0.000000 0.000000
  1 -0.206138 10.177488 -5.012450 -0.171934 0.770319 1.326417
  2 -0.213204 10.177486 5.272728 -2.969658 -0.770319 1.326416
  3 11.107477 6.258768 -0.298242 1.545069 -0.970163 -1.560027
  4 18.487717 6.359417 0.000002 0.000000 0.000000 0.000000
  5 37.780266 6.184988 -0.000001 0.000000 0.000000 0.000000
  6 18.974072 5.820559 -7.976972 -1.570796 0.000000 0.000000
  7 18.974072 5.820553 8.256499 -1.570796 0.000000 0.000000
  8 3.724079 -0.043492 1.670741 0.000000 -0.000000 0.000000
time 62
  0 -6.361559 0.000000 -2.000000 1.570796 0.000000 0.000000
  1 -0.206138 10.177488 -5.012450 -0.171934 0.770319 1.326417
  2 -0.213204 10.177486 5.272728 -2.969658 -0.770319 1.326416
  3 11.107477 6.258768 -0.298242 1.545069 -0.970163 -1.560027
  4 18.487717 6.359417 0.000002 0.000000 0.000000 0.000000
  5 37.780266 6.184988 -0.000001 0.000000 0.000000 0.000000
  6 18.974072 5.820559 -7.976972 -1.570796 0.000000 0.000000
  7 18.974072 5.820553 8.256499 -1.570796 0.000000 0.000000
  8 3.724079 -0.043492 1.670741 0.000000 -0.000000 0.000000
time 63
  0 -6.361559 0.000000 -2.000000 1.570796 0.000000 0.000000
  1 -0.206138 10.177488 -5.012450 -0.171934 0.770319 1.326417
  2 -0.213204 10.177486 5.272728 -2.969658 -0.770319 1.326416
  3 11.107477 6.258768 -0.298242 1.545069 -0.970163 -1.560027
  4 18.487717 6.359417 0.000002 0.000000 0.000000 0.000000
  5 37.780266 6.184988 -0.000001 0.000000 0.000000 0.000000
  6 18.974072 5.820559 -7.976972 -1.570796 0.000000 0.000000
  7 18.974072 5.820553 8.256499 -1.570796 0.000000 0.000000
  8 3.724079 -0.043492 1.670741 0.000000 -0.000000 0.000000
time 64
  0 -6.361559 0.000000 -2.000000 1.570796 0.000000 0.000000
  1 -0.206138 10.177488 -5.012450 -0.171934 0.770319 1.326417
  2 -0.213204 10.177486 5.272728 -2.969658 -0.770319 1.326416
  3 11.107477 6.258768 -0.298242 1.545069 -0.970163 -1.560027
  4 18.487717 6.359417 0.000002 0.000000 0.000000 0.000000
  5 37.780266 6.184988 -0.000001 0.000000 0.000000 0.000000
  6 18.974072 5.820559 -7.976972 -1.570796 0.000000 0.000000
  7 18.974072 5.820553 8.256499 -1.570796 0.000000 0.000000
  8 3.724079 -0.043492 1.670741 0.000000 -0.000000 0.000000
time 65
  0 -6.361559 0.000000 -2.000000 1.570796 0.000000 0.000000
  1 -0.206138 10.177488 -5.012450 -0.171934 0.770319 1.326417
  2 -0.213204 10.177486 5.272728 -2.969658 -0.770319 1.326416
  3 11.107477 6.258768 -0.298242 1.545069 -0.970163 -1.560027
  4 18.487717 6.359417 0.000002 0.000000 0.000000 0.000000
  5 37.780266 6.184988 -0.000001 0.000000 0.000000 0.000000
  6 18.974072 5.820559 -7.976972 -1.570796 0.000000 0.000000
  7 18.974072 5.820553 8.256499 -1.570796 0.000000 0.000000
  8 3.724079 -0.043492 1.670741 0.000000 -0.000000 0.000000
time 66
  0 -6.361559 0.000000 -2.000000 1.570796 0.000000 0.000000
  1 -0.206138 10.177488 -5.012450 -0.171934 0.770319 1.326417
  2 -0.213204 10.177486 5.272728 -2.969658 -0.770319 1.326416
  3 11.107477 6.258768 -0.298242 1.545069 -0.970163 -1.560027
  4 18.487717 6.359417 0.000002 0.000000 0.000000 0.000000
  5 37.780266 6.184988 -0.000001 0.000000 0.000000 0.000000
  6 18.974072 5.820559 -7.976972 -1.570796 0.000000 0.000000
  7 18.974072 5.820553 8.256499 -1.570796 0.000000 0.000000
  8 3.724079 -0.043492 1.670741 0.000000 -0.000000 0.000000
time 67
  0 -6.361559 0.000000 -2.000000 1.570796 0.000000 0.000000
  1 -0.206138 10.177488 -5.012450 -0.171934 0.770319 1.326417
  2 -0.213204 10.177486 5.272728 -2.969658 -0.770319 1.326416
  3 11.107477 6.258768 -0.298242 1.545069 -0.970163 -1.560027
  4 18.487717 6.359417 0.000002 0.000000 0.000000 0.000000
  5 37.780266 6.184988 -0.000001 0.000000 0.000000 0.000000
  6 18.974072 5.820559 -7.976972 -1.570796 0.000000 0.000000
  7 18.974072 5.820553 8.256499 -1.570796 0.000000 0.000000
  8 3.724079 -0.043492 1.670741 0.000000 -0.000000 0.000000
time 68
  0 -6.361559 0.000000 -2.000000 1.570796 0.000000 0.000000
  1 -0.206138 10.177488 -5.012450 -0.171934 0.770319 1.326417
  2 -0.213204 10.177486 5.272728 -2.969658 -0.770319 1.326416
  3 11.107477 6.258768 -0.298242 1.545069 -0.970163 -1.560027
  4 18.487717 6.359417 0.000002 0.000000 0.000000 0.000000
  5 37.780266 6.184988 -0.000001 0.000000 0.000000 0.000000
  6 18.974072 5.820559 -7.976972 -1.570796 0.000000 0.000000
  7 18.974072 5.820553 8.256499 -1.570796 0.000000 0.000000
  8 3.724079 -0.043492 1.670741 0.000000 -0.000000 0.000000
time 69
  0 -6.361559 0.000000 -2.000000 1.570796 0.000000 0.000000
  1 -0.206138 10.177488 -5.012450 -0.171934 0.770319 1.326417
  2 -0.213204 10.177486 5.272728 -2.969658 -0.770319 1.326416
  3 11.107477 6.258768 -0.298242 1.545069 -0.970163 -1.560027
  4 18.487717 6.359417 0.000002 0.000000 0.000000 0.000000
  5 37.780266 6.184988 -0.000001 0.000000 0.000000 0.000000
  6 18.974072 5.820559 -7.976972 -1.570796 0.000000 0.000000
  7 18.974072 5.820553 8.256499 -1.570796 0.000000 0.000000
  8 3.724079 -0.043492 1.670741 0.000000 -0.000000 0.000000
time 70
  0 -6.361559 0.000000 -2.000000 1.570796 0.000000 0.000000
  1 -0.206138 10.177488 -5.012450 -0.171934 0.770319 1.326417
  2 -0.213204 10.177486 5.272728 -2.969658 -0.770319 1.326416
  3 11.107477 6.258768 -0.298242 1.545069 -0.970163 -1.560027
  4 18.487717 6.359417 0.000002 0.000000 0.000000 0.000000
  5 37.780266 6.184988 -0.000001 0.000000 0.000000 0.000000
  6 18.974072 5.820559 -7.976972 -1.570796 0.000000 0.000000
  7 18.974072 5.820553 8.256499 -1.570796 0.000000 0.000000
  8 3.724079 -0.043492 1.670741 0.000000 -0.000000 0.000000
time 71
  0 -6.361559 0.000000 -2.000000 1.570796 0.000000 0.000000
  1 -0.206138 10.177488 -5.012450 -0.171934 0.770319 1.326417
  2 -0.213204 10.177486 5.272728 -2.969658 -0.770319 1.326416
  3 11.107477 6.258768 -0.298242 1.545069 -0.970163 -1.560027
  4 18.487717 6.359417 0.000002 0.000000 0.000000 0.000000
  5 37.780266 6.184988 -0.000001 0.000000 0.000000 0.000000
  6 18.974072 5.820559 -7.976972 -1.570796 0.000000 0.000000
  7 18.974072 5.820553 8.256499 -1.570796 0.000000 0.000000
  8 3.724079 -0.043492 1.670741 0.000000 -0.000000 0.000000
time 72
  0 -6.361559 0.000000 -2.000000 1.570796 0.000000 0.000000
  1 -0.206138 10.177488 -5.012450 -0.171934 0.770319 1.326417
  2 -0.213204 10.177486 5.272728 -2.969658 -0.770319 1.326416
  3 11.107477 6.258768 -0.298242 1.545069 -0.970163 -1.560027
  4 18.487717 6.359417 0.000002 0.000000 0.000000 0.000000
  5 37.780266 6.184988 -0.000001 0.000000 0.000000 0.000000
  6 18.974072 5.820559 -7.976972 -1.570796 0.000000 0.000000
  7 18.974072 5.820553 8.256499 -1.570796 0.000000 0.000000
  8 3.724079 -0.043492 1.670741 0.000000 -0.000000 0.000000
time 73
  0 -6.361559 0.000000 -2.000000 1.570796 0.000000 0.000000
  1 -0.206138 10.177488 -5.012450 -0.171934 0.770319 1.326417
  2 -0.213204 10.177486 5.272728 -2.969658 -0.770319 1.326416
  3 11.107477 6.258768 -0.298242 1.545069 -0.970163 -1.560027
  4 18.487717 6.359417 0.000002 0.000000 0.000000 0.000000
  5 37.780266 6.184988 -0.000001 0.000000 0.000000 0.000000
  6 18.974072 5.820559 -7.976972 -1.570796 0.000000 0.000000
  7 18.974072 5.820553 8.256499 -1.570796 0.000000 0.000000
  8 3.724079 -0.043492 1.670741 0.000000 -0.000000 0.000000
time 74
  0 -6.361559 0.000000 -2.000000 1.570796 0.000000 0.000000
  1 -0.206138 10.177488 -5.012450 -0.171934 0.770319 1.326417
  2 -0.213204 10.177486 5.272728 -2.969658 -0.770319 1.326416
  3 11.107477 6.258768 -0.298242 1.545069 -0.970163 -1.560027
  4 18.487717 6.359417 0.000002 0.000000 0.000000 0.000000
  5 37.780266 6.184988 -0.000001 0.000000 0.000000 0.000000
  6 18.974072 5.820559 -7.976972 -1.570796 0.000000 0.000000
  7 18.974072 5.820553 8.256499 -1.570796 0.000000 0.000000
  8 3.724079 -0.043492 1.670741 0.000000 -0.000000 0.000000
time 75
  0 -6.361559 0.000000 -2.000000 1.570796 0.000000 0.000000
  1 -0.206138 10.177488 -5.012450 -0.171934 0.770319 1.326417
  2 -0.213204 10.177486 5.272728 -2.969658 -0.770319 1.326416
  3 11.107477 6.258768 -0.298242 1.545069 -0.970163 -1.560027
  4 18.487717 6.359417 0.000002 0.000000 0.000000 0.000000
  5 37.780266 6.184988 -0.000001 0.000000 0.000000 0.000000
  6 18.974072 5.820559 -7.976972 -1.570796 0.000000 0.000000
  7 18.974072 5.820553 8.256499 -1.570796 0.000000 0.000000
  8 3.724079 -0.043492 1.670741 0.000000 -0.000000 0.000000
time 76
  0 -6.361559 0.000000 -2.000000 1.570796 0.000000 0.000000
  1 -0.206138 10.177488 -5.012450 -0.171934 0.770319 1.326417
  2 -0.213204 10.177486 5.272728 -2.969658 -0.770319 1.326416
  3 11.107477 6.258768 -0.298242 1.545069 -0.970163 -1.560027
  4 18.487717 6.359417 0.000002 0.000000 0.000000 0.000000
  5 37.780266 6.184988 -0.000001 0.000000 0.000000 0.000000
  6 18.974072 5.820559 -7.976972 -1.570796 0.000000 0.000000
  7 18.974072 5.820553 8.256499 -1.570796 0.000000 0.000000
  8 3.724079 -0.043492 1.670741 0.000000 -0.000000 0.000000
time 77
  0 -6.361559 0.000000 -2.000000 1.570796 0.000000 0.000000
  1 -0.206138 10.177488 -5.012450 -0.171934 0.770319 1.326417
  2 -0.213204 10.177486 5.272728 -2.969658 -0.770319 1.326416
  3 11.107477 6.258768 -0.298242 1.545069 -0.970163 -1.560027
  4 18.487717 6.359417 0.000002 0.000000 0.000000 0.000000
  5 37.780266 6.184988 -0.000001 0.000000 0.000000 0.000000
  6 18.974072 5.820559 -7.976972 -1.570796 0.000000 0.000000
  7 18.974072 5.820553 8.256499 -1.570796 0.000000 0.000000
  8 3.724079 -0.043492 1.670741 0.000000 -0.000000 0.000000
time 78
  0 -6.361559 0.000000 -2.000000 1.570796 0.000000 0.000000
  1 -0.206138 10.177488 -5.012450 -0.171934 0.770319 1.326417
  2 -0.213204 10.177486 5.272728 -2.969658 -0.770319 1.326416
  3 11.107477 6.258768 -0.298242 1.545069 -0.970163 -1.560027
  4 18.487717 6.359417 0.000002 0.000000 0.000000 0.000000
  5 37.780266 6.184988 -0.000001 0.000000 0.000000 0.000000
  6 18.974072 5.820559 -7.976972 -1.570796 0.000000 0.000000
  7 18.974072 5.820553 8.256499 -1.570796 0.000000 0.000000
  8 3.724079 -0.043492 1.670741 0.000000 -0.000000 0.000000
time 79
  0 -6.361559 0.000000 -2.000000 1.570796 0.000000 0.000000
  1 -0.206138 10.177488 -5.012450 -0.171934 0.770319 1.326417
  2 -0.213204 10.177486 5.272728 -2.969658 -0.770319 1.326416
  3 11.107477 6.258768 -0.298242 1.545069 -0.970163 -1.560027
  4 18.487717 6.359417 0.000002 0.000000 0.000000 0.000000
  5 37.780266 6.184988 -0.000001 0.000000 0.000000 0.000000
  6 18.974072 5.820559 -7.976972 -1.570796 0.000000 0.000000
  7 18.974072 5.820553 8.256499 -1.570796 0.000000 0.000000
  8 3.724079 -0.043492 1.670741 0.000000 -0.000000 0.000000
time 80
  0 -6.361559 0.000000 -2.000000 1.570796 0.000000 0.000000
  1 -0.206138 10.177488 -5.012450 -0.171934 0.770319 1.326417
  2 -0.213204 10.177486 5.272728 -2.969658 -0.770319 1.326416
  3 11.107477 6.258768 -0.298242 1.545069 -0.970163 -1.560027
  4 18.487717 6.359417 0.000002 0.000000 0.000000 0.000000
  5 37.780266 6.184988 -0.000001 0.000000 0.000000 0.000000
  6 18.974072 5.820559 -7.976972 -1.570796 0.000000 0.000000
  7 18.974072 5.820553 8.256499 -1.570796 0.000000 0.000000
  8 3.724079 -0.043492 1.670741 0.000000 -0.000000 0.000000
time 81
  0 -6.361559 0.000000 -2.000000 1.570796 0.000000 0.000000
  1 -0.206138 10.177488 -5.012450 -0.171934 0.770319 1.326417
  2 -0.213204 10.177486 5.272728 -2.969658 -0.770319 1.326416
  3 11.107477 6.258768 -0.298242 1.545069 -0.970163 -1.560027
  4 18.487717 6.359417 0.000002 0.000000 0.000000 0.000000
  5 37.780266 6.184988 -0.000001 0.000000 0.000000 0.000000
  6 18.974072 5.820559 -7.976972 -1.570796 0.000000 0.000000
  7 18.974072 5.820553 8.256499 -1.570796 0.000000 0.000000
  8 3.724079 -0.043492 1.670741 0.000000 -0.000000 0.000000
time 82
  0 -6.361559 0.000000 -2.000000 1.570796 0.000000 0.000000
  1 -0.206138 10.177488 -5.012450 -0.171934 0.770319 1.326417
  2 -0.213204 10.177486 5.272728 -2.969658 -0.770319 1.326416
  3 11.107477 6.258768 -0.298242 1.545069 -0.970163 -1.560027
  4 18.487717 6.359417 0.000002 0.000000 0.000000 0.000000
  5 37.780266 6.184988 -0.000001 0.000000 0.000000 0.000000
  6 18.974072 5.820559 -7.976972 -1.570796 0.000000 0.000000
  7 18.974072 5.820553 8.256499 -1.570796 0.000000 0.000000
  8 3.724079 -0.043492 1.670741 0.000000 -0.000000 0.000000
time 83
  0 -6.361559 0.000000 -2.000000 1.570796 0.000000 0.000000
  1 -0.206138 10.177488 -5.012450 -0.171934 0.770319 1.326417
  2 -0.213204 10.177486 5.272728 -2.969658 -0.770319 1.326416
  3 11.107477 6.258768 -0.298242 1.545069 -0.970163 -1.560027
  4 18.487717 6.359417 0.000002 0.000000 0.000000 0.000000
  5 37.780266 6.184988 -0.000001 0.000000 0.000000 0.000000
  6 18.974072 5.820559 -7.976972 -1.570796 0.000000 0.000000
  7 18.974072 5.820553 8.256499 -1.570796 0.000000 0.000000
  8 3.724079 -0.043492 1.670741 0.000000 -0.000000 0.000000
time 84
  0 -6.361559 0.000000 -2.000000 1.570796 0.000000 0.000000
  1 -0.206138 10.177488 -5.012450 -0.171934 0.770319 1.326417
  2 -0.213204 10.177486 5.272728 -2.969658 -0.770319 1.326416
  3 11.107477 6.258768 -0.298242 1.545069 -0.970163 -1.560027
  4 18.487717 6.359417 0.000002 0.000000 0.000000 0.000000
  5 37.780266 6.184988 -0.000001 0.000000 0.000000 0.000000
  6 18.974072 5.820559 -7.976972 -1.570796 0.000000 0.000000
  7 18.974072 5.820553 8.256499 -1.570796 0.000000 0.000000
  8 3.724079 -0.043492 1.670741 0.000000 -0.000000 0.000000
time 85
  0 -6.361559 0.000000 -2.000000 1.570796 0.000000 0.000000
  1 -0.206138 10.177488 -5.012450 -0.171934 0.770319 1.326417
  2 -0.213204 10.177486 5.272728 -2.969658 -0.770319 1.326416
  3 11.107477 6.258768 -0.298242 1.545069 -0.970163 -1.560027
  4 18.487717 6.359417 0.000002 0.000000 0.000000 0.000000
  5 37.780266 6.184988 -0.000001 0.000000 0.000000 0.000000
  6 18.974072 5.820559 -7.976972 -1.570796 0.000000 0.000000
  7 18.974072 5.820553 8.256499 -1.570796 0.000000 0.000000
  8 3.724079 -0.043492 1.670741 0.000000 -0.000000 0.000000
time 86
  0 -6.361559 0.000000 -2.000000 1.570796 0.000000 0.000000
  1 -0.206138 10.177488 -5.012450 -0.171934 0.770319 1.326417
  2 -0.213204 10.177486 5.272728 -2.969658 -0.770319 1.326416
  3 11.107477 6.258768 -0.298242 1.545069 -0.970163 -1.560027
  4 18.487717 6.359417 0.000002 0.000000 0.000000 0.000000
  5 37.780266 6.184988 -0.000001 0.000000 0.000000 0.000000
  6 18.974072 5.820559 -7.976972 -1.570796 0.000000 0.000000
  7 18.974072 5.820553 8.256499 -1.570796 0.000000 0.000000
  8 3.724079 -0.043492 1.670741 0.000000 -0.000000 0.000000
time 87
  0 -6.361559 0.000000 -2.000000 1.570796 0.000000 0.000000
  1 -0.206138 10.177488 -5.012450 -0.171934 0.770319 1.326417
  2 -0.213204 10.177486 5.272728 -2.969658 -0.770319 1.326416
  3 11.107477 6.258768 -0.298242 1.545069 -0.970163 -1.560027
  4 18.487717 6.359417 0.000002 0.000000 0.000000 0.000000
  5 37.780266 6.184988 -0.000001 0.000000 0.000000 0.000000
  6 18.974072 5.820559 -7.976972 -1.570796 0.000000 0.000000
  7 18.974072 5.820553 8.256499 -1.570796 0.000000 0.000000
  8 3.724079 -0.043492 1.670741 0.000000 -0.000000 0.000000
time 88
  0 -6.361559 0.000000 -2.000000 1.570796 0.000000 0.000000
  1 -0.206138 10.177488 -5.012450 -0.171934 0.770319 1.326417
  2 -0.213204 10.177486 5.272728 -2.969658 -0.770319 1.326416
  3 11.107477 6.258768 -0.298242 1.545069 -0.970163 -1.560027
  4 18.487717 6.359417 0.000002 0.000000 0.000000 0.000000
  5 37.780266 6.184988 -0.000001 0.000000 0.000000 0.000000
  6 18.974072 5.820559 -7.976972 -1.570796 0.000000 0.000000
  7 18.974072 5.820553 8.256499 -1.570796 0.000000 0.000000
  8 3.724079 -0.043492 1.670741 0.000000 -0.000000 0.000000
time 89
  0 -6.361559 0.000000 -2.000000 1.570796 0.000000 0.000000
  1 -0.206138 10.177488 -5.012450 -0.171934 0.770319 1.326417
  2 -0.213204 10.177486 5.272728 -2.969658 -0.770319 1.326416
  3 11.107477 6.258768 -0.298242 1.545069 -0.970163 -1.560027
  4 18.487717 6.359417 0.000002 0.000000 0.000000 0.000000
  5 37.780266 6.184988 -0.000001 0.000000 0.000000 0.000000
  6 18.974072 5.820559 -7.976972 -1.570796 0.000000 0.000000
  7 18.974072 5.820553 8.256499 -1.570796 0.000000 0.000000
  8 3.724079 -0.043492 1.670741 0.000000 -0.000000 0.000000
time 90
  0 -6.361559 0.000000 -2.000000 1.570796 0.000000 0.000000
  1 -0.206138 10.177488 -5.012450 -0.171934 0.770319 1.326417
  2 -0.213204 10.177486 5.272728 -2.969658 -0.770319 1.326416
  3 11.107477 6.258768 -0.298242 1.545069 -0.970163 -1.560027
  4 18.487717 6.359417 0.000002 0.000000 0.000000 0.000000
  5 37.780266 6.184988 -0.000001 0.000000 0.000000 0.000000
  6 18.974072 5.820559 -7.976972 -1.570796 0.000000 0.000000
  7 18.974072 5.820553 8.256499 -1.570796 0.000000 0.000000
  8 3.724079 -0.043492 1.670741 0.000000 -0.000000 0.000000
time 91
  0 -6.361559 0.000000 -2.000000 1.570796 0.000000 0.000000
  1 -0.206138 10.177488 -5.012450 -0.171934 0.770319 1.326417
  2 -0.213204 10.177486 5.272728 -2.969658 -0.770319 1.326416
  3 11.107477 6.258768 -0.298242 1.545069 -0.970163 -1.560027
  4 18.487717 6.359417 0.000002 0.000000 0.000000 0.000000
  5 37.780266 6.184988 -0.000001 0.000000 0.000000 0.000000
  6 18.974072 5.820559 -7.976972 -1.570796 0.000000 0.000000
  7 18.974072 5.820553 8.256499 -1.570796 0.000000 0.000000
  8 3.724079 -0.043492 1.670741 0.000000 -0.000000 0.000000
time 92
  0 -6.361559 0.000000 -2.000000 1.570796 0.000000 0.000000
  1 -0.206138 10.177488 -5.012450 -0.171934 0.770319 1.326417
  2 -0.213204 10.177486 5.272728 -2.969658 -0.770319 1.326416
  3 11.107477 6.258768 -0.298242 1.545069 -0.970163 -1.560027
  4 18.487717 6.359417 0.000002 0.000000 0.000000 0.000000
  5 37.780266 6.184988 -0.000001 0.000000 0.000000 0.000000
  6 18.974072 5.820559 -7.976972 -1.570796 0.000000 0.000000
  7 18.974072 5.820553 8.256499 -1.570796 0.000000 0.000000
  8 3.724079 -0.043492 1.670741 0.000000 -0.000000 0.000000
time 93
  0 -6.361559 0.000000 -2.000000 1.570796 0.000000 0.000000
  1 -0.206138 10.177488 -5.012450 -0.171934 0.770319 1.326417
  2 -0.213204 10.177486 5.272728 -2.969658 -0.770319 1.326416
  3 11.107477 6.258768 -0.298242 1.545069 -0.970163 -1.560027
  4 18.487717 6.359417 0.000002 0.000000 0.000000 0.000000
  5 37.780266 6.184988 -0.000001 0.000000 0.000000 0.000000
  6 18.974072 5.820559 -7.976972 -1.570796 0.000000 0.000000
  7 18.974072 5.820553 8.256499 -1.570796 0.000000 0.000000
  8 3.724079 -0.043492 1.670741 0.000000 -0.000000 0.000000
time 94
  0 -6.361559 0.000000 -2.000000 1.570796 0.000000 0.000000
  1 -0.206138 10.177488 -5.012450 -0.171934 0.770319 1.326417
  2 -0.213204 10.177486 5.272728 -2.969658 -0.770319 1.326416
  3 11.107477 6.258768 -0.298242 1.545069 -0.970163 -1.560027
  4 18.487717 6.359417 0.000002 0.000000 0.000000 0.000000
  5 37.780266 6.184988 -0.000001 0.000000 0.000000 0.000000
  6 18.974072 5.820559 -7.976972 -1.570796 0.000000 0.000000
  7 18.974072 5.820553 8.256499 -1.570796 0.000000 0.000000
  8 3.724079 -0.043492 1.670741 0.000000 -0.000000 0.000000
time 95
  0 -6.361559 0.000000 -2.000000 1.570796 0.000000 0.000000
  1 -0.206138 10.177488 -5.012450 -0.171934 0.770319 1.326417
  2 -0.213204 10.177486 5.272728 -2.969658 -0.770319 1.326416
  3 11.107477 6.258768 -0.298242 1.545069 -0.970163 -1.560027
  4 18.487717 6.359417 0.000002 0.000000 0.000000 0.000000
  5 37.780266 6.184988 -0.000001 0.000000 0.000000 0.000000
  6 18.974072 5.820559 -7.976972 -1.570796 0.000000 0.000000
  7 18.974072 5.820553 8.256499 -1.570796 0.000000 0.000000
  8 3.724079 -0.043492 1.670741 0.000000 -0.000000 0.000000
time 96
  0 -6.361559 0.000000 -2.000000 1.570796 0.000000 0.000000
  1 -0.206138 10.177488 -5.012450 -0.171934 0.770319 1.326417
  2 -0.213204 10.177486 5.272728 -2.969658 -0.770319 1.326416
  3 11.107477 6.258768 -0.298242 1.545069 -0.970163 -1.560027
  4 18.487717 6.359417 0.000002 0.000000 0.000000 0.000000
  5 37.780266 6.184988 -0.000001 0.000000 0.000000 0.000000
  6 18.974072 5.820559 -7.976972 -1.570796 0.000000 0.000000
  7 18.974072 5.820553 8.256499 -1.570796 0.000000 0.000000
  8 3.724079 -0.043492 1.670741 0.000000 -0.000000 0.000000
time 97
  0 -6.361559 0.000000 -2.000000 1.570796 0.000000 0.000000
  1 -0.206138 10.177488 -5.012450 -0.171934 0.770319 1.326417
  2 -0.213204 10.177486 5.272728 -2.969658 -0.770319 1.326416
  3 11.107477 6.258768 -0.298242 1.545069 -0.970163 -1.560027
  4 18.487717 6.359417 0.000002 0.000000 0.000000 0.000000
  5 37.780266 6.184988 -0.000001 0.000000 0.000000 0.000000
  6 18.974072 5.820559 -7.976972 -1.570796 0.000000 0.000000
  7 18.974072 5.820553 8.256499 -1.570796 0.000000 0.000000
  8 3.724079 -0.043492 1.670741 0.000000 -0.000000 0.000000
time 98
  0 -6.361559 0.000000 -2.000000 1.570796 0.000000 0.000000
  1 -0.206138 10.177488 -5.012450 -0.171934 0.770319 1.326417
  2 -0.213204 10.177486 5.272728 -2.969658 -0.770319 1.326416
  3 11.107477 6.258768 -0.298242 1.545069 -0.970163 -1.560027
  4 18.487717 6.359417 0.000002 0.000000 0.000000 0.000000
  5 37.780266 6.184988 -0.000001 0.000000 0.000000 0.000000
  6 18.974072 5.820559 -7.976972 -1.570796 0.000000 0.000000
  7 18.974072 5.820553 8.256499 -1.570796 0.000000 0.000000
  8 3.724079 -0.043492 1.670741 0.000000 -0.000000 0.000000
time 99
  0 -6.361559 0.000000 -2.000000 1.570796 0.000000 0.000000
  1 -0.206138 10.177488 -5.012450 -0.171934 0.770319 1.326417
  2 -0.213204 10.177486 5.272728 -2.969658 -0.770319 1.326416
  3 11.107477 6.258768 -0.298242 1.545069 -0.970163 -1.560027
  4 18.487717 6.359417 0.000002 0.000000 0.000000 0.000000
  5 37.780266 6.184988 -0.000001 0.000000 0.000000 0.000000
  6 18.974072 5.820559 -7.976972 -1.570796 0.000000 0.000000
  7 18.974072 5.820553 8.256499 -1.570796 0.000000 0.000000
  8 3.724079 -0.043492 1.670741 0.000000 -0.000000 0.000000
time 100
  0 -6.361559 0.000000 -2.000000 1.570796 0.000000 0.000000
  1 -0.206138 10.177488 -5.012450 -0.171934 0.770319 1.326417
  2 -0.213204 10.177486 5.272728 -2.969658 -0.770319 1.326416
  3 11.107477 6.258768 -0.298242 1.545069 -0.970163 -1.560027
  4 18.487717 6.359417 0.000002 0.000000 0.000000 0.000000
  5 37.780266 6.184988 -0.000001 0.000000 0.000000 0.000000
  6 18.974072 5.820559 -7.976972 -1.570796 0.000000 0.000000
  7 18.974072 5.820553 8.256499 -1.570796 0.000000 0.000000
  8 3.724079 -0.043492 1.670741 0.000000 -0.000000 0.000000
end
