<?xml version="1.0" encoding="UTF-8" standalone="no"?>
<!-- Created with Inkscape (http://www.inkscape.org/) -->

<svg
   xmlns:dc="http://purl.org/dc/elements/1.1/"
   xmlns:cc="http://creativecommons.org/ns#"
   xmlns:rdf="http://www.w3.org/1999/02/22-rdf-syntax-ns#"
   xmlns:svg="http://www.w3.org/2000/svg"
   xmlns="http://www.w3.org/2000/svg"
   xmlns:xlink="http://www.w3.org/1999/xlink"
   xmlns:sodipodi="http://sodipodi.sourceforge.net/DTD/sodipodi-0.dtd"
   xmlns:inkscape="http://www.inkscape.org/namespaces/inkscape"
   width="48"
   height="48"
   id="svg2"
   sodipodi:version="0.32"
   inkscape:version="0.48.1 r9760"
   version="1.0"
   sodipodi:docname="assault2.svg"
   inkscape:output_extension="org.inkscape.output.svg.inkscape"
   inkscape:export-xdpi="30"
   inkscape:export-ydpi="30">
  <defs
     id="defs4">
    <linearGradient
       id="linearGradient4489">
      <stop
         id="stop4491"
         offset="0"
         style="stop-color:#000000;stop-opacity:1;" />
      <stop
         style="stop-color:#0f3f6f;stop-opacity:1;"
         offset="0.50144649"
         id="stop4493" />
      <stop
         id="stop4495"
         offset="1"
         style="stop-color:#000000;stop-opacity:1;" />
    </linearGradient>
    <linearGradient
       id="linearGradient4425">
      <stop
         id="stop4427"
         offset="0"
         style="stop-color:#bfdfff;stop-opacity:1;" />
      <stop
         style="stop-color:#5fafff;stop-opacity:1;"
         offset="0.2"
         id="stop4429" />
      <stop
         style="stop-color:#5fafff;stop-opacity:1;"
         offset="0.80000001"
         id="stop4431" />
      <stop
         id="stop4433"
         offset="1"
         style="stop-color:#bfdfff;stop-opacity:0" />
    </linearGradient>
    <linearGradient
       id="linearGradient3698">
      <stop
         style="stop-color:#000000;stop-opacity:1;"
         offset="0"
         id="stop3700" />
      <stop
         id="stop3706"
         offset="0.5"
         style="stop-color:#0f3f6f;stop-opacity:1;" />
      <stop
         style="stop-color:#000000;stop-opacity:1;"
         offset="1"
         id="stop3702" />
    </linearGradient>
    <linearGradient
       id="linearGradient3674">
      <stop
         style="stop-color:#4f0f00;stop-opacity:1;"
         offset="0"
         id="stop3676" />
      <stop
         id="stop4673"
         offset="0.5"
         style="stop-color:#270700;stop-opacity:1;" />
      <stop
         style="stop-color:#4f0f00;stop-opacity:1;"
         offset="1"
         id="stop3678" />
    </linearGradient>
    <linearGradient
       id="linearGradient3666">
      <stop
         style="stop-color:#3f0f00;stop-opacity:1;"
         offset="0"
         id="stop3668" />
      <stop
         id="stop3671"
         offset="0.75"
         style="stop-color:#ff7f2f;stop-opacity:1;" />
      <stop
         style="stop-color:#3f0f00;stop-opacity:1;"
         offset="1"
         id="stop3670" />
    </linearGradient>
    <linearGradient
       id="linearGradient3606">
      <stop
         style="stop-color:#bfdfff;stop-opacity:1;"
         offset="0"
         id="stop3608" />
      <stop
         id="stop3616"
         offset="0.2"
         style="stop-color:#5fafff;stop-opacity:1;" />
      <stop
         id="stop3614"
         offset="0.80000001"
         style="stop-color:#5fafff;stop-opacity:1;" />
      <stop
         style="stop-color:#bfdfff;stop-opacity:1;"
         offset="1"
         id="stop3610" />
    </linearGradient>
    <linearGradient
       inkscape:collect="always"
       xlink:href="#linearGradient3698"
       id="linearGradient3705"
       gradientUnits="userSpaceOnUse"
       x1="1024"
       y1="640"
       x2="1024"
       y2="384"
       gradientTransform="matrix(0.17187493,0,0,0.17187493,-151.99995,-65.827234)" />
    <linearGradient
       inkscape:collect="always"
       xlink:href="#linearGradient3606"
       id="linearGradient3708"
       gradientUnits="userSpaceOnUse"
       gradientTransform="matrix(0.17187493,0,0,0.17187493,-151.99995,-241.82716)"
       x1="1024"
       y1="1664"
       x2="1024"
       y2="1480" />
    <linearGradient
       inkscape:collect="always"
       xlink:href="#linearGradient3606"
       id="linearGradient3659"
       x1="23.999979"
       y1="46.000004"
       x2="23.999979"
       y2="14.375016"
       gradientUnits="userSpaceOnUse"
       gradientTransform="translate(0,-1.8272762)" />
    <linearGradient
       inkscape:collect="always"
       xlink:href="#linearGradient3606"
       id="linearGradient4423"
       x1="-20.385151"
       y1="10.64743"
       x2="-4.4441223"
       y2="49.22245"
       gradientUnits="userSpaceOnUse"
       gradientTransform="translate(39.335653,0.16299303)" />
    <linearGradient
       inkscape:collect="always"
       xlink:href="#linearGradient4489"
       id="linearGradient4475"
       x1="8.5212355"
       y1="17.044901"
       x2="21.354378"
       y2="12.901083"
       gradientUnits="userSpaceOnUse"
       gradientTransform="matrix(-0.86994526,-0.4931483,-0.4931483,0.86994526,33.495811,3.9501176)" />
    <linearGradient
       inkscape:collect="always"
       xlink:href="#linearGradient3606"
       id="linearGradient4487"
       x1="14.039057"
       y1="8.4470243"
       x2="14.104409"
       y2="21.214811"
       gradientUnits="userSpaceOnUse"
       gradientTransform="matrix(-0.86994526,-0.4931483,-0.4931483,0.86994526,33.495811,3.9501176)" />
    <linearGradient
       inkscape:collect="always"
       xlink:href="#linearGradient3674"
       id="linearGradient4499"
       gradientUnits="userSpaceOnUse"
       x1="18.211336"
       y1="10.843237"
       x2="10.556837"
       y2="14.230011"
       gradientTransform="matrix(0.88079501,-0.47349779,0.47349779,0.88079501,14.582159,3.4793568)" />
    <linearGradient
       inkscape:collect="always"
       xlink:href="#linearGradient3666"
       id="linearGradient4501"
       gradientUnits="userSpaceOnUse"
       x1="14.039057"
       y1="8.4470243"
       x2="14.104409"
       y2="21.214811"
       gradientTransform="matrix(0.88079501,-0.47349779,0.47349779,0.88079501,14.582159,3.4793568)" />
    <linearGradient
       inkscape:collect="always"
       xlink:href="#linearGradient3698-7"
       id="linearGradient5262"
       gradientUnits="userSpaceOnUse"
       gradientTransform="matrix(0.66782505,0.04798037,-0.04798037,0.66782505,8.3340613,0.04102977)"
       x1="11.433017"
       y1="23.235922"
       x2="38.364052"
       y2="23.235922" />
    <linearGradient
       id="linearGradient3698-7">
      <stop
         style="stop-color:#000000;stop-opacity:1;"
         offset="0"
         id="stop3700-7" />
      <stop
         id="stop3706-3"
         offset="0.5"
         style="stop-color:#0f3f6f;stop-opacity:1;" />
      <stop
         style="stop-color:#000000;stop-opacity:1;"
         offset="1"
         id="stop3702-9" />
    </linearGradient>
    <linearGradient
       inkscape:collect="always"
       xlink:href="#linearGradient3606-9"
       id="linearGradient5264"
       gradientUnits="userSpaceOnUse"
       gradientTransform="matrix(0.66782505,0.04798037,-0.04798037,0.66782505,8.3340613,0.04102977)"
       x1="11.433017"
       y1="23.235922"
       x2="38.364052"
       y2="23.235922" />
    <linearGradient
       id="linearGradient3606-9">
      <stop
         style="stop-color:#bfdfff;stop-opacity:1;"
         offset="0"
         id="stop3608-0" />
      <stop
         id="stop3616-6"
         offset="0.2"
         style="stop-color:#5fafff;stop-opacity:1;" />
      <stop
         id="stop3614-0"
         offset="0.80000001"
         style="stop-color:#5fafff;stop-opacity:1;" />
      <stop
         style="stop-color:#bfdfff;stop-opacity:1;"
         offset="1"
         id="stop3610-7" />
    </linearGradient>
    <linearGradient
       y2="23.235922"
       x2="38.364052"
       y1="23.235922"
       x1="11.433017"
       gradientTransform="matrix(0.44467648,0.0319481,-0.0319481,0.44467648,6.4264857,21.903362)"
       gradientUnits="userSpaceOnUse"
       id="linearGradient4808"
       xlink:href="#linearGradient3698-7"
       inkscape:collect="always" />
    <linearGradient
       y2="23.235922"
       x2="38.364052"
       y1="23.235922"
       x1="11.433017"
       gradientTransform="matrix(0.44467648,0.0319481,-0.0319481,0.44467648,6.4264857,21.903362)"
       gradientUnits="userSpaceOnUse"
       id="linearGradient4810"
       xlink:href="#linearGradient3606-9"
       inkscape:collect="always" />
    <linearGradient
       inkscape:collect="always"
       xlink:href="#linearGradient3674"
       id="linearGradient4847"
       gradientUnits="userSpaceOnUse"
       gradientTransform="matrix(-0.46924329,0.03371312,0.03371312,0.46924329,42.114367,17.69264)"
       x1="11.433017"
       y1="23.235922"
       x2="38.364052"
       y2="23.235922" />
    <linearGradient
       inkscape:collect="always"
       xlink:href="#linearGradient3666"
       id="linearGradient4849"
       gradientUnits="userSpaceOnUse"
       gradientTransform="matrix(-0.46924329,0.03371312,0.03371312,0.46924329,42.114367,17.69264)"
       x1="11.433017"
       y1="23.235922"
       x2="38.364052"
       y2="23.235922" />
    <linearGradient
       inkscape:collect="always"
       xlink:href="#linearGradient3698-7"
       id="linearGradient4853"
       gradientUnits="userSpaceOnUse"
       gradientTransform="matrix(0.46924329,0.03371312,-0.03371312,0.46924329,6.1146523,17.748012)"
       x1="11.433017"
       y1="23.235922"
       x2="38.364052"
       y2="23.235922" />
    <linearGradient
       inkscape:collect="always"
       xlink:href="#linearGradient3606-9"
       id="linearGradient4855"
       gradientUnits="userSpaceOnUse"
       gradientTransform="matrix(0.46924329,0.03371312,-0.03371312,0.46924329,6.1146523,17.748012)"
       x1="11.433017"
       y1="23.235922"
       x2="38.364052"
       y2="23.235922" />
    <linearGradient
       inkscape:collect="always"
       xlink:href="#linearGradient4489"
       id="linearGradient5367"
       gradientUnits="userSpaceOnUse"
       gradientTransform="matrix(-0.86994526,-0.4931483,-0.4931483,0.86994526,33.495811,3.9501176)"
       x1="8.5212355"
       y1="17.044901"
       x2="21.354378"
       y2="12.901083" />
    <linearGradient
       inkscape:collect="always"
       xlink:href="#linearGradient3606"
       id="linearGradient5369"
       gradientUnits="userSpaceOnUse"
       gradientTransform="matrix(-0.86994526,-0.4931483,-0.4931483,0.86994526,33.495811,3.9501176)"
       x1="14.039057"
       y1="8.4470243"
       x2="14.104409"
       y2="21.214811" />
    <linearGradient
       inkscape:collect="always"
       xlink:href="#linearGradient4489"
       id="linearGradient5373"
       gradientUnits="userSpaceOnUse"
       gradientTransform="matrix(-0.86994526,-0.4931483,-0.4931483,0.86994526,33.495811,3.9501176)"
       x1="8.5212355"
       y1="17.044901"
       x2="21.354378"
       y2="12.901083" />
    <linearGradient
       inkscape:collect="always"
       xlink:href="#linearGradient3606"
       id="linearGradient5375"
       gradientUnits="userSpaceOnUse"
       gradientTransform="matrix(-0.86994526,-0.4931483,-0.4931483,0.86994526,33.495811,3.9501176)"
       x1="14.039057"
       y1="8.4470243"
       x2="14.104409"
       y2="21.214811" />
    <linearGradient
       inkscape:collect="always"
       xlink:href="#linearGradient3674"
       id="linearGradient5387"
       gradientUnits="userSpaceOnUse"
       gradientTransform="matrix(0.88079501,-0.47349779,0.47349779,0.88079501,14.582159,3.4793568)"
       x1="18.211336"
       y1="10.843237"
       x2="10.556837"
       y2="14.230011" />
    <linearGradient
       inkscape:collect="always"
       xlink:href="#linearGradient3666"
       id="linearGradient5389"
       gradientUnits="userSpaceOnUse"
       gradientTransform="matrix(0.88079501,-0.47349779,0.47349779,0.88079501,14.582159,3.4793568)"
       x1="14.039057"
       y1="8.4470243"
       x2="14.104409"
       y2="21.214811" />
    <linearGradient
       inkscape:collect="always"
       xlink:href="#linearGradient3674"
       id="linearGradient5393"
       gradientUnits="userSpaceOnUse"
       gradientTransform="matrix(0.88079501,-0.47349779,0.47349779,0.88079501,14.582159,3.4793568)"
       x1="18.211336"
       y1="10.843237"
       x2="10.556837"
       y2="14.230011" />
    <linearGradient
       inkscape:collect="always"
       xlink:href="#linearGradient3666"
       id="linearGradient5395"
       gradientUnits="userSpaceOnUse"
       gradientTransform="matrix(0.88079501,-0.47349779,0.47349779,0.88079501,14.582159,3.4793568)"
       x1="14.039057"
       y1="8.4470243"
       x2="14.104409"
       y2="21.214811" />
    <linearGradient
       inkscape:collect="always"
       xlink:href="#linearGradient3698-7"
       id="linearGradient5407"
       gradientUnits="userSpaceOnUse"
       gradientTransform="matrix(0.46924329,0.03371312,-0.03371312,0.46924329,6.1146523,17.748012)"
       x1="11.433017"
       y1="23.235922"
       x2="38.364052"
       y2="23.235922" />
    <linearGradient
       inkscape:collect="always"
       xlink:href="#linearGradient3606-9"
       id="linearGradient5409"
       gradientUnits="userSpaceOnUse"
       gradientTransform="matrix(0.46924329,0.03371312,-0.03371312,0.46924329,6.1146523,17.748012)"
       x1="11.433017"
       y1="23.235922"
       x2="38.364052"
       y2="23.235922" />
    <linearGradient
       inkscape:collect="always"
       xlink:href="#linearGradient3698-7"
       id="linearGradient5413"
       gradientUnits="userSpaceOnUse"
       gradientTransform="matrix(0.46924329,0.03371312,-0.03371312,0.46924329,6.1146523,17.748012)"
       x1="11.433017"
       y1="23.235922"
       x2="38.364052"
       y2="23.235922" />
    <linearGradient
       inkscape:collect="always"
       xlink:href="#linearGradient3606-9"
       id="linearGradient5415"
       gradientUnits="userSpaceOnUse"
       gradientTransform="matrix(0.46924329,0.03371312,-0.03371312,0.46924329,6.1146523,17.748012)"
       x1="11.433017"
       y1="23.235922"
       x2="38.364052"
       y2="23.235922" />
    <linearGradient
       inkscape:collect="always"
       xlink:href="#linearGradient3674"
       id="linearGradient5427"
       gradientUnits="userSpaceOnUse"
       gradientTransform="matrix(-0.46924329,0.03371312,0.03371312,0.46924329,42.114367,17.69264)"
       x1="11.433017"
       y1="23.235922"
       x2="38.364052"
       y2="23.235922" />
    <linearGradient
       inkscape:collect="always"
       xlink:href="#linearGradient3666"
       id="linearGradient5429"
       gradientUnits="userSpaceOnUse"
       gradientTransform="matrix(-0.46924329,0.03371312,0.03371312,0.46924329,42.114367,17.69264)"
       x1="11.433017"
       y1="23.235922"
       x2="38.364052"
       y2="23.235922" />
    <linearGradient
       inkscape:collect="always"
       xlink:href="#linearGradient3674"
       id="linearGradient5433"
       gradientUnits="userSpaceOnUse"
       gradientTransform="matrix(-0.46924329,0.03371312,0.03371312,0.46924329,42.114367,17.69264)"
       x1="11.433017"
       y1="23.235922"
       x2="38.364052"
       y2="23.235922" />
    <linearGradient
       inkscape:collect="always"
       xlink:href="#linearGradient3666"
       id="linearGradient5435"
       gradientUnits="userSpaceOnUse"
       gradientTransform="matrix(-0.46924329,0.03371312,0.03371312,0.46924329,42.114367,17.69264)"
       x1="11.433017"
       y1="23.235922"
       x2="38.364052"
       y2="23.235922" />
    <linearGradient
       inkscape:collect="always"
       xlink:href="#linearGradient3666"
       id="linearGradient4109"
       x1="-634.1875"
       y1="149.85893"
       x2="-506.84958"
       y2="149.85893"
       gradientUnits="userSpaceOnUse"
       gradientTransform="matrix(0.30443572,0,0,0.30443572,197.57983,-23.916441)" />
    <linearGradient
       inkscape:collect="always"
       xlink:href="#linearGradient3674"
       id="linearGradient4117"
       x1="-634.1875"
       y1="149.85893"
       x2="-506.84958"
       y2="149.85893"
       gradientUnits="userSpaceOnUse"
       gradientTransform="matrix(0.30443572,0,0,0.30443572,197.57983,-23.916441)" />
    <linearGradient
       inkscape:collect="always"
       xlink:href="#linearGradient3666"
       id="linearGradient4121"
       gradientUnits="userSpaceOnUse"
       gradientTransform="matrix(0.30443572,0,0,0.30443572,197.57983,-23.916441)"
       x1="-634.1875"
       y1="149.85893"
       x2="-506.84958"
       y2="149.85893" />
    <linearGradient
       inkscape:collect="always"
       xlink:href="#linearGradient3674"
       id="linearGradient4123"
       gradientUnits="userSpaceOnUse"
       gradientTransform="matrix(0.30443572,0,0,0.30443572,197.57983,-23.916441)"
       x1="-634.1875"
       y1="149.85893"
       x2="-506.84958"
       y2="149.85893" />
    <linearGradient
       inkscape:collect="always"
       xlink:href="#linearGradient3666"
       id="linearGradient4245"
       gradientUnits="userSpaceOnUse"
       gradientTransform="matrix(0.12172003,0,0,0.12172003,56.213288,14.461119)"
       x1="-662.93182"
       y1="-45.086819"
       x2="-227.73279"
       y2="64.390701" />
    <linearGradient
       inkscape:collect="always"
       xlink:href="#linearGradient3674"
       id="linearGradient4247"
       gradientUnits="userSpaceOnUse"
       gradientTransform="matrix(0.12172003,0,0,0.12172003,56.213288,14.461119)"
       x1="-637.57263"
       y1="7.487133"
       x2="-224.64021"
       y2="115.10911" />
    <radialGradient
       inkscape:collect="always"
       xlink:href="#linearGradient3666"
       id="radialGradient4249"
       gradientUnits="userSpaceOnUse"
       gradientTransform="matrix(1,0,0,1.0380953,0,-5.2569383)"
       cx="-422.75644"
       cy="137.99423"
       fx="-422.75644"
       fy="137.99423"
       r="32.472145" />
    <linearGradient
       inkscape:collect="always"
       xlink:href="#linearGradient3674"
       id="linearGradient4251"
       gradientUnits="userSpaceOnUse"
       x1="-455.22858"
       y1="137.99423"
       x2="-390.2843"
       y2="137.99423" />
    <linearGradient
       inkscape:collect="always"
       xlink:href="#linearGradient3674"
       id="linearGradient4253"
       gradientUnits="userSpaceOnUse"
       gradientTransform="matrix(0.12172003,0,0,0.12172003,56.650645,14.1331)"
       x1="-478.61371"
       y1="125.93315"
       x2="-125.05896"
       y2="125.93315" />
    <radialGradient
       inkscape:collect="always"
       xlink:href="#linearGradient3666"
       id="radialGradient4255"
       gradientUnits="userSpaceOnUse"
       gradientTransform="matrix(1,0,0,1.0380222,0,-5.2468395)"
       cx="-422.75644"
       cy="137.99423"
       fx="-422.75644"
       fy="137.99423"
       r="32.534645" />
    <linearGradient
       inkscape:collect="always"
       xlink:href="#linearGradient3674"
       id="linearGradient4257"
       gradientUnits="userSpaceOnUse"
       x1="-455.29108"
       y1="137.99423"
       x2="-390.2218"
       y2="137.99423" />
    <radialGradient
       inkscape:collect="always"
       xlink:href="#linearGradient3666"
       id="radialGradient4259"
       gradientUnits="userSpaceOnUse"
       gradientTransform="matrix(1,0,0,1.0380222,0,-5.2468395)"
       cx="-422.75644"
       cy="137.99423"
       fx="-422.75644"
       fy="137.99423"
       r="32.534645" />
    <linearGradient
       inkscape:collect="always"
       xlink:href="#linearGradient3674"
       id="linearGradient4261"
       gradientUnits="userSpaceOnUse"
       x1="-455.29108"
       y1="137.99423"
       x2="-390.2218"
       y2="137.99423" />
    <radialGradient
       inkscape:collect="always"
       xlink:href="#linearGradient3666"
       id="radialGradient4263"
       gradientUnits="userSpaceOnUse"
       gradientTransform="matrix(1,0,0,1.0380222,0,-5.2468395)"
       cx="-422.75644"
       cy="137.99423"
       fx="-422.75644"
       fy="137.99423"
       r="32.534645" />
    <linearGradient
       inkscape:collect="always"
       xlink:href="#linearGradient3674"
       id="linearGradient4265"
       gradientUnits="userSpaceOnUse"
       x1="-455.29108"
       y1="137.99423"
       x2="-390.2218"
       y2="137.99423" />
    <radialGradient
       inkscape:collect="always"
       xlink:href="#linearGradient3666"
       id="radialGradient4267"
       gradientUnits="userSpaceOnUse"
       gradientTransform="matrix(1,0,0,1.0380222,0,-5.2468395)"
       cx="-422.75644"
       cy="137.99423"
       fx="-422.75644"
       fy="137.99423"
       r="32.534645" />
    <linearGradient
       inkscape:collect="always"
       xlink:href="#linearGradient3674"
       id="linearGradient4269"
       gradientUnits="userSpaceOnUse"
       x1="-455.29108"
       y1="137.99423"
       x2="-390.2218"
       y2="137.99423" />
    <radialGradient
       inkscape:collect="always"
       xlink:href="#linearGradient3666"
       id="radialGradient4271"
       gradientUnits="userSpaceOnUse"
       gradientTransform="matrix(1,0,0,1.0380222,0,-5.2468395)"
       cx="-422.75644"
       cy="137.99423"
       fx="-422.75644"
       fy="137.99423"
       r="32.534645" />
    <linearGradient
       inkscape:collect="always"
       xlink:href="#linearGradient3674"
       id="linearGradient4273"
       gradientUnits="userSpaceOnUse"
       x1="-455.29108"
       y1="137.99423"
       x2="-390.2218"
       y2="137.99423" />
    <radialGradient
       inkscape:collect="always"
       xlink:href="#linearGradient3666"
       id="radialGradient4275"
       gradientUnits="userSpaceOnUse"
       gradientTransform="matrix(1,0,0,1.0380222,0,-5.2468395)"
       cx="-422.75644"
       cy="137.99423"
       fx="-422.75644"
       fy="137.99423"
       r="32.534645" />
    <linearGradient
       inkscape:collect="always"
       xlink:href="#linearGradient3674"
       id="linearGradient4277"
       gradientUnits="userSpaceOnUse"
       x1="-455.29108"
       y1="137.99423"
       x2="-390.2218"
       y2="137.99423" />
    <linearGradient
       inkscape:collect="always"
       xlink:href="#linearGradient3666"
       id="linearGradient4279"
       gradientUnits="userSpaceOnUse"
       gradientTransform="matrix(0.12172003,0,0,0.12172003,55.370783,15.117155)"
       x1="-394.49539"
       y1="-18.181326"
       x2="-271.64752"
       y2="7.796391" />
    <linearGradient
       inkscape:collect="always"
       xlink:href="#linearGradient3674"
       id="linearGradient4281"
       gradientUnits="userSpaceOnUse"
       gradientTransform="matrix(0.12172003,0,0,0.12172003,55.370783,15.117155)"
       x1="-394.49539"
       y1="-18.181326"
       x2="-271.64752"
       y2="7.796391" />
    <linearGradient
       inkscape:collect="always"
       xlink:href="#linearGradient3698-7"
       id="linearGradient4303"
       gradientUnits="userSpaceOnUse"
       gradientTransform="translate(-0.30925854,-0.30925854)"
       x1="5.7328563"
       y1="23.143345"
       x2="41.0425"
       y2="23.143345" />
    <linearGradient
       inkscape:collect="always"
       xlink:href="#linearGradient3606-9"
       id="linearGradient4305"
       gradientUnits="userSpaceOnUse"
       gradientTransform="translate(-0.30925854,-0.30925854)"
       x1="5.7328563"
       y1="23.143345"
       x2="41.0425"
       y2="23.143345" />
    <linearGradient
       inkscape:collect="always"
       xlink:href="#linearGradient3698-7"
       id="linearGradient4309"
       gradientUnits="userSpaceOnUse"
       gradientTransform="translate(-0.30925854,-0.30925854)"
       x1="5.7328563"
       y1="23.143345"
       x2="41.0425"
       y2="23.143345" />
    <linearGradient
       inkscape:collect="always"
       xlink:href="#linearGradient3606-9"
       id="linearGradient4311"
       gradientUnits="userSpaceOnUse"
       gradientTransform="translate(-0.30925854,-0.30925854)"
       x1="5.7328563"
       y1="23.143345"
       x2="41.0425"
       y2="23.143345" />
    <linearGradient
       inkscape:collect="always"
       xlink:href="#linearGradient3666"
       id="linearGradient4339"
       gradientUnits="userSpaceOnUse"
       gradientTransform="matrix(0.12172003,0,0,0.12172003,56.213288,14.461119)"
       x1="-662.93182"
       y1="-45.086819"
       x2="-227.73279"
       y2="64.390701" />
    <linearGradient
       inkscape:collect="always"
       xlink:href="#linearGradient3674"
       id="linearGradient4341"
       gradientUnits="userSpaceOnUse"
       gradientTransform="matrix(0.12172003,0,0,0.12172003,56.213288,14.461119)"
       x1="-637.57263"
       y1="7.487133"
       x2="-224.64021"
       y2="115.10911" />
    <radialGradient
       inkscape:collect="always"
       xlink:href="#linearGradient3666"
       id="radialGradient4343"
       gradientUnits="userSpaceOnUse"
       gradientTransform="matrix(1,0,0,1.0380953,0,-5.2569383)"
       cx="-422.75644"
       cy="137.99423"
       fx="-422.75644"
       fy="137.99423"
       r="32.472145" />
    <linearGradient
       inkscape:collect="always"
       xlink:href="#linearGradient3674"
       id="linearGradient4345"
       gradientUnits="userSpaceOnUse"
       x1="-455.22858"
       y1="137.99423"
       x2="-390.2843"
       y2="137.99423" />
    <linearGradient
       inkscape:collect="always"
       xlink:href="#linearGradient3674"
       id="linearGradient4347"
       gradientUnits="userSpaceOnUse"
       gradientTransform="matrix(0.12172003,0,0,0.12172003,56.650645,14.1331)"
       x1="-478.61371"
       y1="125.93315"
       x2="-125.05896"
       y2="125.93315" />
    <radialGradient
       inkscape:collect="always"
       xlink:href="#linearGradient3666"
       id="radialGradient4349"
       gradientUnits="userSpaceOnUse"
       gradientTransform="matrix(1,0,0,1.0380222,0,-5.2468395)"
       cx="-422.75644"
       cy="137.99423"
       fx="-422.75644"
       fy="137.99423"
       r="32.534645" />
    <linearGradient
       inkscape:collect="always"
       xlink:href="#linearGradient3674"
       id="linearGradient4351"
       gradientUnits="userSpaceOnUse"
       x1="-455.29108"
       y1="137.99423"
       x2="-390.2218"
       y2="137.99423" />
    <radialGradient
       inkscape:collect="always"
       xlink:href="#linearGradient3666"
       id="radialGradient4353"
       gradientUnits="userSpaceOnUse"
       gradientTransform="matrix(1,0,0,1.0380222,0,-5.2468395)"
       cx="-422.75644"
       cy="137.99423"
       fx="-422.75644"
       fy="137.99423"
       r="32.534645" />
    <linearGradient
       inkscape:collect="always"
       xlink:href="#linearGradient3674"
       id="linearGradient4355"
       gradientUnits="userSpaceOnUse"
       x1="-455.29108"
       y1="137.99423"
       x2="-390.2218"
       y2="137.99423" />
    <radialGradient
       inkscape:collect="always"
       xlink:href="#linearGradient3666"
       id="radialGradient4357"
       gradientUnits="userSpaceOnUse"
       gradientTransform="matrix(1,0,0,1.0380222,0,-5.2468395)"
       cx="-422.75644"
       cy="137.99423"
       fx="-422.75644"
       fy="137.99423"
       r="32.534645" />
    <linearGradient
       inkscape:collect="always"
       xlink:href="#linearGradient3674"
       id="linearGradient4359"
       gradientUnits="userSpaceOnUse"
       x1="-455.29108"
       y1="137.99423"
       x2="-390.2218"
       y2="137.99423" />
    <radialGradient
       inkscape:collect="always"
       xlink:href="#linearGradient3666"
       id="radialGradient4361"
       gradientUnits="userSpaceOnUse"
       gradientTransform="matrix(1,0,0,1.0380222,0,-5.2468395)"
       cx="-422.75644"
       cy="137.99423"
       fx="-422.75644"
       fy="137.99423"
       r="32.534645" />
    <linearGradient
       inkscape:collect="always"
       xlink:href="#linearGradient3674"
       id="linearGradient4363"
       gradientUnits="userSpaceOnUse"
       x1="-455.29108"
       y1="137.99423"
       x2="-390.2218"
       y2="137.99423" />
    <radialGradient
       inkscape:collect="always"
       xlink:href="#linearGradient3666"
       id="radialGradient4365"
       gradientUnits="userSpaceOnUse"
       gradientTransform="matrix(1,0,0,1.0380222,0,-5.2468395)"
       cx="-422.75644"
       cy="137.99423"
       fx="-422.75644"
       fy="137.99423"
       r="32.534645" />
    <linearGradient
       inkscape:collect="always"
       xlink:href="#linearGradient3674"
       id="linearGradient4367"
       gradientUnits="userSpaceOnUse"
       x1="-455.29108"
       y1="137.99423"
       x2="-390.2218"
       y2="137.99423" />
    <radialGradient
       inkscape:collect="always"
       xlink:href="#linearGradient3666"
       id="radialGradient4369"
       gradientUnits="userSpaceOnUse"
       gradientTransform="matrix(1,0,0,1.0380222,0,-5.2468395)"
       cx="-422.75644"
       cy="137.99423"
       fx="-422.75644"
       fy="137.99423"
       r="32.534645" />
    <linearGradient
       inkscape:collect="always"
       xlink:href="#linearGradient3674"
       id="linearGradient4371"
       gradientUnits="userSpaceOnUse"
       x1="-455.29108"
       y1="137.99423"
       x2="-390.2218"
       y2="137.99423" />
    <linearGradient
       inkscape:collect="always"
       xlink:href="#linearGradient3666"
       id="linearGradient4373"
       gradientUnits="userSpaceOnUse"
       gradientTransform="matrix(0.12172003,0,0,0.12172003,55.370783,15.117155)"
       x1="-394.49539"
       y1="-18.181326"
       x2="-271.64752"
       y2="7.796391" />
    <linearGradient
       inkscape:collect="always"
       xlink:href="#linearGradient3674"
       id="linearGradient4375"
       gradientUnits="userSpaceOnUse"
       gradientTransform="matrix(0.12172003,0,0,0.12172003,55.370783,15.117155)"
       x1="-394.49539"
       y1="-18.181326"
       x2="-271.64752"
       y2="7.796391" />
    <linearGradient
       inkscape:collect="always"
       xlink:href="#linearGradient3666"
       id="linearGradient4378"
       gradientUnits="userSpaceOnUse"
       gradientTransform="matrix(0.07321667,0,0,0.07321667,50.65143,19.733486)"
       x1="-394.49539"
       y1="-18.181326"
       x2="-271.64752"
       y2="7.796391" />
    <linearGradient
       inkscape:collect="always"
       xlink:href="#linearGradient3674"
       id="linearGradient4380"
       gradientUnits="userSpaceOnUse"
       gradientTransform="matrix(0.07321667,0,0,0.07321667,50.65143,19.733486)"
       x1="-394.49539"
       y1="-18.181326"
       x2="-271.64752"
       y2="7.796391" />
    <linearGradient
       inkscape:collect="always"
       xlink:href="#linearGradient3674"
       id="linearGradient4389"
       gradientUnits="userSpaceOnUse"
       gradientTransform="matrix(0.07321667,0,0,0.07321667,51.421289,19.14156)"
       x1="-478.61371"
       y1="125.93315"
       x2="-125.05896"
       y2="125.93315" />
    <linearGradient
       inkscape:collect="always"
       xlink:href="#linearGradient3666"
       id="linearGradient4393"
       gradientUnits="userSpaceOnUse"
       gradientTransform="matrix(0.07321667,0,0,0.07321667,51.158212,19.338869)"
       x1="-662.93182"
       y1="-45.086819"
       x2="-227.73279"
       y2="64.390701" />
    <linearGradient
       inkscape:collect="always"
       xlink:href="#linearGradient3674"
       id="linearGradient4395"
       gradientUnits="userSpaceOnUse"
       gradientTransform="matrix(0.07321667,0,0,0.07321667,51.158212,19.338869)"
       x1="-637.57263"
       y1="7.487133"
       x2="-224.64021"
       y2="115.10911" />
    <linearGradient
       inkscape:collect="always"
       xlink:href="#linearGradient3666"
       id="linearGradient4399"
       gradientUnits="userSpaceOnUse"
       gradientTransform="matrix(0.07321667,0,0,0.07321667,51.158212,19.338869)"
       x1="-662.93182"
       y1="-45.086819"
       x2="-227.73279"
       y2="64.390701" />
    <linearGradient
       inkscape:collect="always"
       xlink:href="#linearGradient3674"
       id="linearGradient4401"
       gradientUnits="userSpaceOnUse"
       gradientTransform="matrix(0.07321667,0,0,0.07321667,51.158212,19.338869)"
       x1="-637.57263"
       y1="7.487133"
       x2="-224.64021"
       y2="115.10911" />
    <linearGradient
       inkscape:collect="always"
       xlink:href="#linearGradient3666"
       id="linearGradient4405"
       gradientUnits="userSpaceOnUse"
       gradientTransform="matrix(0.07321667,0,0,0.07321667,51.158212,19.338869)"
       x1="-662.93182"
       y1="-45.086819"
       x2="-227.73279"
       y2="64.390701" />
    <linearGradient
       inkscape:collect="always"
       xlink:href="#linearGradient3674"
       id="linearGradient4407"
       gradientUnits="userSpaceOnUse"
       gradientTransform="matrix(0.07321667,0,0,0.07321667,51.158212,19.338869)"
       x1="-637.57263"
       y1="7.487133"
       x2="-224.64021"
       y2="115.10911" />
    <linearGradient
       inkscape:collect="always"
       xlink:href="#linearGradient3666"
       id="linearGradient4427"
       gradientUnits="userSpaceOnUse"
       gradientTransform="matrix(0.07321667,0,0,0.07321667,51.158212,19.338869)"
       x1="-662.93182"
       y1="-45.086819"
       x2="-227.73279"
       y2="64.390701" />
    <linearGradient
       inkscape:collect="always"
       xlink:href="#linearGradient3674"
       id="linearGradient4429"
       gradientUnits="userSpaceOnUse"
       gradientTransform="matrix(0.07321667,0,0,0.07321667,51.158212,19.338869)"
       x1="-637.57263"
       y1="7.487133"
       x2="-224.64021"
       y2="115.10911" />
    <linearGradient
       inkscape:collect="always"
       xlink:href="#linearGradient3666"
       id="linearGradient4431"
       gradientUnits="userSpaceOnUse"
       gradientTransform="matrix(0.07321667,0,0,0.07321667,51.158212,19.338869)"
       x1="-662.93182"
       y1="-45.086819"
       x2="-227.73279"
       y2="64.390701" />
    <linearGradient
       inkscape:collect="always"
       xlink:href="#linearGradient3674"
       id="linearGradient4433"
       gradientUnits="userSpaceOnUse"
       gradientTransform="matrix(0.07321667,0,0,0.07321667,51.158212,19.338869)"
       x1="-637.57263"
       y1="7.487133"
       x2="-224.64021"
       y2="115.10911" />
    <linearGradient
       inkscape:collect="always"
       xlink:href="#linearGradient3674"
       id="linearGradient4439"
       gradientUnits="userSpaceOnUse"
       gradientTransform="matrix(0.07321667,0,0,0.07321667,51.421289,19.14156)"
       x1="-478.61371"
       y1="125.93315"
       x2="-125.05896"
       y2="125.93315" />
    <linearGradient
       inkscape:collect="always"
       xlink:href="#linearGradient3666"
       id="linearGradient4465"
       gradientUnits="userSpaceOnUse"
       gradientTransform="matrix(0.07321667,0,0,0.07321667,50.65143,19.733486)"
       x1="-394.49539"
       y1="-18.181326"
       x2="-271.64752"
       y2="7.796391" />
    <linearGradient
       inkscape:collect="always"
       xlink:href="#linearGradient3674"
       id="linearGradient4467"
       gradientUnits="userSpaceOnUse"
       gradientTransform="matrix(0.07321667,0,0,0.07321667,50.65143,19.733486)"
       x1="-394.49539"
       y1="-18.181326"
       x2="-271.64752"
       y2="7.796391" />
    <linearGradient
       inkscape:collect="always"
       xlink:href="#linearGradient3698-7"
       id="linearGradient3249"
       gradientUnits="userSpaceOnUse"
       gradientTransform="translate(-0.30925854,-0.30925854)"
       x1="29.688818"
       y1="49.082405"
       x2="11.751824"
       y2="-4.728581" />
    <linearGradient
       inkscape:collect="always"
       xlink:href="#linearGradient3606-9"
       id="linearGradient3251"
       gradientUnits="userSpaceOnUse"
       gradientTransform="translate(-0.30925854,-0.30925854)"
       x1="22.896706"
       y1="-1.365394"
       x2="22.641615"
       y2="7.989677" />
    <linearGradient
       inkscape:collect="always"
       xlink:href="#linearGradient3698-7"
       id="linearGradient3963"
       x1="49.202732"
       y1="29.63098"
       x2="20.66515"
       y2="27.334854"
       gradientUnits="userSpaceOnUse"
       gradientTransform="translate(-0.98405465,0.10933941)" />
    <linearGradient
       inkscape:collect="always"
       xlink:href="#linearGradient3606-9"
       id="linearGradient3971"
       x1="28.256264"
       y1="36.246014"
       x2="30.349657"
       y2="7.9271083"
       gradientUnits="userSpaceOnUse"
       gradientTransform="translate(-0.98405465,0.10933941)" />
    <linearGradient
       inkscape:collect="always"
       xlink:href="#linearGradient3606-9"
       id="linearGradient3979"
       x1="26.616173"
       y1="13.066059"
       x2="35.816628"
       y2="13.066059"
       gradientUnits="userSpaceOnUse" />
    <linearGradient
       inkscape:collect="always"
       xlink:href="#linearGradient3698-7"
       id="linearGradient3987"
       x1="26.616173"
       y1="13.066059"
       x2="35.816628"
       y2="13.066059"
       gradientUnits="userSpaceOnUse" />
    <linearGradient
       inkscape:collect="always"
       xlink:href="#linearGradient3674"
       id="linearGradient3995"
       x1="50.452164"
       y1="34.872581"
       x2="3.1241474"
       y2="28.093536"
       gradientUnits="userSpaceOnUse" />
    <linearGradient
       inkscape:collect="always"
       xlink:href="#linearGradient3666"
       id="linearGradient4003"
       x1="50.452164"
       y1="34.872581"
       x2="3.1241474"
       y2="28.093536"
       gradientUnits="userSpaceOnUse" />
    <linearGradient
       inkscape:collect="always"
       xlink:href="#linearGradient3606"
       id="linearGradient4011"
       x1="-21.274487"
       y1="26.952164"
       x2="-15.121619"
       y2="34.496582"
       gradientUnits="userSpaceOnUse"
       gradientTransform="translate(32.692482,3.7175398)" />
    <linearGradient
       inkscape:collect="always"
       xlink:href="#linearGradient3698-7"
       id="linearGradient4019"
       x1="-21.274487"
       y1="26.952164"
       x2="-15.121619"
       y2="34.496582"
       gradientUnits="userSpaceOnUse"
       gradientTransform="translate(32.692482,3.7175398)" />
    <linearGradient
       inkscape:collect="always"
       xlink:href="#linearGradient3698-7"
       id="linearGradient4027"
       x1="-23.242596"
       y1="34.715263"
       x2="-17.199068"
       y2="27.389523"
       gradientUnits="userSpaceOnUse"
       gradientTransform="translate(32.801821,3.7175398)" />
    <linearGradient
       inkscape:collect="always"
       xlink:href="#linearGradient3606"
       id="linearGradient4035"
       x1="-23.242596"
       y1="34.715263"
       x2="-17.199068"
       y2="27.389523"
       gradientUnits="userSpaceOnUse"
       gradientTransform="translate(32.801821,3.7175398)" />
    <linearGradient
       inkscape:collect="always"
       xlink:href="#linearGradient3698-7"
       id="linearGradient4039"
       gradientUnits="userSpaceOnUse"
       x1="49.202732"
       y1="29.63098"
       x2="20.66515"
       y2="27.334854" />
    <linearGradient
       inkscape:collect="always"
       xlink:href="#linearGradient3606-9"
       id="linearGradient4041"
       gradientUnits="userSpaceOnUse"
       x1="28.256264"
       y1="36.246014"
       x2="30.349657"
       y2="7.9271083" />
    <linearGradient
       inkscape:collect="always"
       xlink:href="#linearGradient3698-7"
       id="linearGradient4045"
       gradientUnits="userSpaceOnUse"
       x1="49.202732"
       y1="29.63098"
       x2="20.66515"
       y2="27.334854" />
    <linearGradient
       inkscape:collect="always"
       xlink:href="#linearGradient3606-9"
       id="linearGradient4047"
       gradientUnits="userSpaceOnUse"
       x1="28.256264"
       y1="36.246014"
       x2="30.349657"
       y2="7.9271083" />
    <filter
       inkscape:collect="always"
       id="filter4053">
      <feGaussianBlur
         inkscape:collect="always"
         stdDeviation="0.3875292"
         id="feGaussianBlur4055" />
    </filter>
    <linearGradient
       inkscape:collect="always"
       xlink:href="#linearGradient3674"
       id="linearGradient4059"
       gradientUnits="userSpaceOnUse"
       x1="42.579727"
       y1="36.840691"
       x2="18.650343"
       y2="18.799686" />
    <linearGradient
       inkscape:collect="always"
       xlink:href="#linearGradient3666"
       id="linearGradient4061"
       gradientUnits="userSpaceOnUse"
       x1="42.579727"
       y1="36.840691"
       x2="18.650343"
       y2="18.799686" />
    <linearGradient
       inkscape:collect="always"
       xlink:href="#linearGradient3674"
       id="linearGradient4065"
       gradientUnits="userSpaceOnUse"
       x1="42.579727"
       y1="36.840691"
       x2="18.650343"
       y2="18.799686" />
    <linearGradient
       inkscape:collect="always"
       xlink:href="#linearGradient3666"
       id="linearGradient4067"
       gradientUnits="userSpaceOnUse"
       x1="42.579727"
       y1="36.840691"
       x2="18.650343"
       y2="18.799686" />
    <filter
       inkscape:collect="always"
       id="filter4073">
      <feGaussianBlur
         inkscape:collect="always"
         stdDeviation="0.4689398"
         id="feGaussianBlur4075" />
    </filter>
    <linearGradient
       inkscape:collect="always"
       xlink:href="#linearGradient3698-7"
       id="linearGradient4079"
       gradientUnits="userSpaceOnUse"
       gradientTransform="translate(-0.98405465,0.10933941)"
       x1="49.202732"
       y1="29.63098"
       x2="20.66515"
       y2="27.334854" />
    <linearGradient
       inkscape:collect="always"
       xlink:href="#linearGradient3606-9"
       id="linearGradient4081"
       gradientUnits="userSpaceOnUse"
       gradientTransform="translate(-0.98405465,0.10933941)"
       x1="28.256264"
       y1="36.246014"
       x2="30.349657"
       y2="7.9271083" />
    <linearGradient
       inkscape:collect="always"
       xlink:href="#linearGradient3698-7"
       id="linearGradient4085"
       gradientUnits="userSpaceOnUse"
       gradientTransform="translate(-0.98405465,0.10933941)"
       x1="49.202732"
       y1="29.63098"
       x2="20.66515"
       y2="27.334854" />
    <linearGradient
       inkscape:collect="always"
       xlink:href="#linearGradient3606-9"
       id="linearGradient4087"
       gradientUnits="userSpaceOnUse"
       gradientTransform="translate(-0.98405465,0.10933941)"
       x1="28.256264"
       y1="36.246014"
       x2="30.349657"
       y2="7.9271083" />
    <filter
       inkscape:collect="always"
       id="filter4089">
      <feGaussianBlur
         inkscape:collect="always"
         stdDeviation="0.37100255"
         id="feGaussianBlur4091" />
    </filter>
    <linearGradient
       inkscape:collect="always"
       xlink:href="#linearGradient3698-7"
       id="linearGradient4097"
       gradientUnits="userSpaceOnUse"
       gradientTransform="translate(-6.4510253,-9.5125283)"
       x1="-23.242596"
       y1="34.715263"
       x2="-17.199068"
       y2="27.389523" />
    <linearGradient
       inkscape:collect="always"
       xlink:href="#linearGradient3606"
       id="linearGradient4099"
       gradientUnits="userSpaceOnUse"
       gradientTransform="translate(-6.4510253,-9.5125283)"
       x1="-23.242596"
       y1="34.715263"
       x2="-17.199068"
       y2="27.389523" />
    <linearGradient
       inkscape:collect="always"
       xlink:href="#linearGradient3698-7"
       id="linearGradient4101"
       gradientUnits="userSpaceOnUse"
       gradientTransform="translate(-9.621868,5.2482915)"
       x1="-21.274487"
       y1="26.952164"
       x2="-15.121619"
       y2="34.496582" />
    <linearGradient
       inkscape:collect="always"
       xlink:href="#linearGradient3606"
       id="linearGradient4103"
       gradientUnits="userSpaceOnUse"
       gradientTransform="translate(-9.621868,5.2482915)"
       x1="-21.274487"
       y1="26.952164"
       x2="-15.121619"
       y2="34.496582" />
    <linearGradient
       inkscape:collect="always"
       xlink:href="#linearGradient3698-7"
       id="linearGradient4110"
       gradientUnits="userSpaceOnUse"
       gradientTransform="translate(-4.9202736,0.98405466)"
       x1="-21.274487"
       y1="26.952164"
       x2="-15.121619"
       y2="34.496582" />
    <linearGradient
       inkscape:collect="always"
       xlink:href="#linearGradient3606"
       id="linearGradient4112"
       gradientUnits="userSpaceOnUse"
       gradientTransform="translate(-4.9202736,0.98405466)"
       x1="-21.274487"
       y1="26.952164"
       x2="-15.121619"
       y2="34.496582" />
    <linearGradient
       inkscape:collect="always"
       xlink:href="#linearGradient3698-7"
       id="linearGradient4114"
       gradientUnits="userSpaceOnUse"
       gradientTransform="translate(-4.9202736,0.98405466)"
       x1="-23.242596"
       y1="34.715263"
       x2="-17.199068"
       y2="27.389523" />
    <linearGradient
       inkscape:collect="always"
       xlink:href="#linearGradient3606"
       id="linearGradient4116"
       gradientUnits="userSpaceOnUse"
       gradientTransform="translate(-4.9202736,0.98405466)"
       x1="-23.242596"
       y1="34.715263"
       x2="-17.199068"
       y2="27.389523" />
    <linearGradient
       inkscape:collect="always"
       xlink:href="#linearGradient3698-7"
       id="linearGradient4120"
       gradientUnits="userSpaceOnUse"
       gradientTransform="translate(-4.9202736,0.98405466)"
       x1="-23.242596"
       y1="34.715263"
       x2="-17.199068"
       y2="27.389523" />
    <linearGradient
       inkscape:collect="always"
       xlink:href="#linearGradient3606"
       id="linearGradient4122"
       gradientUnits="userSpaceOnUse"
       gradientTransform="translate(-4.9202736,0.98405466)"
       x1="-23.242596"
       y1="34.715263"
       x2="-17.199068"
       y2="27.389523" />
    <linearGradient
       inkscape:collect="always"
       xlink:href="#linearGradient3698-7"
       id="linearGradient4126"
       gradientUnits="userSpaceOnUse"
       gradientTransform="translate(-4.9202736,0.98405466)"
       x1="-21.274487"
       y1="26.952164"
       x2="-15.121619"
       y2="34.496582" />
    <linearGradient
       inkscape:collect="always"
       xlink:href="#linearGradient3606"
       id="linearGradient4128"
       gradientUnits="userSpaceOnUse"
       gradientTransform="translate(-4.9202736,0.98405466)"
       x1="-21.274487"
       y1="26.952164"
       x2="-15.121619"
       y2="34.496582" />
    <filter
       inkscape:collect="always"
       id="filter4130">
      <feGaussianBlur
         inkscape:collect="always"
         stdDeviation="0.14268188"
         id="feGaussianBlur4132" />
    </filter>
    <filter
       inkscape:collect="always"
       id="filter4138">
      <feGaussianBlur
         inkscape:collect="always"
         stdDeviation="0.13400142"
         id="feGaussianBlur4140" />
    </filter>
  </defs>
  <sodipodi:namedview
     id="base"
     pagecolor="#000000"
     bordercolor="#666666"
     borderopacity="1.0"
     inkscape:pageopacity="0"
     inkscape:pageshadow="2"
     inkscape:zoom="9.1458335"
     inkscape:cx="8.160663"
     inkscape:cy="25.133645"
     inkscape:document-units="px"
     inkscape:current-layer="XonoticIcon"
     showgrid="false"
     inkscape:showpageshadow="false"
     gridtolerance="10"
     showguides="true"
     inkscape:guide-bbox="true"
     inkscape:snap-to-guides="true"
     inkscape:snap-global="true"
     borderlayer="true"
     showborder="true"
     inkscape:window-width="1920"
     inkscape:window-height="1052"
     inkscape:window-x="0"
     inkscape:window-y="1"
     inkscape:window-maximized="1">
    <inkscape:grid
       type="xygrid"
       id="grid2383"
       visible="true"
       enabled="true"
       empspacing="4"
       snapvisiblegridlinesonly="true" />
  </sodipodi:namedview>
  <metadata
     id="metadata7">
    <rdf:RDF>
      <cc:Work
         rdf:about="">
        <dc:format>image/svg+xml</dc:format>
        <dc:type
           rdf:resource="http://purl.org/dc/dcmitype/StillImage" />
        <dc:title></dc:title>
        <dc:date>2010</dc:date>
        <dc:rights>
          <cc:Agent>
            <dc:title>Xonotic Community</dc:title>
          </cc:Agent>
        </dc:rights>
        <dc:publisher>
          <cc:Agent>
            <dc:title />
          </cc:Agent>
        </dc:publisher>
        <dc:creator>
          <cc:Agent>
            <dc:title>Xonotic Community</dc:title>
          </cc:Agent>
        </dc:creator>
        <cc:license
           rdf:resource="Dual-licensed under the &quot;GNU LGPL v2.1, or any later version&quot; (http://www.gnu.org/licenses/old-licenses/lgpl-2.1.html) and &quot;CC-BY v3.0&quot; (http://creativecommons.org/licenses/by/3.0/)" />
        <dc:subject>
          <rdf:Bag>
            <rdf:li>Xonotic</rdf:li>
            <rdf:li>Phoenix</rdf:li>
            <rdf:li>Icon</rdf:li>
          </rdf:Bag>
        </dc:subject>
        <dc:description>The icon of the Xonotic project.</dc:description>
        <dc:relation>Xonotic Logo</dc:relation>
      </cc:Work>
    </rdf:RDF>
  </metadata>
  <g
     inkscape:groupmode="layer"
     id="XonoticIcon">
    <path
       sodipodi:type="inkscape:offset"
       inkscape:radius="0.55752379"
       inkscape:original="M 35.09375 7.4375 L 24.59375 10.59375 L 22.96875 36.625 L 40.125 31.9375 L 41 7.65625 L 35.09375 7.4375 z "
       style="fill:url(#linearGradient4085);fill-opacity:1;stroke:url(#linearGradient4087);stroke-width:1px;stroke-linecap:butt;stroke-linejoin:miter;stroke-opacity:1;filter:url(#filter4089)"
       id="path4083"
       d="m 35,6.875 a 0.55757954,0.55757954 0 0 0 -0.0625,0.03125 l -10.5,3.15625 a 0.55757954,0.55757954 0 0 0 -0.40625,0.5 l -1.625,26.03125 a 0.55757954,0.55757954 0 0 0 0.71875,0.5625 l 17.15625,-4.6875 a 0.55757954,0.55757954 0 0 0 0.40625,-0.5 L 41.5625,7.6875 A 0.55757954,0.55757954 0 0 0 41.03125,7.09375 L 35.125,6.875 a 0.55757954,0.55757954 0 0 0 -0.125,0 z" />
    <path
       sodipodi:type="inkscape:offset"
       inkscape:radius="1.093394"
       inkscape:original="M 43.09375 26.03125 C 43.09375 26.03125 35.809248 25.79706 32.46875 27 C 28.940124 28.270687 26.669584 31.950573 23.1875 33.34375 C 17.118219 35.772061 3.8125 36.53125 3.8125 36.53125 C 3.8125 36.53125 8.31889 42.541549 11.6875 43.53125 C 20.288111 46.058119 31.367082 45.080249 38.28125 39.375 C 41.927113 36.366604 43.09375 26.03125 43.09375 26.03125 z "
       style="fill:url(#linearGradient4065);fill-opacity:1;stroke:url(#linearGradient4067);stroke-width:1px;stroke-linecap:butt;stroke-linejoin:miter;stroke-opacity:1;filter:url(#filter4073)"
       id="path4063"
       d="m 43.125,24.9375 c 0,0 -1.843037,-0.06235 -4.125,0.03125 -2.281963,0.0936 -4.976354,0.305029 -6.90625,1 -2.010534,0.72401 -3.551598,2.086953 -5,3.34375 -1.448402,1.256797 -2.80362,2.427549 -4.3125,3.03125 C 19.965977,33.470137 15.141838,34.261132 11.09375,34.75 7.0456619,35.238868 3.75,35.4375 3.75,35.4375 a 1.0935034,1.0935034 0 0 0 -0.8125,1.75 c 0,0 1.1531407,1.540779 2.75,3.21875 1.5968593,1.677971 3.5553783,3.56108 5.6875,4.1875 8.917463,2.61996 20.284631,1.656144 27.59375,-4.375 2.252879,-1.858971 3.38841,-5.334131 4.15625,-8.375 0.76784,-3.040869 1.0625,-5.6875 1.0625,-5.6875 A 1.0935034,1.0935034 0 0 0 43.125,24.9375 z" />
    <path
       style="fill:url(#linearGradient3963);fill-opacity:1;stroke:url(#linearGradient3971);stroke-width:1px;stroke-linecap:butt;stroke-linejoin:miter;stroke-opacity:1"
       d="M 22.961275,36.628701 24.601366,10.605923 35.097949,7.4350805 41.002277,7.6537593 40.127562,31.927107 z"
       id="path3181"
       inkscape:connector-curvature="0" />
    <path
       style="fill:url(#linearGradient3995);stroke:url(#linearGradient4003);stroke-width:1px;stroke-linecap:butt;stroke-linejoin:miter;stroke-opacity:1;fill-opacity:1"
       d="m 43.079726,26.022779 c 0,0 -7.265424,-0.218885 -10.605922,0.984055 -3.528626,1.270687 -5.811766,4.948509 -9.29385,6.341686 -6.069281,2.428311 -19.3530748,3.170842 -19.3530748,3.170842 0,0 4.5038268,6.008021 7.8724368,6.997722 8.600611,2.526869 19.655308,1.550352 26.569476,-4.154897 3.645863,-3.008396 4.810934,-13.339408 4.810934,-13.339408 z"
       id="path3179"
       inkscape:connector-curvature="0"
       sodipodi:nodetypes="csscssc" />
    <path
       style="fill:url(#linearGradient3987);stroke:url(#linearGradient3979);stroke-width:1px;stroke-linecap:butt;stroke-linejoin:miter;stroke-opacity:1;fill-opacity:1.0"
       d="m 27.334851,12.90205 -0.218679,2.952164 8.091116,-2.514806 0.109339,-3.061503 z"
       id="path3183"
       inkscape:connector-curvature="0"
       sodipodi:nodetypes="ccccc" />
    <path
       inkscape:connector-curvature="0"
       id="path4093"
       d="m 10.459008,30.478856 5.460612,7.280816 1.516836,-1.011225 -5.966224,-7.48306 z"
       style="fill:url(#linearGradient4019);fill-opacity:1;stroke:url(#linearGradient4011);stroke-width:0.92484902999999996px;stroke-linecap:butt;stroke-linejoin:miter;stroke-opacity:1" />
    <path
       style="fill:url(#linearGradient4027);fill-opacity:1;stroke:url(#linearGradient4035);stroke-width:0.92484903px;stroke-linecap:butt;stroke-linejoin:miter;stroke-opacity:1"
       d="m 17.545795,30.478856 -5.460612,7.280816 -1.516836,-1.011225 5.966224,-7.48306 z"
       id="path4095"
       inkscape:connector-curvature="0" />
  </g>
</svg>
