<?xml version="1.0" encoding="UTF-8" standalone="no"?>
<!-- Created with Inkscape (http://www.inkscape.org/) -->

<svg
   xmlns:dc="http://purl.org/dc/elements/1.1/"
   xmlns:cc="http://creativecommons.org/ns#"
   xmlns:rdf="http://www.w3.org/1999/02/22-rdf-syntax-ns#"
   xmlns:svg="http://www.w3.org/2000/svg"
   xmlns="http://www.w3.org/2000/svg"
   xmlns:xlink="http://www.w3.org/1999/xlink"
   xmlns:sodipodi="http://sodipodi.sourceforge.net/DTD/sodipodi-0.dtd"
   xmlns:inkscape="http://www.inkscape.org/namespaces/inkscape"
   width="48"
   height="48"
   id="svg2"
   sodipodi:version="0.32"
   inkscape:version="0.48.1 r9760"
   version="1.0"
   sodipodi:docname="arena3.svg"
   inkscape:output_extension="org.inkscape.output.svg.inkscape"
   inkscape:export-xdpi="30"
   inkscape:export-ydpi="30">
  <defs
     id="defs4">
    <linearGradient
       id="linearGradient4489">
      <stop
         id="stop4491"
         offset="0"
         style="stop-color:#000000;stop-opacity:1;" />
      <stop
         style="stop-color:#0f3f6f;stop-opacity:1;"
         offset="0.50144649"
         id="stop4493" />
      <stop
         id="stop4495"
         offset="1"
         style="stop-color:#000000;stop-opacity:1;" />
    </linearGradient>
    <linearGradient
       id="linearGradient4425">
      <stop
         id="stop4427"
         offset="0"
         style="stop-color:#bfdfff;stop-opacity:1;" />
      <stop
         style="stop-color:#5fafff;stop-opacity:1;"
         offset="0.2"
         id="stop4429" />
      <stop
         style="stop-color:#5fafff;stop-opacity:1;"
         offset="0.80000001"
         id="stop4431" />
      <stop
         id="stop4433"
         offset="1"
         style="stop-color:#bfdfff;stop-opacity:0" />
    </linearGradient>
    <linearGradient
       id="linearGradient3698">
      <stop
         style="stop-color:#000000;stop-opacity:1;"
         offset="0"
         id="stop3700" />
      <stop
         id="stop3706"
         offset="0.5"
         style="stop-color:#0f3f6f;stop-opacity:1;" />
      <stop
         style="stop-color:#000000;stop-opacity:1;"
         offset="1"
         id="stop3702" />
    </linearGradient>
    <linearGradient
       id="linearGradient3674">
      <stop
         style="stop-color:#4f0f00;stop-opacity:1;"
         offset="0"
         id="stop3676" />
      <stop
         id="stop4673"
         offset="0.5"
         style="stop-color:#270700;stop-opacity:1;" />
      <stop
         style="stop-color:#4f0f00;stop-opacity:1;"
         offset="1"
         id="stop3678" />
    </linearGradient>
    <linearGradient
       id="linearGradient3666">
      <stop
         style="stop-color:#3f0f00;stop-opacity:1;"
         offset="0"
         id="stop3668" />
      <stop
         id="stop3671"
         offset="0.75"
         style="stop-color:#ff7f2f;stop-opacity:1;" />
      <stop
         style="stop-color:#3f0f00;stop-opacity:1;"
         offset="1"
         id="stop3670" />
    </linearGradient>
    <linearGradient
       id="linearGradient3606">
      <stop
         style="stop-color:#bfdfff;stop-opacity:1;"
         offset="0"
         id="stop3608" />
      <stop
         id="stop3616"
         offset="0.2"
         style="stop-color:#5fafff;stop-opacity:1;" />
      <stop
         id="stop3614"
         offset="0.80000001"
         style="stop-color:#5fafff;stop-opacity:1;" />
      <stop
         style="stop-color:#bfdfff;stop-opacity:1;"
         offset="1"
         id="stop3610" />
    </linearGradient>
    <linearGradient
       inkscape:collect="always"
       xlink:href="#linearGradient3698"
       id="linearGradient3705"
       gradientUnits="userSpaceOnUse"
       x1="1024"
       y1="640"
       x2="1024"
       y2="384"
       gradientTransform="matrix(0.17187493,0,0,0.17187493,-151.99995,-65.827234)" />
    <linearGradient
       inkscape:collect="always"
       xlink:href="#linearGradient3606"
       id="linearGradient3708"
       gradientUnits="userSpaceOnUse"
       gradientTransform="matrix(0.17187493,0,0,0.17187493,-151.99995,-241.82716)"
       x1="1024"
       y1="1664"
       x2="1024"
       y2="1480" />
    <linearGradient
       inkscape:collect="always"
       xlink:href="#linearGradient3606"
       id="linearGradient3659"
       x1="23.999979"
       y1="46.000004"
       x2="23.999979"
       y2="14.375016"
       gradientUnits="userSpaceOnUse"
       gradientTransform="translate(0,-1.8272762)" />
    <linearGradient
       inkscape:collect="always"
       xlink:href="#linearGradient3606"
       id="linearGradient4423"
       x1="-20.385151"
       y1="10.64743"
       x2="-4.4441223"
       y2="49.22245"
       gradientUnits="userSpaceOnUse"
       gradientTransform="translate(39.335653,0.16299303)" />
    <linearGradient
       inkscape:collect="always"
       xlink:href="#linearGradient4489"
       id="linearGradient4475"
       x1="8.5212355"
       y1="17.044901"
       x2="21.354378"
       y2="12.901083"
       gradientUnits="userSpaceOnUse"
       gradientTransform="matrix(-0.86994526,-0.4931483,-0.4931483,0.86994526,33.495811,3.9501176)" />
    <linearGradient
       inkscape:collect="always"
       xlink:href="#linearGradient3606"
       id="linearGradient4487"
       x1="14.039057"
       y1="8.4470243"
       x2="14.104409"
       y2="21.214811"
       gradientUnits="userSpaceOnUse"
       gradientTransform="matrix(-0.86994526,-0.4931483,-0.4931483,0.86994526,33.495811,3.9501176)" />
    <linearGradient
       inkscape:collect="always"
       xlink:href="#linearGradient3674"
       id="linearGradient4499"
       gradientUnits="userSpaceOnUse"
       x1="18.211336"
       y1="10.843237"
       x2="10.556837"
       y2="14.230011"
       gradientTransform="matrix(0.88079501,-0.47349779,0.47349779,0.88079501,14.582159,3.4793568)" />
    <linearGradient
       inkscape:collect="always"
       xlink:href="#linearGradient3666"
       id="linearGradient4501"
       gradientUnits="userSpaceOnUse"
       x1="14.039057"
       y1="8.4470243"
       x2="14.104409"
       y2="21.214811"
       gradientTransform="matrix(0.88079501,-0.47349779,0.47349779,0.88079501,14.582159,3.4793568)" />
    <linearGradient
       inkscape:collect="always"
       xlink:href="#linearGradient3698-7"
       id="linearGradient5262"
       gradientUnits="userSpaceOnUse"
       gradientTransform="matrix(0.66782505,0.04798037,-0.04798037,0.66782505,8.3340613,0.04102977)"
       x1="11.433017"
       y1="23.235922"
       x2="38.364052"
       y2="23.235922" />
    <linearGradient
       id="linearGradient3698-7">
      <stop
         style="stop-color:#000000;stop-opacity:1;"
         offset="0"
         id="stop3700-7" />
      <stop
         id="stop3706-3"
         offset="0.5"
         style="stop-color:#0f3f6f;stop-opacity:1;" />
      <stop
         style="stop-color:#000000;stop-opacity:1;"
         offset="1"
         id="stop3702-9" />
    </linearGradient>
    <linearGradient
       inkscape:collect="always"
       xlink:href="#linearGradient3606-9"
       id="linearGradient5264"
       gradientUnits="userSpaceOnUse"
       gradientTransform="matrix(0.66782505,0.04798037,-0.04798037,0.66782505,8.3340613,0.04102977)"
       x1="11.433017"
       y1="23.235922"
       x2="38.364052"
       y2="23.235922" />
    <linearGradient
       id="linearGradient3606-9">
      <stop
         style="stop-color:#bfdfff;stop-opacity:1;"
         offset="0"
         id="stop3608-0" />
      <stop
         id="stop3616-6"
         offset="0.2"
         style="stop-color:#5fafff;stop-opacity:1;" />
      <stop
         id="stop3614-0"
         offset="0.80000001"
         style="stop-color:#5fafff;stop-opacity:1;" />
      <stop
         style="stop-color:#bfdfff;stop-opacity:1;"
         offset="1"
         id="stop3610-7" />
    </linearGradient>
    <linearGradient
       y2="23.235922"
       x2="38.364052"
       y1="23.235922"
       x1="11.433017"
       gradientTransform="matrix(0.44467648,0.0319481,-0.0319481,0.44467648,6.4264857,21.903362)"
       gradientUnits="userSpaceOnUse"
       id="linearGradient4808"
       xlink:href="#linearGradient3698-7"
       inkscape:collect="always" />
    <linearGradient
       y2="23.235922"
       x2="38.364052"
       y1="23.235922"
       x1="11.433017"
       gradientTransform="matrix(0.44467648,0.0319481,-0.0319481,0.44467648,6.4264857,21.903362)"
       gradientUnits="userSpaceOnUse"
       id="linearGradient4810"
       xlink:href="#linearGradient3606-9"
       inkscape:collect="always" />
    <linearGradient
       inkscape:collect="always"
       xlink:href="#linearGradient3674"
       id="linearGradient4847"
       gradientUnits="userSpaceOnUse"
       gradientTransform="matrix(-0.46924329,0.03371312,0.03371312,0.46924329,42.114367,17.69264)"
       x1="11.433017"
       y1="23.235922"
       x2="38.364052"
       y2="23.235922" />
    <linearGradient
       inkscape:collect="always"
       xlink:href="#linearGradient3666"
       id="linearGradient4849"
       gradientUnits="userSpaceOnUse"
       gradientTransform="matrix(-0.46924329,0.03371312,0.03371312,0.46924329,42.114367,17.69264)"
       x1="11.433017"
       y1="23.235922"
       x2="38.364052"
       y2="23.235922" />
    <linearGradient
       inkscape:collect="always"
       xlink:href="#linearGradient3698-7"
       id="linearGradient4853"
       gradientUnits="userSpaceOnUse"
       gradientTransform="matrix(0.46924329,0.03371312,-0.03371312,0.46924329,6.1146523,17.748012)"
       x1="11.433017"
       y1="23.235922"
       x2="38.364052"
       y2="23.235922" />
    <linearGradient
       inkscape:collect="always"
       xlink:href="#linearGradient3606-9"
       id="linearGradient4855"
       gradientUnits="userSpaceOnUse"
       gradientTransform="matrix(0.46924329,0.03371312,-0.03371312,0.46924329,6.1146523,17.748012)"
       x1="11.433017"
       y1="23.235922"
       x2="38.364052"
       y2="23.235922" />
    <linearGradient
       inkscape:collect="always"
       xlink:href="#linearGradient4489"
       id="linearGradient5367"
       gradientUnits="userSpaceOnUse"
       gradientTransform="matrix(-0.86994526,-0.4931483,-0.4931483,0.86994526,33.495811,3.9501176)"
       x1="8.5212355"
       y1="17.044901"
       x2="21.354378"
       y2="12.901083" />
    <linearGradient
       inkscape:collect="always"
       xlink:href="#linearGradient3606"
       id="linearGradient5369"
       gradientUnits="userSpaceOnUse"
       gradientTransform="matrix(-0.86994526,-0.4931483,-0.4931483,0.86994526,33.495811,3.9501176)"
       x1="14.039057"
       y1="8.4470243"
       x2="14.104409"
       y2="21.214811" />
    <linearGradient
       inkscape:collect="always"
       xlink:href="#linearGradient4489"
       id="linearGradient5373"
       gradientUnits="userSpaceOnUse"
       gradientTransform="matrix(-0.86994526,-0.4931483,-0.4931483,0.86994526,33.495811,3.9501176)"
       x1="8.5212355"
       y1="17.044901"
       x2="21.354378"
       y2="12.901083" />
    <linearGradient
       inkscape:collect="always"
       xlink:href="#linearGradient3606"
       id="linearGradient5375"
       gradientUnits="userSpaceOnUse"
       gradientTransform="matrix(-0.86994526,-0.4931483,-0.4931483,0.86994526,33.495811,3.9501176)"
       x1="14.039057"
       y1="8.4470243"
       x2="14.104409"
       y2="21.214811" />
    <linearGradient
       inkscape:collect="always"
       xlink:href="#linearGradient3674"
       id="linearGradient5387"
       gradientUnits="userSpaceOnUse"
       gradientTransform="matrix(0.88079501,-0.47349779,0.47349779,0.88079501,14.582159,3.4793568)"
       x1="18.211336"
       y1="10.843237"
       x2="10.556837"
       y2="14.230011" />
    <linearGradient
       inkscape:collect="always"
       xlink:href="#linearGradient3666"
       id="linearGradient5389"
       gradientUnits="userSpaceOnUse"
       gradientTransform="matrix(0.88079501,-0.47349779,0.47349779,0.88079501,14.582159,3.4793568)"
       x1="14.039057"
       y1="8.4470243"
       x2="14.104409"
       y2="21.214811" />
    <linearGradient
       inkscape:collect="always"
       xlink:href="#linearGradient3674"
       id="linearGradient5393"
       gradientUnits="userSpaceOnUse"
       gradientTransform="matrix(0.88079501,-0.47349779,0.47349779,0.88079501,14.582159,3.4793568)"
       x1="18.211336"
       y1="10.843237"
       x2="10.556837"
       y2="14.230011" />
    <linearGradient
       inkscape:collect="always"
       xlink:href="#linearGradient3666"
       id="linearGradient5395"
       gradientUnits="userSpaceOnUse"
       gradientTransform="matrix(0.88079501,-0.47349779,0.47349779,0.88079501,14.582159,3.4793568)"
       x1="14.039057"
       y1="8.4470243"
       x2="14.104409"
       y2="21.214811" />
    <linearGradient
       inkscape:collect="always"
       xlink:href="#linearGradient3698-7"
       id="linearGradient5407"
       gradientUnits="userSpaceOnUse"
       gradientTransform="matrix(0.46924329,0.03371312,-0.03371312,0.46924329,6.1146523,17.748012)"
       x1="11.433017"
       y1="23.235922"
       x2="38.364052"
       y2="23.235922" />
    <linearGradient
       inkscape:collect="always"
       xlink:href="#linearGradient3606-9"
       id="linearGradient5409"
       gradientUnits="userSpaceOnUse"
       gradientTransform="matrix(0.46924329,0.03371312,-0.03371312,0.46924329,6.1146523,17.748012)"
       x1="11.433017"
       y1="23.235922"
       x2="38.364052"
       y2="23.235922" />
    <linearGradient
       inkscape:collect="always"
       xlink:href="#linearGradient3698-7"
       id="linearGradient5413"
       gradientUnits="userSpaceOnUse"
       gradientTransform="matrix(0.46924329,0.03371312,-0.03371312,0.46924329,6.1146523,17.748012)"
       x1="11.433017"
       y1="23.235922"
       x2="38.364052"
       y2="23.235922" />
    <linearGradient
       inkscape:collect="always"
       xlink:href="#linearGradient3606-9"
       id="linearGradient5415"
       gradientUnits="userSpaceOnUse"
       gradientTransform="matrix(0.46924329,0.03371312,-0.03371312,0.46924329,6.1146523,17.748012)"
       x1="11.433017"
       y1="23.235922"
       x2="38.364052"
       y2="23.235922" />
    <linearGradient
       inkscape:collect="always"
       xlink:href="#linearGradient3674"
       id="linearGradient5427"
       gradientUnits="userSpaceOnUse"
       gradientTransform="matrix(-0.46924329,0.03371312,0.03371312,0.46924329,42.114367,17.69264)"
       x1="11.433017"
       y1="23.235922"
       x2="38.364052"
       y2="23.235922" />
    <linearGradient
       inkscape:collect="always"
       xlink:href="#linearGradient3666"
       id="linearGradient5429"
       gradientUnits="userSpaceOnUse"
       gradientTransform="matrix(-0.46924329,0.03371312,0.03371312,0.46924329,42.114367,17.69264)"
       x1="11.433017"
       y1="23.235922"
       x2="38.364052"
       y2="23.235922" />
    <linearGradient
       inkscape:collect="always"
       xlink:href="#linearGradient3674"
       id="linearGradient5433"
       gradientUnits="userSpaceOnUse"
       gradientTransform="matrix(-0.46924329,0.03371312,0.03371312,0.46924329,42.114367,17.69264)"
       x1="11.433017"
       y1="23.235922"
       x2="38.364052"
       y2="23.235922" />
    <linearGradient
       inkscape:collect="always"
       xlink:href="#linearGradient3666"
       id="linearGradient5435"
       gradientUnits="userSpaceOnUse"
       gradientTransform="matrix(-0.46924329,0.03371312,0.03371312,0.46924329,42.114367,17.69264)"
       x1="11.433017"
       y1="23.235922"
       x2="38.364052"
       y2="23.235922" />
    <linearGradient
       inkscape:collect="always"
       xlink:href="#linearGradient3666"
       id="linearGradient4109"
       x1="-634.1875"
       y1="149.85893"
       x2="-506.84958"
       y2="149.85893"
       gradientUnits="userSpaceOnUse"
       gradientTransform="matrix(0.30443572,0,0,0.30443572,197.57983,-23.916441)" />
    <linearGradient
       inkscape:collect="always"
       xlink:href="#linearGradient3674"
       id="linearGradient4117"
       x1="-634.1875"
       y1="149.85893"
       x2="-506.84958"
       y2="149.85893"
       gradientUnits="userSpaceOnUse"
       gradientTransform="matrix(0.30443572,0,0,0.30443572,197.57983,-23.916441)" />
    <linearGradient
       inkscape:collect="always"
       xlink:href="#linearGradient3666"
       id="linearGradient4121"
       gradientUnits="userSpaceOnUse"
       gradientTransform="matrix(0.30443572,0,0,0.30443572,197.57983,-23.916441)"
       x1="-634.1875"
       y1="149.85893"
       x2="-506.84958"
       y2="149.85893" />
    <linearGradient
       inkscape:collect="always"
       xlink:href="#linearGradient3674"
       id="linearGradient4123"
       gradientUnits="userSpaceOnUse"
       gradientTransform="matrix(0.30443572,0,0,0.30443572,197.57983,-23.916441)"
       x1="-634.1875"
       y1="149.85893"
       x2="-506.84958"
       y2="149.85893" />
    <linearGradient
       inkscape:collect="always"
       xlink:href="#linearGradient3666"
       id="linearGradient4127"
       gradientUnits="userSpaceOnUse"
       gradientTransform="matrix(0.30443572,0,0,0.30443572,197.57983,-23.916441)"
       x1="-695.60284"
       y1="125.61601"
       x2="-547.79315"
       y2="178.95044" />
    <linearGradient
       inkscape:collect="always"
       xlink:href="#linearGradient3674"
       id="linearGradient4129"
       gradientUnits="userSpaceOnUse"
       gradientTransform="matrix(0.30443572,0,0,0.30443572,197.57983,-23.916441)"
       x1="-695.60284"
       y1="125.61601"
       x2="-547.79315"
       y2="178.95044" />
    <linearGradient
       inkscape:collect="always"
       xlink:href="#linearGradient3666"
       id="linearGradient4137"
       gradientUnits="userSpaceOnUse"
       gradientTransform="matrix(0.30443572,0,0,0.30443572,197.57983,-23.916441)"
       x1="-634.1875"
       y1="149.85893"
       x2="-506.84958"
       y2="149.85893" />
    <linearGradient
       inkscape:collect="always"
       xlink:href="#linearGradient3674"
       id="linearGradient4139"
       gradientUnits="userSpaceOnUse"
       gradientTransform="matrix(0.30443572,0,0,0.30443572,197.57983,-23.916441)"
       x1="-634.1875"
       y1="149.85893"
       x2="-506.84958"
       y2="149.85893" />
    <filter
       inkscape:collect="always"
       id="filter4141">
      <feGaussianBlur
         inkscape:collect="always"
         stdDeviation="0.48425053"
         id="feGaussianBlur4143" />
    </filter>
    <linearGradient
       inkscape:collect="always"
       xlink:href="#linearGradient3698-7"
       id="linearGradient3840"
       x1="-2.5227792"
       y1="23.453302"
       x2="7.4430523"
       y2="23.289293"
       gradientUnits="userSpaceOnUse" />
    <linearGradient
       inkscape:collect="always"
       xlink:href="#linearGradient3606-9"
       id="linearGradient3848"
       x1="-2.5227792"
       y1="23.453302"
       x2="7.4430523"
       y2="23.289293"
       gradientUnits="userSpaceOnUse" />
    <linearGradient
       inkscape:collect="always"
       xlink:href="#linearGradient3698-7"
       id="linearGradient3852"
       gradientUnits="userSpaceOnUse"
       x1="-2.5227792"
       y1="23.453302"
       x2="7.4430523"
       y2="23.289293" />
    <linearGradient
       inkscape:collect="always"
       xlink:href="#linearGradient3606-9"
       id="linearGradient3854"
       gradientUnits="userSpaceOnUse"
       x1="-2.5227792"
       y1="23.453302"
       x2="7.4430523"
       y2="23.289293" />
    <linearGradient
       inkscape:collect="always"
       xlink:href="#linearGradient3698-7"
       id="linearGradient3858"
       gradientUnits="userSpaceOnUse"
       x1="-2.5227792"
       y1="23.453302"
       x2="7.4430523"
       y2="23.289293" />
    <linearGradient
       inkscape:collect="always"
       xlink:href="#linearGradient3606-9"
       id="linearGradient3860"
       gradientUnits="userSpaceOnUse"
       x1="-2.5227792"
       y1="23.453302"
       x2="7.4430523"
       y2="23.289293" />
    <filter
       inkscape:collect="always"
       id="filter3862"
       x="-0.15239198"
       width="1.304784"
       y="-0.037353423"
       height="1.0747068">
      <feGaussianBlur
         inkscape:collect="always"
         stdDeviation="0.52583663"
         id="feGaussianBlur3864" />
    </filter>
    <linearGradient
       inkscape:collect="always"
       xlink:href="#linearGradient3698-7"
       id="linearGradient3876"
       gradientUnits="userSpaceOnUse"
       x1="-2.5227792"
       y1="23.453302"
       x2="7.4430523"
       y2="23.289293" />
    <linearGradient
       inkscape:collect="always"
       xlink:href="#linearGradient3606-9"
       id="linearGradient3878"
       gradientUnits="userSpaceOnUse"
       x1="-2.5227792"
       y1="23.453302"
       x2="7.4430523"
       y2="23.289293" />
    <linearGradient
       inkscape:collect="always"
       xlink:href="#linearGradient3698-7"
       id="linearGradient3880"
       gradientUnits="userSpaceOnUse"
       x1="-2.5227792"
       y1="23.453302"
       x2="7.4430523"
       y2="23.289293" />
    <linearGradient
       inkscape:collect="always"
       xlink:href="#linearGradient3606-9"
       id="linearGradient3882"
       gradientUnits="userSpaceOnUse"
       x1="-2.5227792"
       y1="23.453302"
       x2="7.4430523"
       y2="23.289293" />
    <linearGradient
       inkscape:collect="always"
       xlink:href="#linearGradient3698-7"
       id="linearGradient3884"
       gradientUnits="userSpaceOnUse"
       x1="-2.5227792"
       y1="23.453302"
       x2="7.4430523"
       y2="23.289293" />
    <linearGradient
       inkscape:collect="always"
       xlink:href="#linearGradient3606-9"
       id="linearGradient3886"
       gradientUnits="userSpaceOnUse"
       x1="-2.5227792"
       y1="23.453302"
       x2="7.4430523"
       y2="23.289293" />
    <linearGradient
       inkscape:collect="always"
       xlink:href="#linearGradient3698-7"
       id="linearGradient3888"
       gradientUnits="userSpaceOnUse"
       x1="-2.5227792"
       y1="23.453302"
       x2="7.4430523"
       y2="23.289293" />
    <linearGradient
       inkscape:collect="always"
       xlink:href="#linearGradient3606-9"
       id="linearGradient3890"
       gradientUnits="userSpaceOnUse"
       x1="-2.5227792"
       y1="23.453302"
       x2="7.4430523"
       y2="23.289293" />
  </defs>
  <sodipodi:namedview
     id="base"
     pagecolor="#000000"
     bordercolor="#666666"
     borderopacity="1.0"
     inkscape:pageopacity="0"
     inkscape:pageshadow="2"
     inkscape:zoom="18.291667"
     inkscape:cx="14.924829"
     inkscape:cy="28.373576"
     inkscape:document-units="px"
     inkscape:current-layer="XonoticIcon"
     showgrid="false"
     inkscape:showpageshadow="false"
     gridtolerance="10"
     showguides="true"
     inkscape:guide-bbox="true"
     inkscape:snap-to-guides="true"
     inkscape:snap-global="true"
     borderlayer="true"
     showborder="true"
     inkscape:window-width="1920"
     inkscape:window-height="1027"
     inkscape:window-x="0"
     inkscape:window-y="26"
     inkscape:window-maximized="1">
    <inkscape:grid
       type="xygrid"
       id="grid2383"
       visible="true"
       enabled="true"
       empspacing="4"
       snapvisiblegridlinesonly="true" />
  </sodipodi:namedview>
  <metadata
     id="metadata7">
    <rdf:RDF>
      <cc:Work
         rdf:about="">
        <dc:format>image/svg+xml</dc:format>
        <dc:type
           rdf:resource="http://purl.org/dc/dcmitype/StillImage" />
        <dc:title></dc:title>
        <dc:date>2010</dc:date>
        <dc:rights>
          <cc:Agent>
            <dc:title>Xonotic Community</dc:title>
          </cc:Agent>
        </dc:rights>
        <dc:publisher>
          <cc:Agent>
            <dc:title />
          </cc:Agent>
        </dc:publisher>
        <dc:creator>
          <cc:Agent>
            <dc:title>Xonotic Community</dc:title>
          </cc:Agent>
        </dc:creator>
        <cc:license
           rdf:resource="Dual-licensed under the &quot;GNU LGPL v2.1, or any later version&quot; (http://www.gnu.org/licenses/old-licenses/lgpl-2.1.html) and &quot;CC-BY v3.0&quot; (http://creativecommons.org/licenses/by/3.0/)" />
        <dc:subject>
          <rdf:Bag>
            <rdf:li>Xonotic</rdf:li>
            <rdf:li>Phoenix</rdf:li>
            <rdf:li>Icon</rdf:li>
          </rdf:Bag>
        </dc:subject>
        <dc:description>The icon of the Xonotic project.</dc:description>
        <dc:relation>Xonotic Logo</dc:relation>
      </cc:Work>
    </rdf:RDF>
  </metadata>
  <g
     inkscape:groupmode="layer"
     id="XonoticIcon">
    <path
       sodipodi:type="inkscape:offset"
       inkscape:radius="0.18778716"
       inkscape:original="M 24.65625 9.15625 C 22.458485 9.17981 18.65682 9.2391208 16.25 9.8125 C 13.627885 10.437168 12.194196 10.710531 10.03125 11.625 C 7.8358973 12.553171 5.28125 15.0625 5.28125 15.0625 L 4.53125 32.6875 C 4.53125 32.6875 8.6620837 33.41374 11.15625 33.6875 C 15.365789 34.149551 19.608935 34.251047 23.84375 34.25 C 27.778761 34.249205 31.718399 34.190745 35.625 33.71875 C 38.441756 33.378438 43.25 32.59375 43.25 32.59375 L 42.96875 15.8125 C 42.96875 15.8125 41.540487 13.374862 38.59375 11.9375 C 37.015388 11.167601 34.888804 10.566183 32.71875 10 C 30.444705 9.4066746 26.396907 9.1376068 24.65625 9.15625 z M 20.53125 12.40625 L 21.25 12.40625 L 21.28125 13.71875 L 20.53125 13.75 L 20.53125 12.40625 z M 27.25 12.5625 L 27.9375 12.5625 L 27.96875 13.71875 L 27.25 13.78125 L 27.25 12.5625 z M 14.8125 13.1875 L 15.5 13.1875 L 15.5625 14.46875 L 14.8125 14.53125 L 14.8125 13.1875 z M 32.34375 13.25 L 33 13.40625 L 33.09375 14.5625 L 32.34375 14.375 L 32.34375 13.25 z M 10.21875 14.53125 L 10.25 15.625 L 9.6875 15.78125 L 9.65625 14.6875 L 10.21875 14.53125 z M 37.53125 14.625 L 37.96875 14.71875 L 38.09375 15.8125 L 37.53125 15.75 L 37.53125 14.625 z M 7.375 15.84375 L 7.40625 16.9375 L 6.90625 17.15625 L 6.84375 16.09375 L 7.375 15.84375 z M 40.53125 15.9375 L 41.03125 16.125 L 41.03125 17.15625 L 40.53125 17.0625 L 40.53125 15.9375 z M 23.40625 17.78125 L 24.5625 17.78125 L 25.1875 18.375 L 25.15625 21.09375 L 22.5625 21.09375 L 22.65625 18.25 L 23.40625 17.78125 z M 26.875 18.03125 L 27.78125 18.03125 L 28.25 18.59375 L 28.28125 21.15625 L 26.3125 21.125 L 26.3125 18.5 L 26.875 18.03125 z M 19.9375 18.0625 L 20.875 18.0625 L 21.375 18.65625 L 21.3125 21.15625 L 19.3125 21.21875 L 19.3125 18.53125 L 19.9375 18.0625 z M 30.09375 18.09375 L 30.90625 18.09375 L 31.3125 18.6875 L 31.28125 21.375 L 29.53125 21.21875 L 29.59375 18.5625 L 30.09375 18.09375 z M 17.03125 18.125 L 17.8125 18.125 L 18.25 18.71875 L 18.15625 21.21875 L 16.4375 21.4375 L 16.53125 18.59375 L 17.03125 18.125 z M 14 18.5 L 14.6875 18.5 L 15.09375 19.0625 L 15.125 21.4375 L 13.46875 21.78125 L 13.53125 18.9375 L 14 18.5 z M 33.25 18.53125 L 33.96875 18.53125 L 34.34375 19.09375 L 34.40625 21.6875 L 32.65625 21.53125 L 32.8125 19 L 33.25 18.53125 z M 11.4375 18.9375 L 12.09375 18.9375 L 12.40625 19.46875 L 12.40625 21.8125 L 10.96875 22.09375 L 11.03125 19.34375 L 11.4375 18.9375 z M 35.71875 19.03125 L 36.34375 19.03125 L 36.6875 19.53125 L 36.75 22 L 35.28125 21.75 L 35.3125 19.4375 L 35.71875 19.03125 z M 9.5 19.40625 L 9.9375 19.40625 L 10.1875 19.875 L 10.1875 22.09375 L 9.15625 22.25 L 9.25 19.78125 L 9.5 19.40625 z M 37.875 19.5 L 38.3125 19.5 L 38.53125 19.9375 L 38.59375 22.3125 L 37.5625 22.0625 L 37.59375 19.84375 L 37.875 19.5 z M 8 19.9375 L 8.4375 19.9375 L 8.65625 20.40625 L 8.65625 22.53125 L 7.6875 22.75 L 7.71875 20.3125 L 8 19.9375 z M 39.46875 19.9375 L 39.90625 19.9375 L 40.125 20.40625 L 40.125 22.71875 L 39.15625 22.53125 L 39.1875 20.3125 L 39.46875 19.9375 z M 40.8125 20.375 L 41.125 20.375 L 41.25 20.84375 L 41.28125 23.125 L 40.625 22.9375 L 40.65625 20.75 L 40.8125 20.375 z M 6.6875 20.40625 L 6.96875 20.40625 L 7.125 20.875 L 7.125 22.96875 L 6.4375 23.125 L 6.53125 20.78125 L 6.6875 20.40625 z M 5.75 20.8125 L 5.9375 20.8125 L 6.0625 21.21875 L 6.0625 23.25 L 5.53125 23.40625 L 5.625 21.15625 L 5.75 20.8125 z M 41.8125 20.84375 L 42 20.84375 L 42.125 21.28125 L 42.21875 23.4375 L 41.65625 23.28125 L 41.6875 21.1875 L 41.8125 20.84375 z M 27.34375 23.78125 L 28.25 23.78125 L 28.75 24.375 L 28.71875 27.0625 L 26.6875 27.0625 L 26.78125 24.25 L 27.34375 23.78125 z M 19.78125 23.875 L 20.65625 23.875 L 21.15625 24.4375 L 21.125 27.15625 L 19.125 27.15625 L 19.1875 24.34375 L 19.78125 23.875 z M 23.4375 23.875 L 24.59375 23.875 L 25.21875 24.4375 L 25.1875 27.15625 L 22.59375 27.15625 L 22.71875 24.34375 L 23.4375 23.875 z M 16.625 23.96875 L 17.40625 23.96875 L 17.8125 24.5 L 17.78125 27.125 L 16.0625 27.125 L 16.125 24.40625 L 16.625 23.96875 z M 30.5625 24 L 31.34375 24 L 31.75 24.5625 L 31.71875 27.21875 L 30 27.15625 L 30.0625 24.4375 L 30.5625 24 z M 33.5 24.03125 L 34.28125 24.03125 L 34.6875 24.59375 L 34.6875 27.3125 L 32.9375 27.1875 L 33 24.46875 L 33.5 24.03125 z M 13.59375 24.15625 L 14.375 24.15625 L 14.78125 24.71875 L 14.6875 27.03125 L 13.125 27.15625 L 13.125 24.59375 L 13.59375 24.15625 z M 11.1875 24.28125 L 11.84375 24.28125 L 12.1875 24.8125 L 12.15625 27.1875 L 10.75 27.28125 L 10.78125 24.71875 L 11.1875 24.28125 z M 36.125 24.28125 L 36.75 24.28125 L 37.09375 24.8125 L 37.03125 27.4375 L 35.625 27.3125 L 35.6875 24.71875 L 36.125 24.28125 z M 9.21875 24.5 L 9.75 24.5 L 10.03125 25 L 10.125 27.21875 L 8.8125 27.3125 L 8.875 24.90625 L 9.21875 24.5 z M 38.21875 24.5625 L 38.75 24.5625 L 39.03125 25.03125 L 39.0625 27.4375 L 37.84375 27.34375 L 37.875 24.9375 L 38.21875 24.5625 z M 7.59375 24.78125 L 7.96875 24.78125 L 8.15625 25.25 L 8.125 27.40625 L 7.34375 27.4375 L 7.375 25.15625 L 7.59375 24.78125 z M 39.96875 24.78125 L 40.3125 24.78125 L 40.53125 25.25 L 40.5 27.4375 L 39.6875 27.4375 L 39.71875 25.15625 L 39.96875 24.78125 z M 41.15625 24.90625 L 41.5 24.90625 L 41.6875 25.34375 L 41.65625 27.46875 L 40.9375 27.34375 L 40.96875 25.25 L 41.15625 24.90625 z M 6.34375 25 L 6.6875 25 L 6.84375 25.4375 L 6.875 27.40625 L 6.09375 27.46875 L 6.125 25.375 L 6.34375 25 z M 5.4375 25.09375 L 5.71875 25.09375 L 5.875 25.53125 L 5.84375 27.5 L 5.25 27.5625 L 5.28125 25.4375 L 5.4375 25.09375 z M 42.21875 25.15625 L 42.46875 25.15625 L 42.625 25.59375 L 42.625 27.5625 L 42 27.46875 L 42.03125 25.5 L 42.21875 25.15625 z M 42.46875 29.40625 L 42.65625 29.40625 L 42.75 29.90625 L 42.78125 32.0625 L 42.3125 32.1875 L 42.34375 29.8125 L 42.46875 29.40625 z M 41.375 29.46875 L 41.6875 29.46875 L 41.84375 29.96875 L 41.90625 32.25 L 41.125 32.40625 L 41.15625 29.875 L 41.375 29.46875 z M 5.25 29.5 L 5.4375 29.5 L 5.53125 29.96875 L 5.53125 32.25 L 5.09375 32.125 L 5.125 29.875 L 5.25 29.5 z M 6.25 29.59375 L 6.4375 29.59375 L 6.53125 30.09375 L 6.53125 32.375 L 6.15625 32.28125 L 6.125 30 L 6.25 29.59375 z M 40.0625 29.625 L 40.53125 29.625 L 40.78125 30.125 L 40.78125 32.4375 L 39.71875 32.6875 L 39.75 30.03125 L 40.0625 29.625 z M 7.46875 29.6875 L 7.78125 29.6875 L 7.96875 30.21875 L 7.9375 32.65625 L 7.15625 32.53125 L 7.25 30.09375 L 7.46875 29.6875 z M 13.5625 29.6875 L 14.3125 29.6875 L 14.71875 30.40625 L 14.65625 33.46875 L 13.0625 33.28125 L 13.125 30.25 L 13.5625 29.6875 z M 33.625 29.6875 L 34.34375 29.6875 L 34.75 30.40625 L 34.84375 33.3125 L 33.09375 33.625 L 33.15625 30.25 L 33.625 29.6875 z M 36.28125 29.6875 L 36.90625 29.6875 L 37.21875 30.3125 L 37.125 33 L 35.8125 33.25 L 35.875 30.1875 L 36.28125 29.6875 z M 38.4375 29.6875 L 38.90625 29.6875 L 39.15625 30.25 L 39.09375 32.65625 L 38.125 32.875 L 38.15625 30.15625 L 38.4375 29.6875 z M 11.125 29.75 L 11.75 29.75 L 12.0625 30.375 L 12.0625 33.28125 L 10.75 33.09375 L 10.75 30.25 L 11.125 29.75 z M 16.53125 29.75 L 17.40625 29.75 L 17.84375 30.46875 L 17.8125 33.6875 L 15.90625 33.5625 L 16 30.34375 L 16.53125 29.75 z M 19.6875 29.75 L 20.6875 29.75 L 21.21875 30.46875 L 21.1875 33.8125 L 19 33.6875 L 19.0625 30.34375 L 19.6875 29.75 z M 30.59375 29.75 L 31.4375 29.75 L 31.90625 30.46875 L 31.90625 33.625 L 29.90625 33.6875 L 30.03125 30.34375 L 30.59375 29.75 z M 9 29.78125 L 9.46875 29.78125 L 9.71875 30.34375 L 9.6875 32.9375 L 8.75 32.78125 L 8.71875 30.21875 L 9 29.78125 z M 27.25 29.84375 L 28.25 29.84375 L 28.78125 30.5625 L 28.8125 33.625 L 26.5 33.6875 L 26.59375 30.40625 L 27.25 29.84375 z M 23.4375 29.875 L 24.59375 29.875 L 25.21875 30.59375 L 25.15625 33.71875 L 22.625 33.71875 L 22.71875 30.4375 L 23.4375 29.875 z "
       style="fill:url(#linearGradient4137);fill-opacity:1;stroke:url(#linearGradient4139);stroke-width:0.24354857;stroke-linecap:butt;stroke-linejoin:miter;stroke-miterlimit:4;stroke-opacity:1;stroke-dasharray:none;filter:url(#filter4141)"
       id="path4135"
       d="m 24.65625,8.96875 c -2.198822,0.023571 -5.990155,0.073216 -8.4375,0.65625 -2.619118,0.623954 -4.072003,0.891668 -6.25,1.8125 -2.259039,0.955097 -4.8125,3.5 -4.8125,3.5 A 0.18780594,0.18780594 0 0 0 5.125,14.96875 0.18780594,0.18780594 0 0 0 5.09375,15 a 0.18780594,0.18780594 0 0 0 0,0.03125 0.18780594,0.18780594 0 0 0 0,0.03125 l -0.75,17.625 a 0.18780594,0.18780594 0 0 0 0,0.0625 0.18780594,0.18780594 0 0 0 0.03125,0.03125 0.18780594,0.18780594 0 0 0 0.0625,0.0625 0.18780594,0.18780594 0 0 0 0.03125,0.03125 0.18780594,0.18780594 0 0 0 0.03125,0 c 0,0 4.1173827,0.724764 6.625,1 4.220179,0.463219 8.480904,0.563548 12.71875,0.5625 3.936846,-7.95e-4 7.892807,-0.05767 11.8125,-0.53125 2.825618,-0.341383 7.625,-1.125 7.625,-1.125 a 0.18780594,0.18780594 0 0 0 0.03125,0 0.18780594,0.18780594 0 0 0 0.03125,-0.03125 0.18780594,0.18780594 0 0 0 0.0625,-0.0625 0.18780594,0.18780594 0 0 0 0.03125,-0.03125 0.18780594,0.18780594 0 0 0 0,-0.03125 0.18780594,0.18780594 0 0 0 0,-0.03125 L 43.15625,15.8125 a 0.18780594,0.18780594 0 0 0 0,-0.03125 0.18780594,0.18780594 0 0 0 -0.03125,-0.0625 c 0,0 -1.437063,-2.473944 -4.4375,-3.9375 C 37.084036,10.999107 34.953738,10.379318 32.78125,9.8125 30.467952,9.208933 26.419373,8.9498662 24.65625,8.96875 z m -3.9375,3.625 0.34375,0 0.03125,0.9375 -0.375,0.03125 0,-0.96875 z m 6.71875,0.15625 0.3125,0 0.03125,0.78125 -0.34375,0.03125 0,-0.8125 z M 15,13.375 l 0.3125,0 0.0625,0.9375 -0.375,0 0,-0.9375 z m 17.53125,0.125 0.28125,0.0625 0.0625,0.75 -0.34375,-0.09375 0,-0.71875 z m -22.5,1.28125 0.03125,0.6875 -0.1875,0.0625 -0.03125,-0.6875 0.1875,-0.0625 z m 27.6875,0.09375 0.0625,0 0.09375,0.71875 -0.15625,0 0,-0.71875 z M 7.1875,16.125 7.21875,16.8125 7.0625,16.875 7.03125,16.1875 7.1875,16.125 z m 33.53125,0.09375 0.125,0.03125 0,0.6875 -0.125,-0.03125 0,-0.6875 z m -17.28125,1.75 1.0625,0 0.5,0.46875 -0.03125,2.46875 -2.21875,0 0.09375,-2.5625 0.59375,-0.375 z m 3.53125,0.25 0.71875,0 0.375,0.46875 0.03125,2.28125 L 26.5,20.9375 l 0,-2.34375 0.46875,-0.375 z m -6.9375,0.03125 0.75,0 0.40625,0.5 -0.0625,2.21875 -1.625,0.0625 0,-2.40625 0.53125,-0.375 z m 10.125,0.03125 0.65625,0 0.3125,0.46875 -0.03125,2.40625 -1.375,-0.125 0.0625,-2.40625 0.375,-0.34375 z m -13.0625,0.03125 0.59375,0 0.375,0.5 -0.09375,2.25 -1.34375,0.15625 0.09375,-2.5625 0.375,-0.34375 z m -3.03125,0.375 0.5,0 0.34375,0.46875 0.03125,2.125 L 13.65625,21.5625 13.71875,19 14.0625,18.6875 z m 19.25,0.03125 0.5625,0 0.28125,0.4375 0.0625,2.3125 -1.375,-0.125 L 33,19.0625 33.3125,18.71875 z M 11.5,19.125 l 0.5,0 0.21875,0.34375 0,0.03125 0,2.15625 -1.0625,0.21875 0.0625,-2.46875 L 11.5,19.125 z m 24.28125,0.09375 0.46875,0 0.25,0.375 0.0625,2.1875 -1.09375,-0.1875 L 35.5,19.5 35.78125,19.21875 z m -26.1875,0.375 0.25,0 L 10,19.875 l 0,0.03125 0,2.03125 -0.65625,0.09375 0.09375,-2.1875 0.15625,-0.25 z m 28.375,0.09375 0.21875,0 0.15625,0.25 0,0.03125 0.0625,2.09375 -0.65625,-0.15625 0.03125,-1.96875 0.1875,-0.25 z M 8.125,20.125 l 0.1875,0 0.15625,0.28125 0,0.03125 0,1.9375 L 7.875,22.5 7.90625,20.40625 8.125,20.125 z m 31.4375,0 0.21875,0 0.15625,0.28125 0,0.03125 0,2.0625 -0.59375,-0.125 0.03125,-1.96875 0.1875,-0.28125 z m 1.375,0.4375 0.03125,0 0.09375,0.28125 0,0.0625 0.03125,1.96875 -0.28125,-0.09375 0.03125,-1.96875 0.09375,-0.25 z m -34.125,0.03125 0.125,0.28125 0,0.0625 0,1.875 -0.3125,0.0625 0.09375,-2.03125 0.09375,-0.25 z m -0.96875,0.5625 0.03125,0.0625 0,0.0625 0,1.8125 -0.15625,0.0625 0.09375,-1.9375 0.03125,-0.0625 z m 36.0625,0.03125 0.03125,0.09375 0,0.0625 0.09375,1.84375 -0.1875,-0.0625 0.03125,-1.875 0.03125,-0.0625 z m -14.46875,2.78125 0.71875,0 0.40625,0.5 -0.03125,2.40625 -1.65625,0 0.09375,-2.53125 0.46875,-0.375 z m -7.5625,0.09375 0.71875,0 0.375,0.4375 -0.03125,2.46875 -1.625,0 0.0625,-2.53125 0.5,-0.375 z m 3.59375,0 1.0625,0 0.5,0.4375 L 25,26.96875 l -2.21875,0 0.125,-2.53125 0.5625,-0.375 z m -6.75,0.09375 0.59375,0 0.3125,0.4375 -0.03125,2.34375 -1.34375,0 0.0625,-2.4375 0.40625,-0.34375 z m 13.9375,0.03125 0.5625,0 0.34375,0.46875 -0.03125,2.375 -1.34375,-0.0625 0.0625,-2.4375 0.40625,-0.34375 z m 2.9375,0.03125 0.5625,0 0.34375,0.46875 0,2.4375 -1.375,-0.125 0.0625,-2.4375 0.40625,-0.34375 z m -19.9375,0.125 0.59375,0 0.34375,0.4375 -0.09375,2.0625 -1.1875,0.125 0,-2.3125 0.34375,-0.3125 z m -2.40625,0.125 0.5,0 0.25,0.375 L 11.96875,27 10.9375,27.09375 10.96875,24.78125 11.25,24.46875 z m 24.9375,0 0.46875,0 0.25,0.375 -0.0625,2.375 -1.03125,-0.09375 0.0625,-2.34375 0.3125,-0.3125 z m -26.875,0.21875 0.34375,0 0.1875,0.3125 0,0.03125 0.09375,2 L 9,27.125 9.0625,25 l 0.25,-0.3125 z m 28.96875,0.0625 0.375,0 0.1875,0.28125 0,0.03125 L 38.875,27.25 38.03125,27.15625 38.0625,25 38.28125,24.75 z m -30.59375,0.21875 0.15625,0 0.125,0.34375 L 7.9375,27.21875 7.53125,27.25 7.5625,25.1875 l 0,-0.03125 0.125,-0.1875 z m 32.375,0 0.125,0 0.15625,0.28125 0,0.03125 -0.03125,1.96875 -0.4375,0 0.03125,-2.03125 0.15625,-0.25 z m 1.1875,0.125 0.125,0 0.125,0.3125 -0.03125,1.84375 -0.34375,-0.0625 0.03125,-1.90625 0,-0.03125 0.09375,-0.15625 z m -34.8125,0.09375 0.09375,0 0.125,0.3125 0.03125,1.71875 -0.40625,0.0625 0.03125,-1.875 0,-0.03125 0.125,-0.1875 z m -0.90625,0.09375 0.03125,0 0.125,0.3125 -0.03125,1.75 -0.21875,0 0.03125,-1.90625 0.0625,-0.15625 z m 36.78125,0.0625 0.125,0.3125 0,1.6875 -0.25,-0.03125 0.03125,-1.78125 0,-0.03125 0.09375,-0.15625 z m -0.84375,4.3125 0.0625,0 0.125,0.3125 0,0.0625 0.0625,2.0625 -0.40625,0.09375 0.03125,-2.28125 0,-0.03125 0.125,-0.21875 z m -1.3125,0.15625 0.28125,0 0.15625,0.3125 0,0.03125 0,2.125 -0.6875,0.15625 0.03125,-2.3125 0.21875,-0.3125 z m 2.375,0.03125 0.03125,0.0625 0,0.03125 0.03125,1.96875 -0.09375,0.03125 0.03125,-2.0625 0,-0.03125 z M 7.5625,29.875 l 0.0625,0 0.15625,0.40625 L 7.75,32.4375 7.34375,32.375 l 0.09375,-2.25 0,-0.03125 0.125,-0.21875 z m 6.09375,0 0.5625,0 0.3125,0.53125 0,0.03125 L 14.46875,33.25 13.25,33.125 13.3125,30.34375 13.65625,29.875 z m 20.0625,0 0.53125,0 0.3125,0.53125 0,0.03125 0.09375,2.71875 -1.375,0.25 0.0625,-3.0625 0.375,-0.46875 z m 2.65625,0 0.4375,0 0.21875,0.4375 0,0.03125 -0.09375,2.5 -0.9375,0.1875 0.0625,-2.75 0.3125,-0.40625 z m 2.15625,0 0.28125,0 0.15625,0.375 -0.0625,2.25 -0.59375,0.125 0.03125,-2.4375 0,-0.03125 0.1875,-0.28125 z m -33.21875,0.0625 0.03125,0.03125 0,0.03125 0,2 -0.0625,-0.03125 0.03125,-2.03125 z m 5.9375,0 0.375,0 0.25,0.4375 0,0.03125 0,2.65625 -0.9375,-0.125 0,-2.59375 0.3125,-0.40625 z m 5.34375,0 0.71875,0 0.34375,0.5625 -0.03125,3 -1.53125,-0.125 0.09375,-2.96875 0.40625,-0.46875 z m 3.15625,0 0.8125,0 0.46875,0.625 L 21,33.625 19.1875,33.5 19.25,30.40625 19.75,29.9375 z m 10.90625,0 0.6875,0 0.375,0.5625 0,2.9375 -1.625,0.0625 0.125,-3.09375 0.4375,-0.46875 z m -21.5625,0.03125 0.28125,0 0.15625,0.375 L 9.5,32.71875 8.9375,32.625 8.90625,30.25 9.09375,29.96875 z m -2.78125,0.0625 0.03125,0.0625 0,0.03125 0,2 -0.03125,-2.0625 0,-0.03125 z m 21.03125,0 0.78125,0 0.46875,0.625 0.03125,2.78125 -1.9375,0.0625 0.09375,-3 0.5625,-0.46875 z m -3.8125,0.03125 0.96875,0 0.53125,0.625 -0.0625,2.84375 -2.15625,0 0.09375,-2.96875 0.625,-0.5 z"
       transform="matrix(0.83228961,0,0,0.83228961,4.5036052,4.8428002)" />
    <path
       sodipodi:type="inkscape:offset"
       inkscape:radius="0"
       inkscape:original="M 24.65625 9.15625 C 22.458485 9.17981 18.65682 9.2391208 16.25 9.8125 C 13.627885 10.437168 12.194196 10.710531 10.03125 11.625 C 7.8358973 12.553171 5.28125 15.0625 5.28125 15.0625 L 4.53125 32.6875 C 4.53125 32.6875 8.6620837 33.41374 11.15625 33.6875 C 15.365789 34.149551 19.608935 34.251047 23.84375 34.25 C 27.778761 34.249205 31.718399 34.190745 35.625 33.71875 C 38.441756 33.378438 43.25 32.59375 43.25 32.59375 L 42.96875 15.8125 C 42.96875 15.8125 41.540487 13.374862 38.59375 11.9375 C 37.015388 11.167601 34.888804 10.566183 32.71875 10 C 30.444705 9.4066746 26.396907 9.1376068 24.65625 9.15625 z M 20.53125 12.40625 L 21.25 12.40625 L 21.28125 13.71875 L 20.53125 13.75 L 20.53125 12.40625 z M 27.25 12.5625 L 27.9375 12.5625 L 27.96875 13.71875 L 27.25 13.78125 L 27.25 12.5625 z M 14.8125 13.1875 L 15.5 13.1875 L 15.5625 14.46875 L 14.8125 14.53125 L 14.8125 13.1875 z M 32.34375 13.25 L 33 13.40625 L 33.09375 14.5625 L 32.34375 14.375 L 32.34375 13.25 z M 10.21875 14.53125 L 10.25 15.625 L 9.6875 15.78125 L 9.65625 14.6875 L 10.21875 14.53125 z M 37.53125 14.625 L 37.96875 14.71875 L 38.09375 15.8125 L 37.53125 15.75 L 37.53125 14.625 z M 7.375 15.84375 L 7.40625 16.9375 L 6.90625 17.15625 L 6.84375 16.09375 L 7.375 15.84375 z M 40.53125 15.9375 L 41.03125 16.125 L 41.03125 17.15625 L 40.53125 17.0625 L 40.53125 15.9375 z M 23.40625 17.78125 L 24.5625 17.78125 L 25.1875 18.375 L 25.15625 21.09375 L 22.5625 21.09375 L 22.65625 18.25 L 23.40625 17.78125 z M 26.875 18.03125 L 27.78125 18.03125 L 28.25 18.59375 L 28.28125 21.15625 L 26.3125 21.125 L 26.3125 18.5 L 26.875 18.03125 z M 19.9375 18.0625 L 20.875 18.0625 L 21.375 18.65625 L 21.3125 21.15625 L 19.3125 21.21875 L 19.3125 18.53125 L 19.9375 18.0625 z M 30.09375 18.09375 L 30.90625 18.09375 L 31.3125 18.6875 L 31.28125 21.375 L 29.53125 21.21875 L 29.59375 18.5625 L 30.09375 18.09375 z M 17.03125 18.125 L 17.8125 18.125 L 18.25 18.71875 L 18.15625 21.21875 L 16.4375 21.4375 L 16.53125 18.59375 L 17.03125 18.125 z M 14 18.5 L 14.6875 18.5 L 15.09375 19.0625 L 15.125 21.4375 L 13.46875 21.78125 L 13.53125 18.9375 L 14 18.5 z M 33.25 18.53125 L 33.96875 18.53125 L 34.34375 19.09375 L 34.40625 21.6875 L 32.65625 21.53125 L 32.8125 19 L 33.25 18.53125 z M 11.4375 18.9375 L 12.09375 18.9375 L 12.40625 19.46875 L 12.40625 21.8125 L 10.96875 22.09375 L 11.03125 19.34375 L 11.4375 18.9375 z M 35.71875 19.03125 L 36.34375 19.03125 L 36.6875 19.53125 L 36.75 22 L 35.28125 21.75 L 35.3125 19.4375 L 35.71875 19.03125 z M 9.5 19.40625 L 9.9375 19.40625 L 10.1875 19.875 L 10.1875 22.09375 L 9.15625 22.25 L 9.25 19.78125 L 9.5 19.40625 z M 37.875 19.5 L 38.3125 19.5 L 38.53125 19.9375 L 38.59375 22.3125 L 37.5625 22.0625 L 37.59375 19.84375 L 37.875 19.5 z M 8 19.9375 L 8.4375 19.9375 L 8.65625 20.40625 L 8.65625 22.53125 L 7.6875 22.75 L 7.71875 20.3125 L 8 19.9375 z M 39.46875 19.9375 L 39.90625 19.9375 L 40.125 20.40625 L 40.125 22.71875 L 39.15625 22.53125 L 39.1875 20.3125 L 39.46875 19.9375 z M 40.8125 20.375 L 41.125 20.375 L 41.25 20.84375 L 41.28125 23.125 L 40.625 22.9375 L 40.65625 20.75 L 40.8125 20.375 z M 6.6875 20.40625 L 6.96875 20.40625 L 7.125 20.875 L 7.125 22.96875 L 6.4375 23.125 L 6.53125 20.78125 L 6.6875 20.40625 z M 5.75 20.8125 L 5.9375 20.8125 L 6.0625 21.21875 L 6.0625 23.25 L 5.53125 23.40625 L 5.625 21.15625 L 5.75 20.8125 z M 41.8125 20.84375 L 42 20.84375 L 42.125 21.28125 L 42.21875 23.4375 L 41.65625 23.28125 L 41.6875 21.1875 L 41.8125 20.84375 z M 27.34375 23.78125 L 28.25 23.78125 L 28.75 24.375 L 28.71875 27.0625 L 26.6875 27.0625 L 26.78125 24.25 L 27.34375 23.78125 z M 19.78125 23.875 L 20.65625 23.875 L 21.15625 24.4375 L 21.125 27.15625 L 19.125 27.15625 L 19.1875 24.34375 L 19.78125 23.875 z M 23.4375 23.875 L 24.59375 23.875 L 25.21875 24.4375 L 25.1875 27.15625 L 22.59375 27.15625 L 22.71875 24.34375 L 23.4375 23.875 z M 16.625 23.96875 L 17.40625 23.96875 L 17.8125 24.5 L 17.78125 27.125 L 16.0625 27.125 L 16.125 24.40625 L 16.625 23.96875 z M 30.5625 24 L 31.34375 24 L 31.75 24.5625 L 31.71875 27.21875 L 30 27.15625 L 30.0625 24.4375 L 30.5625 24 z M 33.5 24.03125 L 34.28125 24.03125 L 34.6875 24.59375 L 34.6875 27.3125 L 32.9375 27.1875 L 33 24.46875 L 33.5 24.03125 z M 13.59375 24.15625 L 14.375 24.15625 L 14.78125 24.71875 L 14.6875 27.03125 L 13.125 27.15625 L 13.125 24.59375 L 13.59375 24.15625 z M 11.1875 24.28125 L 11.84375 24.28125 L 12.1875 24.8125 L 12.15625 27.1875 L 10.75 27.28125 L 10.78125 24.71875 L 11.1875 24.28125 z M 36.125 24.28125 L 36.75 24.28125 L 37.09375 24.8125 L 37.03125 27.4375 L 35.625 27.3125 L 35.6875 24.71875 L 36.125 24.28125 z M 9.21875 24.5 L 9.75 24.5 L 10.03125 25 L 10.125 27.21875 L 8.8125 27.3125 L 8.875 24.90625 L 9.21875 24.5 z M 38.21875 24.5625 L 38.75 24.5625 L 39.03125 25.03125 L 39.0625 27.4375 L 37.84375 27.34375 L 37.875 24.9375 L 38.21875 24.5625 z M 7.59375 24.78125 L 7.96875 24.78125 L 8.15625 25.25 L 8.125 27.40625 L 7.34375 27.4375 L 7.375 25.15625 L 7.59375 24.78125 z M 39.96875 24.78125 L 40.3125 24.78125 L 40.53125 25.25 L 40.5 27.4375 L 39.6875 27.4375 L 39.71875 25.15625 L 39.96875 24.78125 z M 41.15625 24.90625 L 41.5 24.90625 L 41.6875 25.34375 L 41.65625 27.46875 L 40.9375 27.34375 L 40.96875 25.25 L 41.15625 24.90625 z M 6.34375 25 L 6.6875 25 L 6.84375 25.4375 L 6.875 27.40625 L 6.09375 27.46875 L 6.125 25.375 L 6.34375 25 z M 5.4375 25.09375 L 5.71875 25.09375 L 5.875 25.53125 L 5.84375 27.5 L 5.25 27.5625 L 5.28125 25.4375 L 5.4375 25.09375 z M 42.21875 25.15625 L 42.46875 25.15625 L 42.625 25.59375 L 42.625 27.5625 L 42 27.46875 L 42.03125 25.5 L 42.21875 25.15625 z M 42.46875 29.40625 L 42.65625 29.40625 L 42.75 29.90625 L 42.78125 32.0625 L 42.3125 32.1875 L 42.34375 29.8125 L 42.46875 29.40625 z M 41.375 29.46875 L 41.6875 29.46875 L 41.84375 29.96875 L 41.90625 32.25 L 41.125 32.40625 L 41.15625 29.875 L 41.375 29.46875 z M 5.25 29.5 L 5.4375 29.5 L 5.53125 29.96875 L 5.53125 32.25 L 5.09375 32.125 L 5.125 29.875 L 5.25 29.5 z M 6.25 29.59375 L 6.4375 29.59375 L 6.53125 30.09375 L 6.53125 32.375 L 6.15625 32.28125 L 6.125 30 L 6.25 29.59375 z M 40.0625 29.625 L 40.53125 29.625 L 40.78125 30.125 L 40.78125 32.4375 L 39.71875 32.6875 L 39.75 30.03125 L 40.0625 29.625 z M 7.46875 29.6875 L 7.78125 29.6875 L 7.96875 30.21875 L 7.9375 32.65625 L 7.15625 32.53125 L 7.25 30.09375 L 7.46875 29.6875 z M 13.5625 29.6875 L 14.3125 29.6875 L 14.71875 30.40625 L 14.65625 33.46875 L 13.0625 33.28125 L 13.125 30.25 L 13.5625 29.6875 z M 33.625 29.6875 L 34.34375 29.6875 L 34.75 30.40625 L 34.84375 33.3125 L 33.09375 33.625 L 33.15625 30.25 L 33.625 29.6875 z M 36.28125 29.6875 L 36.90625 29.6875 L 37.21875 30.3125 L 37.125 33 L 35.8125 33.25 L 35.875 30.1875 L 36.28125 29.6875 z M 38.4375 29.6875 L 38.90625 29.6875 L 39.15625 30.25 L 39.09375 32.65625 L 38.125 32.875 L 38.15625 30.15625 L 38.4375 29.6875 z M 11.125 29.75 L 11.75 29.75 L 12.0625 30.375 L 12.0625 33.28125 L 10.75 33.09375 L 10.75 30.25 L 11.125 29.75 z M 16.53125 29.75 L 17.40625 29.75 L 17.84375 30.46875 L 17.8125 33.6875 L 15.90625 33.5625 L 16 30.34375 L 16.53125 29.75 z M 19.6875 29.75 L 20.6875 29.75 L 21.21875 30.46875 L 21.1875 33.8125 L 19 33.6875 L 19.0625 30.34375 L 19.6875 29.75 z M 30.59375 29.75 L 31.4375 29.75 L 31.90625 30.46875 L 31.90625 33.625 L 29.90625 33.6875 L 30.03125 30.34375 L 30.59375 29.75 z M 9 29.78125 L 9.46875 29.78125 L 9.71875 30.34375 L 9.6875 32.9375 L 8.75 32.78125 L 8.71875 30.21875 L 9 29.78125 z M 27.25 29.84375 L 28.25 29.84375 L 28.78125 30.5625 L 28.8125 33.625 L 26.5 33.6875 L 26.59375 30.40625 L 27.25 29.84375 z M 23.4375 29.875 L 24.59375 29.875 L 25.21875 30.59375 L 25.15625 33.71875 L 22.625 33.71875 L 22.71875 30.4375 L 23.4375 29.875 z "
       style="fill:url(#linearGradient4127);fill-opacity:1;stroke:url(#linearGradient4129);stroke-width:0.24354857;stroke-linecap:butt;stroke-linejoin:miter;stroke-miterlimit:4;stroke-opacity:1;stroke-dasharray:none"
       id="path4125"
       d="M 24.65625,9.15625 C 22.458485,9.17981 18.65682,9.2391208 16.25,9.8125 c -2.622115,0.624668 -4.055804,0.898031 -6.21875,1.8125 -2.1953527,0.928171 -4.75,3.4375 -4.75,3.4375 l -0.75,17.625 c 0,0 4.1308337,0.72624 6.625,1 4.209539,0.462051 8.452685,0.563547 12.6875,0.5625 3.935011,-7.95e-4 7.874649,-0.05926 11.78125,-0.53125 2.816756,-0.340312 7.625,-1.125 7.625,-1.125 L 42.96875,15.8125 c 0,0 -1.428263,-2.437638 -4.375,-3.875 C 37.015388,11.167601 34.888804,10.566183 32.71875,10 30.444705,9.4066746 26.396907,9.1376068 24.65625,9.15625 z m -4.125,3.25 0.71875,0 0.03125,1.3125 -0.75,0.03125 0,-1.34375 z m 6.71875,0.15625 0.6875,0 0.03125,1.15625 -0.71875,0.0625 0,-1.21875 z m -12.4375,0.625 0.6875,0 0.0625,1.28125 -0.75,0.0625 0,-1.34375 z M 32.34375,13.25 33,13.40625 l 0.09375,1.15625 -0.75,-0.1875 0,-1.125 z M 10.21875,14.53125 10.25,15.625 9.6875,15.78125 9.65625,14.6875 l 0.5625,-0.15625 z m 27.3125,0.09375 0.4375,0.09375 0.125,1.09375 -0.5625,-0.0625 0,-1.125 z M 7.375,15.84375 l 0.03125,1.09375 -0.5,0.21875 -0.0625,-1.0625 0.53125,-0.25 z m 33.15625,0.09375 0.5,0.1875 0,1.03125 -0.5,-0.09375 0,-1.125 z m -17.125,1.84375 1.15625,0 0.625,0.59375 -0.03125,2.71875 -2.59375,0 0.09375,-2.84375 0.75,-0.46875 z m 3.46875,0.25 0.90625,0 0.46875,0.5625 0.03125,2.5625 -1.96875,-0.03125 0,-2.625 0.5625,-0.46875 z m -6.9375,0.03125 0.9375,0 0.5,0.59375 -0.0625,2.5 -2,0.0625 0,-2.6875 0.625,-0.46875 z m 10.15625,0.03125 0.8125,0 0.40625,0.59375 -0.03125,2.6875 -1.75,-0.15625 0.0625,-2.65625 0.5,-0.46875 z m -13.0625,0.03125 0.78125,0 0.4375,0.59375 -0.09375,2.5 -1.71875,0.21875 0.09375,-2.84375 0.5,-0.46875 z M 14,18.5 l 0.6875,0 0.40625,0.5625 0.03125,2.375 -1.65625,0.34375 0.0625,-2.84375 L 14,18.5 z m 19.25,0.03125 0.71875,0 0.375,0.5625 0.0625,2.59375 -1.75,-0.15625 L 32.8125,19 33.25,18.53125 z m -21.8125,0.40625 0.65625,0 0.3125,0.53125 0,2.34375 -1.4375,0.28125 0.0625,-2.75 0.40625,-0.40625 z m 24.28125,0.09375 0.625,0 0.34375,0.5 L 36.75,22 35.28125,21.75 35.3125,19.4375 35.71875,19.03125 z M 9.5,19.40625 l 0.4375,0 0.25,0.46875 0,2.21875 L 9.15625,22.25 9.25,19.78125 9.5,19.40625 z M 37.875,19.5 l 0.4375,0 0.21875,0.4375 0.0625,2.375 -1.03125,-0.25 0.03125,-2.21875 L 37.875,19.5 z M 8,19.9375 l 0.4375,0 0.21875,0.46875 0,2.125 L 7.6875,22.75 7.71875,20.3125 8,19.9375 z m 31.46875,0 0.4375,0 0.21875,0.46875 0,2.3125 -0.96875,-0.1875 0.03125,-2.21875 0.28125,-0.375 z m 1.34375,0.4375 0.3125,0 0.125,0.46875 L 41.28125,23.125 40.625,22.9375 40.65625,20.75 40.8125,20.375 z m -34.125,0.03125 0.28125,0 0.15625,0.46875 0,2.09375 -0.6875,0.15625 0.09375,-2.34375 0.15625,-0.375 z M 5.75,20.8125 l 0.1875,0 0.125,0.40625 0,2.03125 -0.53125,0.15625 0.09375,-2.25 0.125,-0.34375 z m 36.0625,0.03125 0.1875,0 0.125,0.4375 0.09375,2.15625 -0.5625,-0.15625 0.03125,-2.09375 0.125,-0.34375 z m -14.46875,2.9375 0.90625,0 0.5,0.59375 -0.03125,2.6875 -2.03125,0 0.09375,-2.8125 0.5625,-0.46875 z m -7.5625,0.09375 0.875,0 0.5,0.5625 -0.03125,2.71875 -2,0 0.0625,-2.8125 0.59375,-0.46875 z m 3.65625,0 1.15625,0 0.625,0.5625 -0.03125,2.71875 -2.59375,0 0.125,-2.8125 0.71875,-0.46875 z m -6.8125,0.09375 0.78125,0 0.40625,0.53125 -0.03125,2.625 -1.71875,0 0.0625,-2.71875 0.5,-0.4375 z M 30.5625,24 31.34375,24 31.75,24.5625 31.71875,27.21875 30,27.15625 30.0625,24.4375 30.5625,24 z m 2.9375,0.03125 0.78125,0 0.40625,0.5625 0,2.71875 -1.75,-0.125 0.0625,-2.71875 0.5,-0.4375 z m -19.90625,0.125 0.78125,0 0.40625,0.5625 -0.09375,2.3125 -1.5625,0.125 0,-2.5625 0.46875,-0.4375 z m -2.40625,0.125 0.65625,0 0.34375,0.53125 -0.03125,2.375 -1.40625,0.09375 0.03125,-2.5625 0.40625,-0.4375 z m 24.9375,0 0.625,0 0.34375,0.53125 -0.0625,2.625 -1.40625,-0.125 0.0625,-2.59375 0.4375,-0.4375 z M 9.21875,24.5 9.75,24.5 10.03125,25 10.125,27.21875 8.8125,27.3125 8.875,24.90625 9.21875,24.5 z m 29,0.0625 0.53125,0 0.28125,0.46875 0.03125,2.40625 -1.21875,-0.09375 0.03125,-2.40625 0.34375,-0.375 z m -30.625,0.21875 0.375,0 L 8.15625,25.25 8.125,27.40625 7.34375,27.4375 7.375,25.15625 l 0.21875,-0.375 z m 32.375,0 0.34375,0 0.21875,0.46875 -0.03125,2.1875 -0.8125,0 0.03125,-2.28125 0.25,-0.375 z m 1.1875,0.125 0.34375,0 0.1875,0.4375 -0.03125,2.125 -0.71875,-0.125 0.03125,-2.09375 0.1875,-0.34375 z M 6.34375,25 6.6875,25 6.84375,25.4375 6.875,27.40625 6.09375,27.46875 6.125,25.375 6.34375,25 z m -0.90625,0.09375 0.28125,0 L 5.875,25.53125 5.84375,27.5 5.25,27.5625 5.28125,25.4375 5.4375,25.09375 z m 36.78125,0.0625 0.25,0 0.15625,0.4375 0,1.96875 L 42,27.46875 42.03125,25.5 l 0.1875,-0.34375 z m 0.25,4.25 0.1875,0 0.09375,0.5 0.03125,2.15625 -0.46875,0.125 0.03125,-2.375 0.125,-0.40625 z m -1.09375,0.0625 0.3125,0 0.15625,0.5 L 41.90625,32.25 41.125,32.40625 41.15625,29.875 41.375,29.46875 z M 5.25,29.5 l 0.1875,0 0.09375,0.46875 0,2.28125 L 5.09375,32.125 5.125,29.875 5.25,29.5 z m 1,0.09375 0.1875,0 0.09375,0.5 0,2.28125 -0.375,-0.09375 L 6.125,30 6.25,29.59375 z m 33.8125,0.03125 0.46875,0 0.25,0.5 0,2.3125 -1.0625,0.25 L 39.75,30.03125 40.0625,29.625 z m -32.59375,0.0625 0.3125,0 0.1875,0.53125 -0.03125,2.4375 -0.78125,-0.125 L 7.25,30.09375 7.46875,29.6875 z m 6.09375,0 0.75,0 0.40625,0.71875 -0.0625,3.0625 -1.59375,-0.1875 0.0625,-3.03125 0.4375,-0.5625 z m 20.0625,0 0.71875,0 0.40625,0.71875 0.09375,2.90625 -1.75,0.3125 0.0625,-3.375 0.46875,-0.5625 z m 2.65625,0 0.625,0 0.3125,0.625 L 37.125,33 l -1.3125,0.25 0.0625,-3.0625 0.40625,-0.5 z m 2.15625,0 0.46875,0 0.25,0.5625 -0.0625,2.40625 L 38.125,32.875 38.15625,30.15625 38.4375,29.6875 z M 11.125,29.75 l 0.625,0 0.3125,0.625 0,2.90625 -1.3125,-0.1875 0,-2.84375 0.375,-0.5 z m 5.40625,0 0.875,0 0.4375,0.71875 L 17.8125,33.6875 15.90625,33.5625 16,30.34375 16.53125,29.75 z m 3.15625,0 1,0 0.53125,0.71875 L 21.1875,33.8125 19,33.6875 19.0625,30.34375 19.6875,29.75 z m 10.90625,0 0.84375,0 0.46875,0.71875 0,3.15625 -2,0.0625 0.125,-3.34375 0.5625,-0.59375 z M 9,29.78125 l 0.46875,0 0.25,0.5625 L 9.6875,32.9375 8.75,32.78125 8.71875,30.21875 9,29.78125 z m 18.25,0.0625 1,0 0.53125,0.71875 0.03125,3.0625 -2.3125,0.0625 0.09375,-3.28125 0.65625,-0.5625 z m -3.8125,0.03125 1.15625,0 0.625,0.71875 -0.0625,3.125 -2.53125,0 0.09375,-3.28125 0.71875,-0.5625 z"
       transform="matrix(0.83228961,0,0,0.83228961,4.5036052,4.8428002)" />
    <g
       id="g3866"
       transform="translate(0.32801822,-0.0546697)">
      <path
         d="m 1.71875,6.5 a 0.45086299,0.45086299 0 0 0 -0.3125,0.4375 l 0,32.90625 a 0.45086299,0.45086299 0 0 0 0.4375,0.4375 l 7.34375,0 a 0.45086299,0.45086299 0 0 0 0.4375,-0.4375 l 0,-2.78125 A 0.45086299,0.45086299 0 0 0 9.1875,36.625 l -3.71875,0 L 5.53125,9.90625 9.25,9.9375 A 0.45086299,0.45086299 0 0 0 9.6875,9.5 l 0,-2.5625 A 0.45086299,0.45086299 0 0 0 9.25,6.5 l -7.40625,0 a 0.45086299,0.45086299 0 0 0 -0.125,0 z"
         id="path3856"
         style="fill:url(#linearGradient3884);fill-opacity:1;stroke:url(#linearGradient3886);stroke-width:1px;stroke-linecap:butt;stroke-linejoin:miter;stroke-opacity:1;filter:url(#filter3862)"
         inkscape:original="M 1.84375 6.9375 L 1.84375 39.84375 L 9.1875 39.84375 L 9.1875 37.0625 L 5.03125 37.0625 L 5.09375 9.46875 L 9.25 9.5 L 9.25 6.9375 L 1.84375 6.9375 z "
         inkscape:radius="0.45081791"
         sodipodi:type="inkscape:offset" />
      <path
         sodipodi:nodetypes="ccccccccc"
         inkscape:connector-curvature="0"
         id="path3064"
         d="m 9.2391798,9.5125292 -4.1548974,-0.05467 -0.05467,27.6081998 4.1548974,0 0,2.788155 -7.3257402,0 0,-32.9111611 7.3804099,-3e-7 z"
         style="fill:url(#linearGradient3888);fill-opacity:1;stroke:url(#linearGradient3890);stroke-width:1px;stroke-linecap:butt;stroke-linejoin:miter;stroke-opacity:1" />
    </g>
    <g
       id="g3870"
       transform="matrix(-1,0,0,1,48.10506,0.21867881)">
      <path
         sodipodi:type="inkscape:offset"
         inkscape:radius="0.45081791"
         inkscape:original="M 1.84375 6.9375 L 1.84375 39.84375 L 9.1875 39.84375 L 9.1875 37.0625 L 5.03125 37.0625 L 5.09375 9.46875 L 9.25 9.5 L 9.25 6.9375 L 1.84375 6.9375 z "
         style="fill:url(#linearGradient3876);fill-opacity:1;stroke:url(#linearGradient3878);stroke-width:1px;stroke-linecap:butt;stroke-linejoin:miter;stroke-opacity:1;filter:url(#filter3862)"
         id="path3872"
         d="m 1.71875,6.5 a 0.45086299,0.45086299 0 0 0 -0.3125,0.4375 l 0,32.90625 a 0.45086299,0.45086299 0 0 0 0.4375,0.4375 l 7.34375,0 a 0.45086299,0.45086299 0 0 0 0.4375,-0.4375 l 0,-2.78125 A 0.45086299,0.45086299 0 0 0 9.1875,36.625 l -3.71875,0 L 5.53125,9.90625 9.25,9.9375 A 0.45086299,0.45086299 0 0 0 9.6875,9.5 l 0,-2.5625 A 0.45086299,0.45086299 0 0 0 9.25,6.5 l -7.40625,0 a 0.45086299,0.45086299 0 0 0 -0.125,0 z" />
      <path
         style="fill:url(#linearGradient3880);fill-opacity:1;stroke:url(#linearGradient3882);stroke-width:1px;stroke-linecap:butt;stroke-linejoin:miter;stroke-opacity:1"
         d="m 9.2391798,9.5125292 -4.1548974,-0.05467 -0.05467,27.6081998 4.1548974,0 0,2.788155 -7.3257402,0 0,-32.9111611 7.3804099,-3e-7 z"
         id="path3874"
         inkscape:connector-curvature="0"
         sodipodi:nodetypes="ccccccccc" />
    </g>
  </g>
</svg>
