<?xml version="1.0" encoding="UTF-8" standalone="no"?>
<!-- Created with Inkscape (http://www.inkscape.org/) -->

<svg
   xmlns:dc="http://purl.org/dc/elements/1.1/"
   xmlns:cc="http://creativecommons.org/ns#"
   xmlns:rdf="http://www.w3.org/1999/02/22-rdf-syntax-ns#"
   xmlns:svg="http://www.w3.org/2000/svg"
   xmlns="http://www.w3.org/2000/svg"
   xmlns:xlink="http://www.w3.org/1999/xlink"
   xmlns:sodipodi="http://sodipodi.sourceforge.net/DTD/sodipodi-0.dtd"
   xmlns:inkscape="http://www.inkscape.org/namespaces/inkscape"
   width="48"
   height="48"
   id="svg2"
   sodipodi:version="0.32"
   inkscape:version="0.48.1 r9760"
   version="1.0"
   sodipodi:docname="keyhunt.svg"
   inkscape:output_extension="org.inkscape.output.svg.inkscape"
   inkscape:export-xdpi="30"
   inkscape:export-ydpi="30">
  <defs
     id="defs4">
    <linearGradient
       id="linearGradient3815">
      <stop
         id="stop3817"
         offset="0"
         style="stop-color:#000000;stop-opacity:1;" />
      <stop
         style="stop-color:#0f3e6f;stop-opacity:1"
         offset="0.49614704"
         id="stop3819" />
      <stop
         id="stop3821"
         offset="1"
         style="stop-color:#000000;stop-opacity:1;" />
    </linearGradient>
    <linearGradient
       id="linearGradient4489">
      <stop
         id="stop4491"
         offset="0"
         style="stop-color:#000000;stop-opacity:1;" />
      <stop
         style="stop-color:#0f3f6f;stop-opacity:1;"
         offset="0.50144649"
         id="stop4493" />
      <stop
         id="stop4495"
         offset="1"
         style="stop-color:#000000;stop-opacity:1;" />
    </linearGradient>
    <linearGradient
       id="linearGradient4425">
      <stop
         id="stop4427"
         offset="0"
         style="stop-color:#bfdfff;stop-opacity:1;" />
      <stop
         style="stop-color:#5fafff;stop-opacity:1;"
         offset="0.2"
         id="stop4429" />
      <stop
         style="stop-color:#5fafff;stop-opacity:1;"
         offset="0.80000001"
         id="stop4431" />
      <stop
         id="stop4433"
         offset="1"
         style="stop-color:#bfdfff;stop-opacity:0" />
    </linearGradient>
    <linearGradient
       id="linearGradient3698">
      <stop
         style="stop-color:#000000;stop-opacity:1;"
         offset="0"
         id="stop3700" />
      <stop
         id="stop3706"
         offset="0.5"
         style="stop-color:#0f3f6f;stop-opacity:1;" />
      <stop
         style="stop-color:#000000;stop-opacity:1;"
         offset="1"
         id="stop3702" />
    </linearGradient>
    <linearGradient
       id="linearGradient3674">
      <stop
         style="stop-color:#4f0f00;stop-opacity:1;"
         offset="0"
         id="stop3676" />
      <stop
         id="stop4673"
         offset="0.5"
         style="stop-color:#270700;stop-opacity:1;" />
      <stop
         style="stop-color:#4f0f00;stop-opacity:1;"
         offset="1"
         id="stop3678" />
    </linearGradient>
    <linearGradient
       id="linearGradient3666">
      <stop
         style="stop-color:#3f0f00;stop-opacity:1;"
         offset="0"
         id="stop3668" />
      <stop
         id="stop3671"
         offset="0.75"
         style="stop-color:#ff7f2f;stop-opacity:1;" />
      <stop
         style="stop-color:#3f0f00;stop-opacity:1;"
         offset="1"
         id="stop3670" />
    </linearGradient>
    <linearGradient
       id="linearGradient3606">
      <stop
         style="stop-color:#bfdfff;stop-opacity:1;"
         offset="0"
         id="stop3608" />
      <stop
         id="stop3616"
         offset="0.2"
         style="stop-color:#5fafff;stop-opacity:1;" />
      <stop
         id="stop3614"
         offset="0.80000001"
         style="stop-color:#5fafff;stop-opacity:1;" />
      <stop
         style="stop-color:#bfdfff;stop-opacity:1;"
         offset="1"
         id="stop3610" />
    </linearGradient>
    <linearGradient
       inkscape:collect="always"
       xlink:href="#linearGradient3698"
       id="linearGradient3705"
       gradientUnits="userSpaceOnUse"
       x1="1024"
       y1="640"
       x2="1024"
       y2="384"
       gradientTransform="matrix(0.17187493,0,0,0.17187493,-151.99995,-63.999958)" />
    <linearGradient
       inkscape:collect="always"
       xlink:href="#linearGradient3606"
       id="linearGradient3708"
       gradientUnits="userSpaceOnUse"
       gradientTransform="matrix(0.17187493,0,0,0.17187493,-151.99995,-239.99988)"
       x1="1024"
       y1="1664"
       x2="1024"
       y2="1480" />
    <linearGradient
       inkscape:collect="always"
       xlink:href="#linearGradient3606"
       id="linearGradient3659"
       x1="23.999979"
       y1="46.000004"
       x2="23.999979"
       y2="14.375016"
       gradientUnits="userSpaceOnUse" />
    <linearGradient
       inkscape:collect="always"
       xlink:href="#linearGradient3606"
       id="linearGradient4423"
       x1="-20.385151"
       y1="10.64743"
       x2="-4.4441223"
       y2="49.22245"
       gradientUnits="userSpaceOnUse"
       gradientTransform="translate(39.335653,0.16299303)" />
    <radialGradient
       inkscape:collect="always"
       xlink:href="#linearGradient3815"
       id="radialGradient3874"
       gradientUnits="userSpaceOnUse"
       gradientTransform="matrix(-0.45863402,0.69198503,-0.69198503,-0.45863402,42.795632,12.660388)"
       cx="16.444647"
       cy="15.972093"
       fx="16.444647"
       fy="15.972093"
       r="10.162018" />
    <linearGradient
       inkscape:collect="always"
       xlink:href="#linearGradient3606"
       id="linearGradient3876"
       gradientUnits="userSpaceOnUse"
       gradientTransform="matrix(-0.45863402,0.69198503,-0.69198503,-0.45863402,42.795632,12.660388)"
       x1="6.282629"
       y1="15.972093"
       x2="26.606665"
       y2="15.972093" />
    <linearGradient
       inkscape:collect="always"
       xlink:href="#linearGradient3666"
       id="linearGradient3883"
       gradientUnits="userSpaceOnUse"
       gradientTransform="matrix(0.16293905,0.79067996,-0.79067996,0.16293905,39.022498,2.8029728)"
       x1="6.282629"
       y1="15.972093"
       x2="50.333942"
       y2="16.128708" />
    <linearGradient
       inkscape:collect="always"
       xlink:href="#linearGradient3674"
       id="linearGradient3885"
       x1="-26.070545"
       y1="33.744911"
       x2="20.554455"
       y2="33.744911"
       gradientUnits="userSpaceOnUse"
       gradientTransform="matrix(0.16293905,0.79067996,-0.79067996,0.16293905,58.347164,25.478078)" />
    <linearGradient
       inkscape:collect="always"
       xlink:href="#linearGradient3666"
       id="linearGradient3895"
       x1="-20.342037"
       y1="5.3613796"
       x2="-2.6021609"
       y2="5.3613796"
       gradientUnits="userSpaceOnUse" />
    <linearGradient
       inkscape:collect="always"
       xlink:href="#linearGradient3666"
       id="linearGradient3901"
       gradientUnits="userSpaceOnUse"
       x1="-20.342037"
       y1="5.3613796"
       x2="-2.6021609"
       y2="5.3613796" />
    <linearGradient
       inkscape:collect="always"
       xlink:href="#linearGradient3666"
       id="linearGradient3907"
       gradientUnits="userSpaceOnUse"
       x1="-20.342037"
       y1="5.3613796"
       x2="-2.6021609"
       y2="5.3613796"
       gradientTransform="matrix(-0.54969848,-0.28930492,0.4081343,-0.77548218,26.822478,8.7209614)" />
    <linearGradient
       inkscape:collect="always"
       xlink:href="#linearGradient3666"
       id="linearGradient3910"
       gradientUnits="userSpaceOnUse"
       gradientTransform="matrix(-0.54969848,-0.28930492,0.4081343,-0.77548218,26.822478,8.7209614)"
       x1="-20.342037"
       y1="5.3613796"
       x2="-2.6021609"
       y2="5.3613796" />
    <linearGradient
       inkscape:collect="always"
       xlink:href="#linearGradient3666"
       id="linearGradient3913"
       gradientUnits="userSpaceOnUse"
       gradientTransform="matrix(-0.54969848,-0.28930492,0.4081343,-0.77548218,26.430939,8.0944987)"
       x1="-20.342037"
       y1="5.3613796"
       x2="-2.6021609"
       y2="5.3613796" />
    <linearGradient
       inkscape:collect="always"
       xlink:href="#linearGradient3666"
       id="linearGradient3918"
       gradientUnits="userSpaceOnUse"
       gradientTransform="matrix(-0.54969848,-0.28930492,0.4081343,-0.77548218,26.665862,7.6246519)"
       x1="-20.342037"
       y1="5.3613796"
       x2="-2.6021609"
       y2="5.3613796" />
    <linearGradient
       inkscape:collect="always"
       xlink:href="#linearGradient3666"
       id="linearGradient3923"
       gradientUnits="userSpaceOnUse"
       gradientTransform="matrix(-0.54969848,-0.28930492,0.4081343,-0.77548218,21.52691,9.5380915)"
       x1="-20.342037"
       y1="5.3613796"
       x2="-2.6021609"
       y2="5.3613796" />
    <linearGradient
       inkscape:collect="always"
       xlink:href="#linearGradient3674"
       id="linearGradient3930"
       gradientUnits="userSpaceOnUse"
       gradientTransform="matrix(0.16293905,0.79067996,-0.79067996,0.16293905,58.347164,25.478078)"
       x1="-26.070545"
       y1="33.744911"
       x2="20.554455"
       y2="33.744911" />
    <linearGradient
       inkscape:collect="always"
       xlink:href="#linearGradient3666"
       id="linearGradient3932"
       gradientUnits="userSpaceOnUse"
       gradientTransform="matrix(0.16293905,0.79067996,-0.79067996,0.16293905,39.022498,2.8029728)"
       x1="6.282629"
       y1="15.972093"
       x2="50.333942"
       y2="16.128708" />
    <radialGradient
       inkscape:collect="always"
       xlink:href="#linearGradient3815"
       id="radialGradient3934"
       gradientUnits="userSpaceOnUse"
       gradientTransform="matrix(-0.45863402,0.69198503,-0.69198503,-0.45863402,42.795632,12.660388)"
       cx="16.444647"
       cy="15.972093"
       fx="16.444647"
       fy="15.972093"
       r="10.162018" />
    <linearGradient
       inkscape:collect="always"
       xlink:href="#linearGradient3606"
       id="linearGradient3936"
       gradientUnits="userSpaceOnUse"
       gradientTransform="matrix(-0.45863402,0.69198503,-0.69198503,-0.45863402,42.795632,12.660388)"
       x1="6.282629"
       y1="15.972093"
       x2="26.606665"
       y2="15.972093" />
    <linearGradient
       inkscape:collect="always"
       xlink:href="#linearGradient3666"
       id="linearGradient3938"
       gradientUnits="userSpaceOnUse"
       gradientTransform="matrix(-0.54969848,-0.28930492,0.4081343,-0.77548218,21.52691,9.5380915)"
       x1="-20.342037"
       y1="5.3613796"
       x2="-2.6021609"
       y2="5.3613796" />
    <radialGradient
       inkscape:collect="always"
       xlink:href="#linearGradient3815"
       id="radialGradient3944"
       gradientUnits="userSpaceOnUse"
       gradientTransform="matrix(1.4649818,2.2483151,-0.69554779,0.45321265,0.22569382,-24.925673)"
       cx="16.444647"
       cy="15.972093"
       fx="16.444647"
       fy="15.972093"
       r="10.162018" />
    <linearGradient
       inkscape:collect="always"
       xlink:href="#linearGradient3666"
       id="linearGradient3951"
       gradientUnits="userSpaceOnUse"
       gradientTransform="matrix(0.79296578,0.15142392,-0.15142392,0.79296578,6.2852576,0.11055626)"
       x1="8.7655087"
       y1="14.532758"
       x2="53.004349"
       y2="16.032431" />
    <radialGradient
       inkscape:collect="always"
       xlink:href="#linearGradient3666"
       id="radialGradient3953"
       cx="7.9176555"
       cy="8.5510292"
       fx="7.9176555"
       fy="8.5510292"
       r="5.9151131"
       gradientTransform="matrix(0.7866752,0.947637,-0.85755025,0.71189023,8.1262458,-3.9476906)"
       gradientUnits="userSpaceOnUse" />
    <linearGradient
       inkscape:collect="always"
       xlink:href="#linearGradient3606"
       id="linearGradient3957"
       x1="9.0966597"
       y1="13.631444"
       x2="24.739796"
       y2="41.239643"
       gradientUnits="userSpaceOnUse"
       gradientTransform="translate(-1.0933941,0.65603645)" />
    <radialGradient
       inkscape:collect="always"
       xlink:href="#linearGradient3674"
       id="radialGradient3959"
       cx="13.118983"
       cy="30.983377"
       fx="13.118983"
       fy="30.983377"
       r="18.547337"
       gradientTransform="matrix(1.3955679,0.38653824,-0.04370835,0.15780579,-0.81145216,4.0797825)"
       gradientUnits="userSpaceOnUse" />
    <radialGradient
       inkscape:collect="always"
       xlink:href="#linearGradient3674"
       id="radialGradient3837"
       gradientUnits="userSpaceOnUse"
       gradientTransform="matrix(1.3955679,0.38653824,-0.04370835,0.15780579,-0.81145216,4.0797825)"
       cx="13.118983"
       cy="30.983377"
       fx="13.118983"
       fy="30.983377"
       r="18.547337" />
    <linearGradient
       inkscape:collect="always"
       xlink:href="#linearGradient3666"
       id="linearGradient3839"
       gradientUnits="userSpaceOnUse"
       gradientTransform="matrix(0.79296578,0.15142392,-0.15142392,0.79296578,6.2852576,0.11055626)"
       x1="8.7655087"
       y1="14.532758"
       x2="53.004349"
       y2="16.032431" />
    <filter
       inkscape:collect="always"
       id="filter3841">
      <feGaussianBlur
         inkscape:collect="always"
         stdDeviation="0.41586488"
         id="feGaussianBlur3843" />
    </filter>
    <radialGradient
       inkscape:collect="always"
       xlink:href="#linearGradient3815"
       id="radialGradient3853"
       gradientUnits="userSpaceOnUse"
       gradientTransform="matrix(1.4649818,2.2483151,-0.69554779,0.45321265,0.22569382,-24.925673)"
       cx="16.444647"
       cy="15.972093"
       fx="16.444647"
       fy="15.972093"
       r="10.162018" />
    <linearGradient
       inkscape:collect="always"
       xlink:href="#linearGradient3606"
       id="linearGradient3855"
       gradientUnits="userSpaceOnUse"
       gradientTransform="translate(-1.0933941,0.65603645)"
       x1="9.0966597"
       y1="13.631444"
       x2="24.739796"
       y2="41.239643" />
    <filter
       inkscape:collect="always"
       id="filter3857">
      <feGaussianBlur
         inkscape:collect="always"
         stdDeviation="0.44219036"
         id="feGaussianBlur3859" />
    </filter>
    <radialGradient
       inkscape:collect="always"
       xlink:href="#linearGradient3666"
       id="radialGradient3882"
       gradientUnits="userSpaceOnUse"
       gradientTransform="matrix(0.7866752,0.947637,-0.85755025,0.71189023,8.1262458,-3.9476906)"
       cx="7.9176555"
       cy="8.5510292"
       fx="7.9176555"
       fy="8.5510292"
       r="5.9151131" />
    <radialGradient
       inkscape:collect="always"
       xlink:href="#linearGradient3666"
       id="radialGradient3886"
       gradientUnits="userSpaceOnUse"
       gradientTransform="matrix(0.7866752,0.947637,-0.85755025,0.71189023,8.1262458,-3.9476906)"
       cx="7.9176555"
       cy="8.5510292"
       fx="7.9176555"
       fy="8.5510292"
       r="5.9151131" />
    <radialGradient
       inkscape:collect="always"
       xlink:href="#linearGradient3666"
       id="radialGradient3894"
       gradientUnits="userSpaceOnUse"
       gradientTransform="matrix(0.7866752,0.947637,-0.85755025,0.71189023,8.1262458,-3.9476906)"
       cx="7.9176555"
       cy="8.5510292"
       fx="7.9176555"
       fy="8.5510292"
       r="5.9151131" />
    <filter
       inkscape:collect="always"
       id="filter3896">
      <feGaussianBlur
         inkscape:collect="always"
         stdDeviation="0.17656924"
         id="feGaussianBlur3898" />
    </filter>
  </defs>
  <sodipodi:namedview
     id="base"
     pagecolor="#000000"
     bordercolor="#666666"
     borderopacity="1.0"
     inkscape:pageopacity="0"
     inkscape:pageshadow="2"
     inkscape:zoom="18.291667"
     inkscape:cx="14.706151"
     inkscape:cy="24"
     inkscape:document-units="px"
     inkscape:current-layer="XonoticIcon"
     showgrid="false"
     inkscape:showpageshadow="false"
     gridtolerance="10"
     showguides="true"
     inkscape:guide-bbox="true"
     inkscape:snap-to-guides="true"
     inkscape:snap-global="true"
     borderlayer="true"
     showborder="true"
     inkscape:window-width="1920"
     inkscape:window-height="1052"
     inkscape:window-x="0"
     inkscape:window-y="1"
     inkscape:window-maximized="1">
    <inkscape:grid
       type="xygrid"
       id="grid2383"
       visible="true"
       enabled="true"
       empspacing="4"
       snapvisiblegridlinesonly="true" />
  </sodipodi:namedview>
  <metadata
     id="metadata7">
    <rdf:RDF>
      <cc:Work
         rdf:about="">
        <dc:format>image/svg+xml</dc:format>
        <dc:type
           rdf:resource="http://purl.org/dc/dcmitype/StillImage" />
        <dc:title></dc:title>
        <dc:date>2010</dc:date>
        <dc:rights>
          <cc:Agent>
            <dc:title>Xonotic Community</dc:title>
          </cc:Agent>
        </dc:rights>
        <dc:publisher>
          <cc:Agent>
            <dc:title />
          </cc:Agent>
        </dc:publisher>
        <dc:creator>
          <cc:Agent>
            <dc:title>Xonotic Community</dc:title>
          </cc:Agent>
        </dc:creator>
        <cc:license
           rdf:resource="Dual-licensed under the &quot;GNU LGPL v2.1, or any later version&quot; (http://www.gnu.org/licenses/old-licenses/lgpl-2.1.html) and &quot;CC-BY v3.0&quot; (http://creativecommons.org/licenses/by/3.0/)" />
        <dc:subject>
          <rdf:Bag>
            <rdf:li>Xonotic</rdf:li>
            <rdf:li>Phoenix</rdf:li>
            <rdf:li>Icon</rdf:li>
          </rdf:Bag>
        </dc:subject>
        <dc:description>The icon of the Xonotic project.</dc:description>
        <dc:relation>Xonotic Logo</dc:relation>
      </cc:Work>
    </rdf:RDF>
  </metadata>
  <g
     inkscape:groupmode="layer"
     id="XonoticIcon">
    <path
       sodipodi:type="inkscape:offset"
       inkscape:radius="0.22463392"
       inkscape:original="M 5.40625 4.75 C 4.7334887 4.856108 4.1436753 5.0993038 3.625 5.53125 C 1.5502991 7.2590338 1.8437942 11.041884 4.28125 13.96875 C 6.5954795 16.747647 10.01001 17.758061 12.125 16.375 C 12.237617 16.301355 12.332614 16.2436 12.4375 16.15625 C 12.487337 16.114748 12.54665 16.07507 12.59375 16.03125 L 12.40625 8.53125 C 12.270132 8.3276027 12.124001 8.1351292 11.96875 7.9375 C 11.910876 7.8638261 11.84177 7.791426 11.78125 7.71875 C 9.9531572 5.5236007 7.4245338 4.4316761 5.40625 4.75 z "
       style="fill:none;stroke:url(#radialGradient3894);stroke-width:1.47561060999999993;stroke-linejoin:miter;stroke-miterlimit:4;stroke-opacity:1;stroke-dasharray:none;filter:url(#filter3896)"
       id="path3892"
       d="M 6.1875,4.46875 C 5.9097266,4.4653554 5.6406117,4.4893577 5.375,4.53125 4.6700206,4.6424394 4.0199144,4.8847473 3.46875,5.34375 2.365449,6.2625646 1.908361,7.7312904 2.03125,9.3125 c 0.122889,1.58121 0.8161551,3.315905 2.0625,4.8125 1.1833132,1.420907 2.6699114,2.37091 4.125,2.8125 1.4550886,0.44159 2.906441,0.36055 4.03125,-0.375 0.109212,-0.07142 0.225027,-0.119876 0.34375,-0.21875 0.03659,-0.03047 0.0898,-0.09443 0.15625,-0.15625 a 0.22465638,0.22465638 0 0 0 0.03125,-0.03125 0.22465638,0.22465638 0 0 0 0.03125,-0.0625 0.22465638,0.22465638 0 0 0 0,-0.0625 l -0.1875,-7.5 a 0.22465638,0.22465638 0 0 0 0,-0.0625 0.22465638,0.22465638 0 0 0 -0.03125,-0.0625 C 12.452694,8.1952153 12.312969,8.0119974 12.15625,7.8125 12.088877,7.7267342 12.022406,7.6269328 11.96875,7.5625 10.332644,5.5978853 8.1319136,4.4925124 6.1875,4.46875 z" />
    <path
       sodipodi:type="inkscape:offset"
       inkscape:radius="0.61319166"
       inkscape:original="M 11.75 11.8125 C 10.779661 12.000527 9.8080435 12.381358 8.9375 12.96875 C 5.4553254 15.318318 4.556683 20.049076 6.90625 23.53125 C 8.7281219 26.231352 11.976598 27.39874 14.96875 26.6875 L 15.6875 27.84375 L 17.25 30.09375 L 19.09375 32.75 L 18.5 34.6875 L 20.84375 35.3125 L 20.4375 37.5625 L 22.78125 38.1875 L 22.46875 42.8125 L 26.21875 43.40625 L 29.5 43.78125 L 30.03125 40.1875 L 19.15625 24.0625 C 21.184191 21.532432 21.440274 17.860516 19.53125 15.03125 C 17.769074 12.419619 14.661016 11.24842 11.75 11.8125 z M 12.09375 14.625 C 12.653139 14.733641 13.184839 15.080353 13.53125 15.59375 C 14.224071 16.620545 13.964295 17.994679 12.9375 18.6875 C 11.910705 19.380322 10.505321 19.120544 9.8125 18.09375 C 9.119679 17.066955 9.4107059 15.661572 10.4375 14.96875 C 10.950898 14.622339 11.534361 14.516359 12.09375 14.625 z "
       style="fill:url(#radialGradient3853);fill-opacity:1;stroke:url(#linearGradient3855);stroke-width:1.66034746000000011;stroke-linejoin:miter;stroke-miterlimit:4;stroke-opacity:1;stroke-dasharray:none;filter:url(#filter3857)"
       id="path3851"
       d="m 14,11.09375 c -0.787018,-0.07728 -1.588333,-0.02744 -2.375,0.125 -1.047098,0.202901 -2.0872129,0.613019 -3.03125,1.25 -3.7579768,2.535663 -4.7216405,7.650529 -2.1875,11.40625 1.8657954,2.765199 5.124075,3.973516 8.21875,3.4375 l 0.53125,0.84375 a 0.61325298,0.61325298 0 0 0 0.03125,0.03125 l 1.5625,2.25 1.65625,2.40625 -0.5,1.65625 a 0.61325298,0.61325298 0 0 0 0.4375,0.78125 l 1.8125,0.46875 -0.3125,1.71875 a 0.61325298,0.61325298 0 0 0 0.4375,0.6875 l 1.84375,0.5 -0.28125,4.125 a 0.61325298,0.61325298 0 0 0 0.53125,0.625 L 26.125,44 a 0.61325298,0.61325298 0 0 0 0.03125,0 l 3.28125,0.375 a 0.61325298,0.61325298 0 0 0 0.65625,-0.5 L 30.625,40.28125 a 0.61325298,0.61325298 0 0 0 -0.09375,-0.4375 L 19.875,24.03125 C 21.797778,21.317116 21.997222,17.601165 20.03125,14.6875 18.605038,12.573784 16.361054,11.325591 14,11.09375 z m -2.03125,4.125 c 0.391091,0.07596 0.807214,0.340404 1.0625,0.71875 0.511195,0.757617 0.31742,1.740624 -0.4375,2.25 -0.752835,0.507969 -1.776656,0.310333 -2.28125,-0.4375 -0.5031871,-0.745748 -0.283865,-1.773428 0.46875,-2.28125 0.382906,-0.258363 0.779712,-0.329198 1.1875,-0.25 z" />
    <path
       sodipodi:type="inkscape:offset"
       inkscape:radius="0.7112475"
       inkscape:original="M 18.3125 8 C 14.300059 7.2337877 10.39121 9.8625595 9.625 13.875 C 8.858787 17.887441 11.518809 21.765039 15.53125 22.53125 C 18.642525 23.125377 21.658353 21.676433 23.21875 19.125 L 24.53125 19.40625 L 27.125 19.875 L 30.25 20.4375 L 31.15625 22.1875 L 33.1875 21 L 34.46875 22.8125 L 36.5 21.625 L 39.46875 25.03125 L 42.46875 22.84375 L 44.96875 20.84375 L 42.84375 17.96875 L 24.28125 14.4375 C 23.926143 11.304425 21.572608 8.6225456 18.3125 8 z M 14.5625 12.5 C 15.745656 12.725934 16.538434 13.879343 16.3125 15.0625 C 16.086566 16.245656 14.933155 17.007185 13.75 16.78125 C 12.566844 16.555317 11.805316 15.401906 12.03125 14.21875 C 12.257184 13.035595 13.379345 12.274066 14.5625 12.5 z "
       style="fill:url(#radialGradient3837);fill-opacity:1;stroke:url(#linearGradient3839);stroke-width:1.61458838000000005;stroke-linejoin:miter;stroke-miterlimit:4;stroke-opacity:1;stroke-dasharray:none;filter:url(#filter3841)"
       id="path3835"
       d="m 18.4375,7.3125 c -4.390438,-0.8383943 -8.6609311,2.0435166 -9.5,6.4375 -0.8389358,4.39327 2.078934,8.630476 6.46875,9.46875 3.214789,0.613894 6.283136,-0.800517 8.0625,-3.3125 l 0.90625,0.1875 a 0.71131863,0.71131863 0 0 0 0.03125,0 L 27,20.5625 l 2.78125,0.5 0.75,1.4375 A 0.71131863,0.71131863 0 0 0 31.5,22.8125 l 1.46875,-0.875 0.90625,1.28125 a 0.71131863,0.71131863 0 0 0 0.9375,0.21875 L 36.34375,22.53125 38.9375,25.5 a 0.71131863,0.71131863 0 0 0 0.9375,0.09375 l 3,-2.1875 a 0.71131863,0.71131863 0 0 0 0.03125,0 l 2.5,-2 a 0.71131863,0.71131863 0 0 0 0.125,-1 l -2.125,-2.875 a 0.71131863,0.71131863 0 0 0 -0.4375,-0.25 l -18.125,-3.4375 C 24.262167,10.637522 21.820901,7.9585895 18.4375,7.3125 z m -4,5.875 c 0.802588,0.153261 1.339963,0.951592 1.1875,1.75 -0.152828,0.800321 -0.939727,1.31098 -1.75,1.15625 -0.80032,-0.152828 -1.310979,-0.939725 -1.15625,-1.75 0.155095,-0.812188 0.90621,-1.311412 1.71875,-1.15625 z" />
    <path
       id="path3879"
       d="m 18.304345,8.0050105 c -4.012441,-0.7662123 -7.905637,1.856944 -8.6718471,5.8693845 -0.766213,4.012441 1.8864561,7.885589 5.8988971,8.6518 3.111275,0.594127 6.128452,-0.860234 7.688849,-3.411667 l 1.303885,0.300357 2.606652,0.472079 3.106986,0.541939 0.925577,1.743459 2.023265,-1.180351 1.297279,1.814439 2.023266,-1.180351 2.973485,3.393031 2.984341,-2.178279 2.51576,-2.010922 -2.1276,-2.846246 -18.585135,-3.548997 C 23.912898,11.301611 21.564453,8.6275561 18.304345,8.0050105 z m -3.735976,4.5003915 c 1.183156,0.225934 1.974859,1.359623 1.748925,2.54278 -0.225934,1.183156 -1.384404,1.970126 -2.567559,1.744191 -1.183156,-0.225933 -1.945346,-1.379671 -1.719412,-2.562827 0.225934,-1.183155 1.354891,-1.950078 2.538046,-1.724144 z"
       style="fill:url(#radialGradient3959);fill-opacity:1;stroke:url(#linearGradient3951);stroke-width:1.61458838;stroke-linejoin:miter;stroke-miterlimit:4;stroke-opacity:1;stroke-dasharray:none"
       inkscape:connector-curvature="0" />
    <path
       style="fill:url(#radialGradient3944);fill-opacity:1;stroke:url(#linearGradient3957);stroke-width:1.66034746;stroke-linejoin:miter;stroke-miterlimit:4;stroke-opacity:1;stroke-dasharray:none"
       d="m 19.516863,15.042072 c -2.349568,-3.482175 -7.084991,-4.420547 -10.5671651,-2.070979 -3.4821746,2.349568 -4.3845311,7.091986 -2.0349641,10.57416 1.8218719,2.700102 5.0697532,3.846699 8.0619052,3.135459 l 0.726049,1.168803 1.545112,2.243551 1.85683,2.659145 -0.600809,1.938905 2.327564,0.620231 -0.383151,2.261485 2.327564,0.62023 -0.3196,4.628413 3.752126,0.597906 3.290393,0.377419 0.533911,-3.615057 -10.882911,-16.129004 c 2.027941,-2.530068 2.27617,-6.181401 0.367146,-9.010667 z m -5.990765,0.537043 c 0.692821,1.026795 0.439753,2.42605 -0.587042,3.118871 -1.026795,0.692822 -2.440561,0.418248 -3.1333821,-0.608546 -0.692821,-1.026795 -0.403737,-2.419055 0.6230571,-3.111877 1.026796,-0.692821 2.404545,-0.425243 3.097367,0.601552 z"
       id="path3029"
       inkscape:connector-curvature="0" />
    <path
       style="fill:none;stroke:url(#radialGradient3953);stroke-width:1.47561061;stroke-linejoin:miter;stroke-miterlimit:4;stroke-opacity:1;stroke-dasharray:none"
       d="m 12.581927,16.017057 c -0.0471,0.04382 -0.09557,0.0865 -0.145407,0.128002 -0.104886,0.08735 -0.213821,0.167797 -0.326438,0.241442 -2.1149901,1.383061 -5.5293156,0.366326 -7.8435451,-2.412571 l 0,0 0,0 C 1.8290811,11.047064 1.5350103,7.2737252 3.6097112,5.5459414 5.6844124,3.8181567 9.3422379,4.7902046 11.779695,7.7170703 c 0.06052,0.072676 0.119723,0.1458696 0.177597,0.2195435 0.155251,0.1976292 0.300968,0.3986946 0.437086,0.6023419"
       id="path3887"
       inkscape:connector-curvature="0"
       sodipodi:nodetypes="csscccscsc" />
  </g>
</svg>
